(kicad_sch (version 20230121) (generator eeschema)

  (uuid cefae286-dde6-44ae-8b1c-fe027df923e4)

  (paper "A4")

  (lib_symbols
    (symbol "Connector_Generic_MountingPin:Conn_01x01_MountingPin" (pin_names (offset 1.016) hide) (in_bom yes) (on_board yes)
      (property "Reference" "J" (at 0 2.54 0)
        (effects (font (size 1.27 1.27)))
      )
      (property "Value" "Conn_01x01_MountingPin" (at 1.27 -2.54 0)
        (effects (font (size 1.27 1.27)) (justify left))
      )
      (property "Footprint" "" (at 0 0 0)
        (effects (font (size 1.27 1.27)) hide)
      )
      (property "Datasheet" "~" (at 0 0 0)
        (effects (font (size 1.27 1.27)) hide)
      )
      (property "ki_keywords" "connector" (at 0 0 0)
        (effects (font (size 1.27 1.27)) hide)
      )
      (property "ki_description" "Generic connectable mounting pin connector, single row, 01x01, script generated (kicad-library-utils/schlib/autogen/connector/)" (at 0 0 0)
        (effects (font (size 1.27 1.27)) hide)
      )
      (property "ki_fp_filters" "Connector*:*_1x??-1MP*" (at 0 0 0)
        (effects (font (size 1.27 1.27)) hide)
      )
      (symbol "Conn_01x01_MountingPin_1_1"
        (rectangle (start -1.27 0.127) (end 0 -0.127)
          (stroke (width 0.1524) (type default))
          (fill (type none))
        )
        (rectangle (start -1.27 1.27) (end 1.27 -1.27)
          (stroke (width 0.254) (type default))
          (fill (type background))
        )
        (polyline
          (pts
            (xy -1.016 -2.032)
            (xy 1.016 -2.032)
          )
          (stroke (width 0.1524) (type default))
          (fill (type none))
        )
        (text "Mounting" (at 0 -1.651 0)
          (effects (font (size 0.381 0.381)))
        )
        (pin passive line (at -5.08 0 0) (length 3.81)
          (name "Pin_1" (effects (font (size 1.27 1.27))))
          (number "1" (effects (font (size 1.27 1.27))))
        )
        (pin passive line (at 0 -5.08 90) (length 3.048)
          (name "MountPin" (effects (font (size 1.27 1.27))))
          (number "MP" (effects (font (size 1.27 1.27))))
        )
      )
    )
    (symbol "Device:C" (pin_numbers hide) (pin_names (offset 0.254)) (in_bom yes) (on_board yes)
      (property "Reference" "C" (at 0.635 2.54 0)
        (effects (font (size 1.27 1.27)) (justify left))
      )
      (property "Value" "C" (at 0.635 -2.54 0)
        (effects (font (size 1.27 1.27)) (justify left))
      )
      (property "Footprint" "" (at 0.9652 -3.81 0)
        (effects (font (size 1.27 1.27)) hide)
      )
      (property "Datasheet" "~" (at 0 0 0)
        (effects (font (size 1.27 1.27)) hide)
      )
      (property "ki_keywords" "cap capacitor" (at 0 0 0)
        (effects (font (size 1.27 1.27)) hide)
      )
      (property "ki_description" "Unpolarized capacitor" (at 0 0 0)
        (effects (font (size 1.27 1.27)) hide)
      )
      (property "ki_fp_filters" "C_*" (at 0 0 0)
        (effects (font (size 1.27 1.27)) hide)
      )
      (symbol "C_0_1"
        (polyline
          (pts
            (xy -2.032 -0.762)
            (xy 2.032 -0.762)
          )
          (stroke (width 0.508) (type default))
          (fill (type none))
        )
        (polyline
          (pts
            (xy -2.032 0.762)
            (xy 2.032 0.762)
          )
          (stroke (width 0.508) (type default))
          (fill (type none))
        )
      )
      (symbol "C_1_1"
        (pin passive line (at 0 3.81 270) (length 2.794)
          (name "~" (effects (font (size 1.27 1.27))))
          (number "1" (effects (font (size 1.27 1.27))))
        )
        (pin passive line (at 0 -3.81 90) (length 2.794)
          (name "~" (effects (font (size 1.27 1.27))))
          (number "2" (effects (font (size 1.27 1.27))))
        )
      )
    )
    (symbol "Device:C_Polarized" (pin_numbers hide) (pin_names (offset 0.254)) (in_bom yes) (on_board yes)
      (property "Reference" "C" (at 0.635 2.54 0)
        (effects (font (size 1.27 1.27)) (justify left))
      )
      (property "Value" "C_Polarized" (at 0.635 -2.54 0)
        (effects (font (size 1.27 1.27)) (justify left))
      )
      (property "Footprint" "" (at 0.9652 -3.81 0)
        (effects (font (size 1.27 1.27)) hide)
      )
      (property "Datasheet" "~" (at 0 0 0)
        (effects (font (size 1.27 1.27)) hide)
      )
      (property "ki_keywords" "cap capacitor" (at 0 0 0)
        (effects (font (size 1.27 1.27)) hide)
      )
      (property "ki_description" "Polarized capacitor" (at 0 0 0)
        (effects (font (size 1.27 1.27)) hide)
      )
      (property "ki_fp_filters" "CP_*" (at 0 0 0)
        (effects (font (size 1.27 1.27)) hide)
      )
      (symbol "C_Polarized_0_1"
        (rectangle (start -2.286 0.508) (end 2.286 1.016)
          (stroke (width 0) (type default))
          (fill (type none))
        )
        (polyline
          (pts
            (xy -1.778 2.286)
            (xy -0.762 2.286)
          )
          (stroke (width 0) (type default))
          (fill (type none))
        )
        (polyline
          (pts
            (xy -1.27 2.794)
            (xy -1.27 1.778)
          )
          (stroke (width 0) (type default))
          (fill (type none))
        )
        (rectangle (start 2.286 -0.508) (end -2.286 -1.016)
          (stroke (width 0) (type default))
          (fill (type outline))
        )
      )
      (symbol "C_Polarized_1_1"
        (pin passive line (at 0 3.81 270) (length 2.794)
          (name "~" (effects (font (size 1.27 1.27))))
          (number "1" (effects (font (size 1.27 1.27))))
        )
        (pin passive line (at 0 -3.81 90) (length 2.794)
          (name "~" (effects (font (size 1.27 1.27))))
          (number "2" (effects (font (size 1.27 1.27))))
        )
      )
    )
    (symbol "Device:R" (pin_numbers hide) (pin_names (offset 0)) (in_bom yes) (on_board yes)
      (property "Reference" "R" (at 2.032 0 90)
        (effects (font (size 1.27 1.27)))
      )
      (property "Value" "R" (at 0 0 90)
        (effects (font (size 1.27 1.27)))
      )
      (property "Footprint" "" (at -1.778 0 90)
        (effects (font (size 1.27 1.27)) hide)
      )
      (property "Datasheet" "~" (at 0 0 0)
        (effects (font (size 1.27 1.27)) hide)
      )
      (property "ki_keywords" "R res resistor" (at 0 0 0)
        (effects (font (size 1.27 1.27)) hide)
      )
      (property "ki_description" "Resistor" (at 0 0 0)
        (effects (font (size 1.27 1.27)) hide)
      )
      (property "ki_fp_filters" "R_*" (at 0 0 0)
        (effects (font (size 1.27 1.27)) hide)
      )
      (symbol "R_0_1"
        (rectangle (start -1.016 -2.54) (end 1.016 2.54)
          (stroke (width 0.254) (type default))
          (fill (type none))
        )
      )
      (symbol "R_1_1"
        (pin passive line (at 0 3.81 270) (length 1.27)
          (name "~" (effects (font (size 1.27 1.27))))
          (number "1" (effects (font (size 1.27 1.27))))
        )
        (pin passive line (at 0 -3.81 90) (length 1.27)
          (name "~" (effects (font (size 1.27 1.27))))
          (number "2" (effects (font (size 1.27 1.27))))
        )
      )
    )
    (symbol "Simulation_SPICE:VDC" (pin_numbers hide) (pin_names (offset 0.0254)) (in_bom yes) (on_board yes)
      (property "Reference" "V" (at 2.54 2.54 0)
        (effects (font (size 1.27 1.27)) (justify left))
      )
      (property "Value" "VDC" (at 2.54 0 0)
        (effects (font (size 1.27 1.27)) (justify left))
      )
      (property "Footprint" "" (at 0 0 0)
        (effects (font (size 1.27 1.27)) hide)
      )
      (property "Datasheet" "~" (at 0 0 0)
        (effects (font (size 1.27 1.27)) hide)
      )
      (property "Spice_Netlist_Enabled" "Y" (at 0 0 0)
        (effects (font (size 1.27 1.27)) (justify left) hide)
      )
      (property "Spice_Primitive" "V" (at 0 0 0)
        (effects (font (size 1.27 1.27)) (justify left) hide)
      )
      (property "Spice_Model" "dc(1)" (at 2.54 -2.54 0)
        (effects (font (size 1.27 1.27)) (justify left))
      )
      (property "ki_keywords" "simulation" (at 0 0 0)
        (effects (font (size 1.27 1.27)) hide)
      )
      (property "ki_description" "Voltage source, DC" (at 0 0 0)
        (effects (font (size 1.27 1.27)) hide)
      )
      (symbol "VDC_0_0"
        (polyline
          (pts
            (xy -1.27 0.254)
            (xy 1.27 0.254)
          )
          (stroke (width 0) (type default))
          (fill (type none))
        )
        (polyline
          (pts
            (xy -0.762 -0.254)
            (xy -1.27 -0.254)
          )
          (stroke (width 0) (type default))
          (fill (type none))
        )
        (polyline
          (pts
            (xy 0.254 -0.254)
            (xy -0.254 -0.254)
          )
          (stroke (width 0) (type default))
          (fill (type none))
        )
        (polyline
          (pts
            (xy 1.27 -0.254)
            (xy 0.762 -0.254)
          )
          (stroke (width 0) (type default))
          (fill (type none))
        )
        (text "+" (at 0 1.905 0)
          (effects (font (size 1.27 1.27)))
        )
      )
      (symbol "VDC_0_1"
        (circle (center 0 0) (radius 2.54)
          (stroke (width 0.254) (type default))
          (fill (type background))
        )
      )
      (symbol "VDC_1_1"
        (pin passive line (at 0 5.08 270) (length 2.54)
          (name "~" (effects (font (size 1.27 1.27))))
          (number "1" (effects (font (size 1.27 1.27))))
        )
        (pin passive line (at 0 -5.08 90) (length 2.54)
          (name "~" (effects (font (size 1.27 1.27))))
          (number "2" (effects (font (size 1.27 1.27))))
        )
      )
    )
    (symbol "Simulation_SPICE:VSIN" (pin_numbers hide) (pin_names (offset 0.0254)) (in_bom yes) (on_board yes)
      (property "Reference" "V" (at 2.54 2.54 0)
        (effects (font (size 1.27 1.27)) (justify left))
      )
      (property "Value" "VSIN" (at 2.54 0 0)
        (effects (font (size 1.27 1.27)) (justify left))
      )
      (property "Footprint" "" (at 0 0 0)
        (effects (font (size 1.27 1.27)) hide)
      )
      (property "Datasheet" "~" (at 0 0 0)
        (effects (font (size 1.27 1.27)) hide)
      )
      (property "Spice_Netlist_Enabled" "Y" (at 0 0 0)
        (effects (font (size 1.27 1.27)) (justify left) hide)
      )
      (property "Spice_Primitive" "V" (at 0 0 0)
        (effects (font (size 1.27 1.27)) (justify left) hide)
      )
      (property "Spice_Model" "sin(0 1 1k)" (at 2.54 -2.54 0)
        (effects (font (size 1.27 1.27)) (justify left))
      )
      (property "ki_keywords" "simulation" (at 0 0 0)
        (effects (font (size 1.27 1.27)) hide)
      )
      (property "ki_description" "Voltage source, sinusoidal" (at 0 0 0)
        (effects (font (size 1.27 1.27)) hide)
      )
      (symbol "VSIN_0_0"
        (arc (start 0 0) (mid -0.635 0.6323) (end -1.27 0)
          (stroke (width 0) (type default))
          (fill (type none))
        )
        (arc (start 0 0) (mid 0.635 -0.6323) (end 1.27 0)
          (stroke (width 0) (type default))
          (fill (type none))
        )
        (text "+" (at 0 1.905 0)
          (effects (font (size 1.27 1.27)))
        )
      )
      (symbol "VSIN_0_1"
        (circle (center 0 0) (radius 2.54)
          (stroke (width 0.254) (type default))
          (fill (type background))
        )
      )
      (symbol "VSIN_1_1"
        (pin passive line (at 0 5.08 270) (length 2.54)
          (name "~" (effects (font (size 1.27 1.27))))
          (number "1" (effects (font (size 1.27 1.27))))
        )
        (pin passive line (at 0 -5.08 90) (length 2.54)
          (name "~" (effects (font (size 1.27 1.27))))
          (number "2" (effects (font (size 1.27 1.27))))
        )
      )
    )
    (symbol "Transistor_BJT:2SC1815" (pin_names (offset 0) hide) (in_bom yes) (on_board yes)
      (property "Reference" "Q" (at 5.08 1.905 0)
        (effects (font (size 1.27 1.27)) (justify left))
      )
      (property "Value" "2SC1815" (at 5.08 0 0)
        (effects (font (size 1.27 1.27)) (justify left))
      )
      (property "Footprint" "Package_TO_SOT_THT:TO-92_Inline" (at 5.08 -1.905 0)
        (effects (font (size 1.27 1.27) italic) (justify left) hide)
      )
      (property "Datasheet" "https://media.digikey.com/pdf/Data%20Sheets/Toshiba%20PDFs/2SC1815.pdf" (at 0 0 0)
        (effects (font (size 1.27 1.27)) (justify left) hide)
      )
      (property "ki_keywords" "Low Noise Audio NPN Transistor" (at 0 0 0)
        (effects (font (size 1.27 1.27)) hide)
      )
      (property "ki_description" "0.15A Ic, 50V Vce, Low Noise Audio NPN Transistor, TO-92" (at 0 0 0)
        (effects (font (size 1.27 1.27)) hide)
      )
      (property "ki_fp_filters" "TO?92*" (at 0 0 0)
        (effects (font (size 1.27 1.27)) hide)
      )
      (symbol "2SC1815_0_1"
        (polyline
          (pts
            (xy 0 0)
            (xy 0.508 0)
          )
          (stroke (width 0) (type default))
          (fill (type none))
        )
        (polyline
          (pts
            (xy 0.635 0.635)
            (xy 2.54 2.54)
          )
          (stroke (width 0) (type default))
          (fill (type none))
        )
        (polyline
          (pts
            (xy 0.635 -0.635)
            (xy 2.54 -2.54)
            (xy 2.54 -2.54)
          )
          (stroke (width 0) (type default))
          (fill (type none))
        )
        (polyline
          (pts
            (xy 0.635 1.905)
            (xy 0.635 -1.905)
            (xy 0.635 -1.905)
          )
          (stroke (width 0.508) (type default))
          (fill (type none))
        )
        (polyline
          (pts
            (xy 1.27 -1.778)
            (xy 1.778 -1.27)
            (xy 2.286 -2.286)
            (xy 1.27 -1.778)
            (xy 1.27 -1.778)
          )
          (stroke (width 0) (type default))
          (fill (type outline))
        )
        (circle (center 1.27 0) (radius 2.8194)
          (stroke (width 0.254) (type default))
          (fill (type none))
        )
      )
      (symbol "2SC1815_1_1"
        (pin passive line (at 2.54 -5.08 90) (length 2.54)
          (name "E" (effects (font (size 1.27 1.27))))
          (number "1" (effects (font (size 1.27 1.27))))
        )
        (pin passive line (at 2.54 5.08 270) (length 2.54)
          (name "C" (effects (font (size 1.27 1.27))))
          (number "2" (effects (font (size 1.27 1.27))))
        )
        (pin input line (at -5.08 0 0) (length 5.08)
          (name "B" (effects (font (size 1.27 1.27))))
          (number "3" (effects (font (size 1.27 1.27))))
        )
      )
    )
    (symbol "Transistor_BJT:MMBT5551L" (pin_names (offset 0) hide) (in_bom yes) (on_board yes)
      (property "Reference" "Q" (at 5.08 1.905 0)
        (effects (font (size 1.27 1.27)) (justify left))
      )
      (property "Value" "MMBT5551L" (at 5.08 0 0)
        (effects (font (size 1.27 1.27)) (justify left))
      )
      (property "Footprint" "Package_TO_SOT_SMD:SOT-23" (at 5.08 -1.905 0)
        (effects (font (size 1.27 1.27) italic) (justify left) hide)
      )
      (property "Datasheet" "www.onsemi.com/pub/Collateral/MMBT5550LT1-D.PDF" (at 0 0 0)
        (effects (font (size 1.27 1.27)) (justify left) hide)
      )
      (property "ki_keywords" "NPN Transistor" (at 0 0 0)
        (effects (font (size 1.27 1.27)) hide)
      )
      (property "ki_description" "0.6A Ic, 160V Vce, NPN Transistor, SOT-23" (at 0 0 0)
        (effects (font (size 1.27 1.27)) hide)
      )
      (property "ki_fp_filters" "SOT?23*" (at 0 0 0)
        (effects (font (size 1.27 1.27)) hide)
      )
      (symbol "MMBT5551L_0_1"
        (polyline
          (pts
            (xy 0.635 0.635)
            (xy 2.54 2.54)
          )
          (stroke (width 0) (type default))
          (fill (type none))
        )
        (polyline
          (pts
            (xy 0.635 -0.635)
            (xy 2.54 -2.54)
            (xy 2.54 -2.54)
          )
          (stroke (width 0) (type default))
          (fill (type none))
        )
        (polyline
          (pts
            (xy 0.635 1.905)
            (xy 0.635 -1.905)
            (xy 0.635 -1.905)
          )
          (stroke (width 0.508) (type default))
          (fill (type none))
        )
        (polyline
          (pts
            (xy 1.27 -1.778)
            (xy 1.778 -1.27)
            (xy 2.286 -2.286)
            (xy 1.27 -1.778)
            (xy 1.27 -1.778)
          )
          (stroke (width 0) (type default))
          (fill (type outline))
        )
        (circle (center 1.27 0) (radius 2.8194)
          (stroke (width 0.254) (type default))
          (fill (type none))
        )
      )
      (symbol "MMBT5551L_1_1"
        (pin input line (at -5.08 0 0) (length 5.715)
          (name "B" (effects (font (size 1.27 1.27))))
          (number "1" (effects (font (size 1.27 1.27))))
        )
        (pin passive line (at 2.54 -5.08 90) (length 2.54)
          (name "E" (effects (font (size 1.27 1.27))))
          (number "2" (effects (font (size 1.27 1.27))))
        )
        (pin passive line (at 2.54 5.08 270) (length 2.54)
          (name "C" (effects (font (size 1.27 1.27))))
          (number "3" (effects (font (size 1.27 1.27))))
        )
      )
    )
    (symbol "Transistor_BJT:MMBTA92" (pin_names (offset 0) hide) (in_bom yes) (on_board yes)
      (property "Reference" "Q" (at 5.08 1.905 0)
        (effects (font (size 1.27 1.27)) (justify left))
      )
      (property "Value" "MMBTA92" (at 5.08 0 0)
        (effects (font (size 1.27 1.27)) (justify left))
      )
      (property "Footprint" "Package_TO_SOT_SMD:SOT-23" (at 5.08 -1.905 0)
        (effects (font (size 1.27 1.27) italic) (justify left) hide)
      )
      (property "Datasheet" "https://www.onsemi.com/pub/Collateral/MMBTA92LT1-D.PDF" (at 0 0 0)
        (effects (font (size 1.27 1.27)) (justify left) hide)
      )
      (property "ki_keywords" "PNP High Voltage Transistor" (at 0 0 0)
        (effects (font (size 1.27 1.27)) hide)
      )
      (property "ki_description" "0.5A Ic, 300V Vce, PNP High Voltage Transistor, SOT-23" (at 0 0 0)
        (effects (font (size 1.27 1.27)) hide)
      )
      (property "ki_fp_filters" "SOT?23*" (at 0 0 0)
        (effects (font (size 1.27 1.27)) hide)
      )
      (symbol "MMBTA92_0_1"
        (polyline
          (pts
            (xy 0 0)
            (xy 0.635 0)
          )
          (stroke (width 0) (type default))
          (fill (type none))
        )
        (polyline
          (pts
            (xy 2.54 -2.54)
            (xy 0.635 -0.635)
          )
          (stroke (width 0) (type default))
          (fill (type none))
        )
        (polyline
          (pts
            (xy 2.54 2.54)
            (xy 0.635 0.635)
          )
          (stroke (width 0) (type default))
          (fill (type none))
        )
        (polyline
          (pts
            (xy 0.635 1.905)
            (xy 0.635 -1.905)
            (xy 0.635 -1.905)
          )
          (stroke (width 0.508) (type default))
          (fill (type outline))
        )
        (polyline
          (pts
            (xy 1.905 -2.413)
            (xy 2.413 -1.905)
            (xy 1.397 -1.397)
            (xy 1.905 -2.413)
            (xy 1.905 -2.413)
          )
          (stroke (width 0) (type default))
          (fill (type outline))
        )
        (circle (center 1.27 0) (radius 2.8194)
          (stroke (width 0.254) (type default))
          (fill (type none))
        )
      )
      (symbol "MMBTA92_1_1"
        (pin input line (at -5.08 0 0) (length 5.08)
          (name "B" (effects (font (size 1.27 1.27))))
          (number "1" (effects (font (size 1.27 1.27))))
        )
        (pin passive line (at 2.54 -5.08 90) (length 2.54)
          (name "E" (effects (font (size 1.27 1.27))))
          (number "2" (effects (font (size 1.27 1.27))))
        )
        (pin passive line (at 2.54 5.08 270) (length 2.54)
          (name "C" (effects (font (size 1.27 1.27))))
          (number "3" (effects (font (size 1.27 1.27))))
        )
      )
    )
    (symbol "power:GND" (power) (pin_names (offset 0)) (in_bom yes) (on_board yes)
      (property "Reference" "#PWR" (at 0 -6.35 0)
        (effects (font (size 1.27 1.27)) hide)
      )
      (property "Value" "GND" (at 0 -3.81 0)
        (effects (font (size 1.27 1.27)))
      )
      (property "Footprint" "" (at 0 0 0)
        (effects (font (size 1.27 1.27)) hide)
      )
      (property "Datasheet" "" (at 0 0 0)
        (effects (font (size 1.27 1.27)) hide)
      )
      (property "ki_keywords" "power-flag" (at 0 0 0)
        (effects (font (size 1.27 1.27)) hide)
      )
      (property "ki_description" "Power symbol creates a global label with name \"GND\" , ground" (at 0 0 0)
        (effects (font (size 1.27 1.27)) hide)
      )
      (symbol "GND_0_1"
        (polyline
          (pts
            (xy 0 0)
            (xy 0 -1.27)
            (xy 1.27 -1.27)
            (xy 0 -2.54)
            (xy -1.27 -1.27)
            (xy 0 -1.27)
          )
          (stroke (width 0) (type default))
          (fill (type none))
        )
      )
      (symbol "GND_1_1"
        (pin power_in line (at 0 0 270) (length 0) hide
          (name "GND" (effects (font (size 1.27 1.27))))
          (number "1" (effects (font (size 1.27 1.27))))
        )
      )
    )
  )

  (junction (at 81.28 124.46) (diameter 0) (color 0 0 0 0)
    (uuid 03623744-4fff-4b4a-9c1f-4ce55c49b4ca)
  )
  (junction (at 115.57 49.53) (diameter 0) (color 0 0 0 0)
    (uuid 15f52bf9-6f70-4ad2-8e57-00a8dc978d94)
  )
  (junction (at 153.67 57.15) (diameter 0) (color 0 0 0 0)
    (uuid 1a66baf6-82a8-4680-b3c9-6c17e97137d1)
  )
  (junction (at 107.95 99.06) (diameter 0) (color 0 0 0 0)
    (uuid 1ab77306-bfab-4578-91c8-4f928ff04ddd)
  )
  (junction (at 180.34 93.98) (diameter 0) (color 0 0 0 0)
    (uuid 1ff0d32c-2309-4d66-a602-a23ffc60780b)
  )
  (junction (at 146.05 71.12) (diameter 0) (color 0 0 0 0)
    (uuid 2a08a501-b1e1-4057-bfeb-271852651ae9)
  )
  (junction (at 171.45 93.98) (diameter 0) (color 0 0 0 0)
    (uuid 3a7cb758-1aa2-42a3-8579-9e6c9798c1b5)
  )
  (junction (at 232.41 49.53) (diameter 0) (color 0 0 0 0)
    (uuid 411e6986-346e-4bdf-8754-c6f164cc1f0c)
  )
  (junction (at 232.41 130.81) (diameter 0) (color 0 0 0 0)
    (uuid 4436ade2-c8ab-482c-b531-1413c69a7e32)
  )
  (junction (at 146.05 49.53) (diameter 0) (color 0 0 0 0)
    (uuid 4edcb3c6-7779-4d1a-a8f8-2ccc8783798b)
  )
  (junction (at 171.45 49.53) (diameter 0) (color 0 0 0 0)
    (uuid 55b3d221-c328-4d9b-ac4f-8aabaa0e1590)
  )
  (junction (at 232.41 87.63) (diameter 0) (color 0 0 0 0)
    (uuid 6c184660-5fc5-499e-b182-f1b72b8e9bf0)
  )
  (junction (at 153.67 130.81) (diameter 0) (color 0 0 0 0)
    (uuid 78094f22-06f8-4c93-9872-377734339847)
  )
  (junction (at 95.25 124.46) (diameter 0) (color 0 0 0 0)
    (uuid 7bc8efd4-f700-422b-8f7e-7bfcee374761)
  )
  (junction (at 193.04 110.49) (diameter 0) (color 0 0 0 0)
    (uuid 83a05b2c-7a0f-4ab3-821a-4c1d631834cf)
  )
  (junction (at 107.95 124.46) (diameter 0) (color 0 0 0 0)
    (uuid 93aa74dd-092f-4561-ab5f-e1f143debe51)
  )
  (junction (at 171.45 130.81) (diameter 0) (color 0 0 0 0)
    (uuid 94da8966-0aa3-4181-a799-73832eb47e92)
  )
  (junction (at 115.57 57.15) (diameter 0) (color 0 0 0 0)
    (uuid a94d2c1c-a2b3-4b40-b024-47c8456c0f03)
  )
  (junction (at 153.67 88.9) (diameter 0) (color 0 0 0 0)
    (uuid b26c59fa-cb6a-4237-b4fb-7c9c8cdfada6)
  )
  (junction (at 81.28 99.06) (diameter 0) (color 0 0 0 0)
    (uuid b3f438b3-a9ba-46b6-9310-cbe2b8a6d2b1)
  )
  (junction (at 153.67 114.3) (diameter 0) (color 0 0 0 0)
    (uuid b593e01b-1614-4a37-a05d-fe5c273551f7)
  )
  (junction (at 115.57 106.68) (diameter 0) (color 0 0 0 0)
    (uuid b6a1fd42-cbc3-4099-998c-e6d990421274)
  )
  (junction (at 153.67 49.53) (diameter 0) (color 0 0 0 0)
    (uuid b991c2af-7c46-48f0-8734-89604e3ee269)
  )
  (junction (at 95.25 99.06) (diameter 0) (color 0 0 0 0)
    (uuid cf03647e-3073-4b44-acaa-91537f079a0c)
  )
  (junction (at 115.57 93.98) (diameter 0) (color 0 0 0 0)
    (uuid d76b9267-e73c-4d8c-aa74-03d2ddac8148)
  )
  (junction (at 107.95 71.12) (diameter 0) (color 0 0 0 0)
    (uuid f0b7637f-839c-4e9f-a667-0ed6744b5082)
  )
  (junction (at 128.27 93.98) (diameter 0) (color 0 0 0 0)
    (uuid f0b785b4-6c14-456b-84e9-b932fee00ac9)
  )
  (junction (at 193.04 93.98) (diameter 0) (color 0 0 0 0)
    (uuid f67eda7a-2a32-4bac-8e4c-a0febbc4b490)
  )
  (junction (at 232.41 95.25) (diameter 0) (color 0 0 0 0)
    (uuid fcf69509-8876-499d-be2b-ae84b04300ac)
  )

  (wire (pts (xy 153.67 76.2) (xy 153.67 80.01))
    (stroke (width 0) (type default))
    (uuid 00dcb5dd-c5b2-49b4-8982-00c6fcd8315d)
  )
  (wire (pts (xy 148.59 93.98) (xy 128.27 93.98))
    (stroke (width 0) (type default))
    (uuid 0cf2b438-c872-4b0e-9731-8a6d2c709d85)
  )
  (wire (pts (xy 107.95 49.53) (xy 107.95 52.07))
    (stroke (width 0) (type default))
    (uuid 0d561f52-3f02-4619-ab9c-3e774ef7f204)
  )
  (wire (pts (xy 180.34 93.98) (xy 193.04 93.98))
    (stroke (width 0) (type default))
    (uuid 0de0a115-d515-422f-ac40-8bb7abd470a0)
  )
  (wire (pts (xy 232.41 74.93) (xy 232.41 87.63))
    (stroke (width 0) (type default))
    (uuid 14491c07-d3aa-45fc-8b2d-b07b680ec28f)
  )
  (wire (pts (xy 81.28 124.46) (xy 81.28 128.27))
    (stroke (width 0) (type default))
    (uuid 1480656d-8300-46cc-98bb-bb26e58700b5)
  )
  (wire (pts (xy 115.57 87.63) (xy 115.57 93.98))
    (stroke (width 0) (type default))
    (uuid 163f6d8c-4b29-4316-ac7f-80d1b10951e9)
  )
  (wire (pts (xy 153.67 87.63) (xy 153.67 88.9))
    (stroke (width 0) (type default))
    (uuid 184b0aad-0400-4b71-adba-5fea4a48dbf1)
  )
  (wire (pts (xy 171.45 93.98) (xy 171.45 109.22))
    (stroke (width 0) (type default))
    (uuid 19654d59-f243-4284-b82c-244de5ab5795)
  )
  (wire (pts (xy 193.04 105.41) (xy 193.04 110.49))
    (stroke (width 0) (type default))
    (uuid 1a31258c-85c3-44c4-9e6f-e275f2f15cbb)
  )
  (wire (pts (xy 193.04 113.03) (xy 193.04 110.49))
    (stroke (width 0) (type default))
    (uuid 1ece336a-c72f-41e3-b1c5-80cbea2872fe)
  )
  (wire (pts (xy 95.25 115.57) (xy 95.25 124.46))
    (stroke (width 0) (type default))
    (uuid 2650b21f-7149-405e-ada1-7925feb03fac)
  )
  (wire (pts (xy 138.43 130.81) (xy 153.67 130.81))
    (stroke (width 0) (type default))
    (uuid 2a4386ea-2cad-4f73-8e22-b84948ce9bd2)
  )
  (wire (pts (xy 242.57 97.79) (xy 242.57 95.25))
    (stroke (width 0) (type default))
    (uuid 2bbf49e9-7bad-4dd9-a959-b039a87b41f5)
  )
  (wire (pts (xy 232.41 119.38) (xy 232.41 130.81))
    (stroke (width 0) (type default))
    (uuid 35068628-5f96-485c-8180-d1773355f6a7)
  )
  (wire (pts (xy 107.95 80.01) (xy 107.95 78.74))
    (stroke (width 0) (type default))
    (uuid 37ae0e2c-ee6e-4ba1-bbf7-5b45592349c0)
  )
  (wire (pts (xy 115.57 106.68) (xy 115.57 130.81))
    (stroke (width 0) (type default))
    (uuid 3d71de93-8b23-4714-9bdb-f04b6060d9d5)
  )
  (wire (pts (xy 146.05 80.01) (xy 146.05 78.74))
    (stroke (width 0) (type default))
    (uuid 40d85411-ce6a-4f95-b193-69b0301b7056)
  )
  (wire (pts (xy 128.27 93.98) (xy 128.27 101.6))
    (stroke (width 0) (type default))
    (uuid 468a945d-caf8-4724-b172-2617768a1f5c)
  )
  (wire (pts (xy 146.05 62.23) (xy 146.05 71.12))
    (stroke (width 0) (type default))
    (uuid 49067c03-390d-49a2-957e-186b06da80e5)
  )
  (wire (pts (xy 128.27 93.98) (xy 115.57 93.98))
    (stroke (width 0) (type default))
    (uuid 4ca08b8d-5e40-44cc-8f73-e4d8711a5875)
  )
  (wire (pts (xy 171.45 119.38) (xy 171.45 130.81))
    (stroke (width 0) (type default))
    (uuid 4f6c2447-d198-4825-9e05-3121158d1ec0)
  )
  (wire (pts (xy 180.34 110.49) (xy 193.04 110.49))
    (stroke (width 0) (type default))
    (uuid 51ead948-e290-4db4-83aa-025b4f6f974b)
  )
  (wire (pts (xy 153.67 130.81) (xy 171.45 130.81))
    (stroke (width 0) (type default))
    (uuid 59dc4e20-05ac-4144-ba73-be8797ea4be5)
  )
  (wire (pts (xy 81.28 99.06) (xy 81.28 106.68))
    (stroke (width 0) (type default))
    (uuid 5c8a58aa-c13b-438d-a6d1-beff4b0dd289)
  )
  (wire (pts (xy 163.83 88.9) (xy 153.67 88.9))
    (stroke (width 0) (type default))
    (uuid 69d24780-f694-4389-9397-fb402225f091)
  )
  (wire (pts (xy 115.57 104.14) (xy 115.57 106.68))
    (stroke (width 0) (type default))
    (uuid 6f78e320-c2c5-457e-a104-8b66952d9e67)
  )
  (wire (pts (xy 81.28 116.84) (xy 81.28 124.46))
    (stroke (width 0) (type default))
    (uuid 7523c6f7-64ef-4f64-8d22-a850694ead90)
  )
  (wire (pts (xy 115.57 76.2) (xy 115.57 80.01))
    (stroke (width 0) (type default))
    (uuid 75553fab-d822-4bd5-86fb-6ee1ac09d7c0)
  )
  (wire (pts (xy 180.34 110.49) (xy 180.34 109.22))
    (stroke (width 0) (type default))
    (uuid 75f535b8-1b6b-46f2-a747-c047e21ad9f8)
  )
  (wire (pts (xy 93.98 99.06) (xy 95.25 99.06))
    (stroke (width 0) (type default))
    (uuid 7aeb3cc3-9a9b-4845-ae4b-2cec79d40e86)
  )
  (wire (pts (xy 146.05 49.53) (xy 153.67 49.53))
    (stroke (width 0) (type default))
    (uuid 7d5cc5b6-53ab-427f-a5da-a90e45a59ca3)
  )
  (wire (pts (xy 242.57 95.25) (xy 232.41 95.25))
    (stroke (width 0) (type default))
    (uuid 7e19d59c-b416-4456-813b-0516861842ec)
  )
  (wire (pts (xy 193.04 93.98) (xy 193.04 97.79))
    (stroke (width 0) (type default))
    (uuid 80e3014c-1f50-42a5-ad0d-1653559bfd54)
  )
  (wire (pts (xy 107.95 124.46) (xy 128.27 124.46))
    (stroke (width 0) (type default))
    (uuid 8375678a-61c8-4d70-9506-03f57e937007)
  )
  (wire (pts (xy 156.21 93.98) (xy 171.45 93.98))
    (stroke (width 0) (type default))
    (uuid 841099b8-8ce1-4953-8cd5-e9258763065b)
  )
  (wire (pts (xy 193.04 93.98) (xy 194.31 93.98))
    (stroke (width 0) (type default))
    (uuid 8528d499-91d5-4272-9e38-64a7b965013d)
  )
  (wire (pts (xy 105.41 99.06) (xy 107.95 99.06))
    (stroke (width 0) (type default))
    (uuid 8bcb39ff-dfff-477f-8953-f36fce625d80)
  )
  (wire (pts (xy 115.57 57.15) (xy 115.57 66.04))
    (stroke (width 0) (type default))
    (uuid 90153e04-e8d3-4ae4-ba00-863f9d92d470)
  )
  (wire (pts (xy 193.04 110.49) (xy 194.31 110.49))
    (stroke (width 0) (type default))
    (uuid 9347d69e-09cb-43c8-a05c-19711fbf3051)
  )
  (wire (pts (xy 153.67 114.3) (xy 153.67 116.84))
    (stroke (width 0) (type default))
    (uuid 99808d5c-c027-4391-8ba0-19b7e4cb707b)
  )
  (wire (pts (xy 232.41 49.53) (xy 232.41 64.77))
    (stroke (width 0) (type default))
    (uuid 9b17482c-300f-4173-a150-6779ea88dec5)
  )
  (wire (pts (xy 95.25 99.06) (xy 97.79 99.06))
    (stroke (width 0) (type default))
    (uuid 9d3bb23a-11ec-4f67-bcc1-66ab2a0a8c8b)
  )
  (wire (pts (xy 153.67 111.76) (xy 153.67 114.3))
    (stroke (width 0) (type default))
    (uuid a0dacf1a-858f-4e1e-9fae-cb3738775275)
  )
  (wire (pts (xy 107.95 49.53) (xy 115.57 49.53))
    (stroke (width 0) (type default))
    (uuid a106e2f3-045f-487a-9465-9c0fdd64dcad)
  )
  (wire (pts (xy 153.67 57.15) (xy 153.67 66.04))
    (stroke (width 0) (type default))
    (uuid a2bc7224-40f6-417a-9bb5-1fd923fb6b68)
  )
  (wire (pts (xy 128.27 120.65) (xy 128.27 124.46))
    (stroke (width 0) (type default))
    (uuid aade5194-8b8b-440e-ae84-da2773a35a60)
  )
  (wire (pts (xy 95.25 124.46) (xy 107.95 124.46))
    (stroke (width 0) (type default))
    (uuid ab89a0ca-e837-4815-9cc5-bf73b3e21b4e)
  )
  (wire (pts (xy 115.57 106.68) (xy 146.05 106.68))
    (stroke (width 0) (type default))
    (uuid ad4d7022-e862-4fa7-99f9-103ec41ab0fa)
  )
  (wire (pts (xy 107.95 116.84) (xy 107.95 124.46))
    (stroke (width 0) (type default))
    (uuid b055f755-0f03-47b5-a398-53d172ca2ec9)
  )
  (wire (pts (xy 171.45 49.53) (xy 232.41 49.53))
    (stroke (width 0) (type default))
    (uuid bc3a095e-42ce-452b-8ecc-eebd65ff20b1)
  )
  (wire (pts (xy 153.67 88.9) (xy 153.67 101.6))
    (stroke (width 0) (type default))
    (uuid c655d4dd-8711-4eae-ae7f-1434979df60a)
  )
  (wire (pts (xy 153.67 114.3) (xy 163.83 114.3))
    (stroke (width 0) (type default))
    (uuid c7e022dc-8094-40d1-ae52-6ca14897fc5e)
  )
  (wire (pts (xy 153.67 49.53) (xy 160.02 49.53))
    (stroke (width 0) (type default))
    (uuid cb9253a6-abf4-485f-acde-f25a4513dbf1)
  )
  (wire (pts (xy 115.57 130.81) (xy 130.81 130.81))
    (stroke (width 0) (type default))
    (uuid d34e52e8-634b-4c5c-85cf-3caf394ee2a8)
  )
  (wire (pts (xy 167.64 49.53) (xy 171.45 49.53))
    (stroke (width 0) (type default))
    (uuid d7259c4c-ba98-4a9b-843b-4fbacbe8c232)
  )
  (wire (pts (xy 153.67 130.81) (xy 153.67 124.46))
    (stroke (width 0) (type default))
    (uuid d829b624-c3c4-47fe-947f-b629cdee3f1a)
  )
  (wire (pts (xy 128.27 109.22) (xy 128.27 113.03))
    (stroke (width 0) (type default))
    (uuid d8dfe189-1681-4db0-8fdd-aa32e8e92907)
  )
  (wire (pts (xy 115.57 49.53) (xy 146.05 49.53))
    (stroke (width 0) (type default))
    (uuid d92c4fe3-541a-4599-b567-b6e8bfd8f20b)
  )
  (wire (pts (xy 81.28 124.46) (xy 95.25 124.46))
    (stroke (width 0) (type default))
    (uuid e36f0631-fa64-4531-ae69-ba905d01811c)
  )
  (wire (pts (xy 171.45 49.53) (xy 171.45 83.82))
    (stroke (width 0) (type default))
    (uuid eb41cbe2-e403-4929-8fd0-3cf319072a65)
  )
  (wire (pts (xy 81.28 99.06) (xy 86.36 99.06))
    (stroke (width 0) (type default))
    (uuid f0d17f97-23f7-4163-b762-6407d49ed6b3)
  )
  (wire (pts (xy 171.45 130.81) (xy 232.41 130.81))
    (stroke (width 0) (type default))
    (uuid f14c6811-f0d6-49ad-87a4-df556fcf164e)
  )
  (wire (pts (xy 171.45 93.98) (xy 180.34 93.98))
    (stroke (width 0) (type default))
    (uuid f219ac68-9c06-4558-a84b-4c38a5bff1f9)
  )
  (wire (pts (xy 232.41 95.25) (xy 232.41 109.22))
    (stroke (width 0) (type default))
    (uuid f2479e81-0724-4f70-8f3a-21cc7a4302b7)
  )
  (wire (pts (xy 107.95 62.23) (xy 107.95 71.12))
    (stroke (width 0) (type default))
    (uuid f7921782-9386-4682-8a13-c3e8bbc568be)
  )
  (wire (pts (xy 107.95 99.06) (xy 107.95 109.22))
    (stroke (width 0) (type default))
    (uuid f7ec0e83-52a5-42ac-ab5f-60fe92593654)
  )
  (wire (pts (xy 95.25 99.06) (xy 95.25 107.95))
    (stroke (width 0) (type default))
    (uuid fbfc76fc-9757-4ae7-a3bb-a863e891e4d2)
  )
  (wire (pts (xy 232.41 87.63) (xy 232.41 95.25))
    (stroke (width 0) (type default))
    (uuid fdea903e-63bb-4198-84b1-47a01a3326f4)
  )
  (wire (pts (xy 146.05 49.53) (xy 146.05 52.07))
    (stroke (width 0) (type default))
    (uuid feae2672-71e1-493a-a9a4-92116488ffa2)
  )

  (text "ac dec 100 10 30k" (at 62.23 52.07 0)
    (effects (font (size 1.27 1.27)) (justify left bottom))
    (uuid 2787c93e-4f34-4a22-97e4-671d74fd97db)
  )
  (text ".tran 0.01m 2" (at 62.23 46.99 0)
    (effects (font (size 1.27 1.27)) (justify left bottom))
    (uuid 4ae0d448-0648-47d0-8aa8-d1f9f80c73c0)
  )

  (symbol (lib_id "Connector_Generic_MountingPin:Conn_01x01_MountingPin") (at 76.2 99.06 180) (unit 1)
    (in_bom yes) (on_board yes) (dnp no) (fields_autoplaced)
    (uuid 06898ae5-866d-42dc-bee6-a31be2f31cf5)
    (property "Reference" "J1" (at 73.66 98.0694 0)
      (effects (font (size 1.27 1.27)) (justify left))
    )
    (property "Value" "IN" (at 73.66 100.6094 0)
      (effects (font (size 1.27 1.27)) (justify left))
    )
    (property "Footprint" "Connector_Pin:Pin_D1.4mm_L8.5mm_W2.8mm_FlatFork" (at 76.2 99.06 0)
      (effects (font (size 1.27 1.27)) hide)
    )
    (property "Datasheet" "~" (at 76.2 99.06 0)
      (effects (font (size 1.27 1.27)) hide)
    )
    (property "Sim.Enable" "0" (at 76.2 99.06 0)
      (effects (font (size 1.27 1.27)) hide)
    )
    (pin "1" (uuid ffb0ed95-6332-49b0-acff-de3fc5c75177))
    (pin "MP" (uuid 1202fd14-1870-407e-8609-25891e3874f2))
    (instances
      (project "jlh_like_2005_dp"
        (path "/cefae286-dde6-44ae-8b1c-fe027df923e4"
          (reference "J1") (unit 1)
        )
      )
    )
  )

  (symbol (lib_id "Device:R") (at 115.57 53.34 180) (unit 1)
    (in_bom yes) (on_board yes) (dnp no) (fields_autoplaced)
    (uuid 11249d9d-1e9e-4dea-bc2f-e57530f54bb4)
    (property "Reference" "R4" (at 118.11 52.07 0)
      (effects (font (size 1.27 1.27)) (justify right))
    )
    (property "Value" "2k2" (at 118.11 54.61 0)
      (effects (font (size 1.27 1.27)) (justify right))
    )
    (property "Footprint" "Resistor_THT:R_Axial_DIN0309_L9.0mm_D3.2mm_P2.54mm_Vertical" (at 117.348 53.34 90)
      (effects (font (size 1.27 1.27)) hide)
    )
    (property "Datasheet" "~" (at 115.57 53.34 0)
      (effects (font (size 1.27 1.27)) hide)
    )
    (pin "1" (uuid 63989f60-d7e8-4ec2-94d6-162e9e5ce24b))
    (pin "2" (uuid a7686d27-4262-4494-82f5-6bc5e2cc59e1))
    (instances
      (project "jlh_like_2005_dp"
        (path "/cefae286-dde6-44ae-8b1c-fe027df923e4"
          (reference "R4") (unit 1)
        )
      )
    )
  )

  (symbol (lib_id "Transistor_BJT:MMBTA92") (at 151.13 71.12 0) (mirror x) (unit 1)
    (in_bom yes) (on_board yes) (dnp no)
    (uuid 178bfc04-a9cb-4469-abfa-b7661ca2b5d2)
    (property "Reference" "Q3" (at 155.9814 72.2884 0)
      (effects (font (size 1.27 1.27)) (justify left))
    )
    (property "Value" "MMBT5401" (at 160.02 72.39 0)
      (effects (font (size 1.27 1.27)) (justify left))
    )
    (property "Footprint" "Package_TO_SOT_SMD:SOT-23" (at 156.21 69.215 0)
      (effects (font (size 1.27 1.27) italic) (justify left) hide)
    )
    (property "Datasheet" "" (at 151.13 71.12 0)
      (effects (font (size 1.27 1.27)) (justify left) hide)
    )
    (property "Sim.Device" "PNP" (at 151.13 71.12 0)
      (effects (font (size 1.27 1.27)) hide)
    )
    (property "Sim.Type" "VBIC" (at 151.13 71.12 0)
      (effects (font (size 1.27 1.27)) hide)
    )
    (property "Sim.Pins" "1=B 2=E 3=C" (at 151.13 71.12 0)
      (effects (font (size 1.27 1.27)) hide)
    )
    (pin "1" (uuid fa9c739a-9c6b-442d-bcdc-fd12b9a4db77))
    (pin "2" (uuid 58f9f5c5-68ef-4095-83c8-a82f69407224))
    (pin "3" (uuid 00642f6f-0c22-474a-b97a-9ffa922f0891))
    (instances
      (project "ampl"
        (path "/71a792c6-90d4-4c4c-8e32-8a422ae13029"
          (reference "Q3") (unit 1)
        )
      )
      (project "jlh_like_2005_dp"
        (path "/cefae286-dde6-44ae-8b1c-fe027df923e4"
          (reference "Q5") (unit 1)
        )
      )
    )
  )

  (symbol (lib_id "Transistor_BJT:MMBT5551L") (at 151.13 106.68 0) (unit 1)
    (in_bom yes) (on_board yes) (dnp no)
    (uuid 1b9bcf58-1f23-47a1-9b84-5cda6adbfaec)
    (property "Reference" "Q4" (at 155.9814 105.5116 0)
      (effects (font (size 1.27 1.27)) (justify left))
    )
    (property "Value" "MMBT5551L" (at 138.43 110.49 0)
      (effects (font (size 1.27 1.27)) (justify left))
    )
    (property "Footprint" "Package_TO_SOT_SMD:SOT-23" (at 156.21 108.585 0)
      (effects (font (size 1.27 1.27) italic) (justify left) hide)
    )
    (property "Datasheet" "www.onsemi.com/pub/Collateral/MMBT5550LT1-D.PDF" (at 151.13 106.68 0)
      (effects (font (size 1.27 1.27)) (justify left) hide)
    )
    (property "Sim.Device" "NPN" (at 151.13 106.68 0)
      (effects (font (size 1.27 1.27)) hide)
    )
    (property "Sim.Type" "VBIC" (at 151.13 106.68 0)
      (effects (font (size 1.27 1.27)) hide)
    )
    (property "Sim.Pins" "1=B 2=E 3=C" (at 151.13 106.68 0)
      (effects (font (size 1.27 1.27)) hide)
    )
    (pin "1" (uuid 2053addb-0867-4b1e-84f1-294ce4282acd))
    (pin "2" (uuid 8240c784-82fa-4c90-b8fc-063dfa91801f))
    (pin "3" (uuid defa09ec-3eb8-4415-927f-83a9f355c74c))
    (instances
      (project "ampl"
        (path "/71a792c6-90d4-4c4c-8e32-8a422ae13029"
          (reference "Q4") (unit 1)
        )
      )
      (project "jlh_like_2005_dp"
        (path "/cefae286-dde6-44ae-8b1c-fe027df923e4"
          (reference "Q6") (unit 1)
        )
      )
    )
  )

  (symbol (lib_id "Transistor_BJT:2SC1815") (at 168.91 114.3 0) (unit 1)
    (in_bom yes) (on_board yes) (dnp no)
    (uuid 20403dc6-767d-45dd-9906-1a1410ef4c17)
    (property "Reference" "Q8" (at 173.99 113.0299 0)
      (effects (font (size 1.27 1.27)) (justify left))
    )
    (property "Value" "2sd882" (at 173.99 115.5699 0)
      (effects (font (size 1.27 1.27)) (justify left) hide)
    )
    (property "Footprint" "Package_TO_SOT_THT:TO-220-3_Vertical" (at 173.99 116.205 0)
      (effects (font (size 1.27 1.27) italic) (justify left) hide)
    )
    (property "Datasheet" "" (at 168.91 114.3 0)
      (effects (font (size 1.27 1.27)) (justify left) hide)
    )
    (property "Sim.Device" "NPN" (at 168.91 114.3 0)
      (effects (font (size 1.27 1.27)) hide)
    )
    (property "Sim.Type" "GUMMELPOON" (at 168.91 114.3 0)
      (effects (font (size 1.27 1.27)) hide)
    )
    (property "Sim.Pins" "1=E 2=C 3=B" (at 168.91 114.3 0)
      (effects (font (size 1.27 1.27)) hide)
    )
    (property "Sim.Params" "bf=320" (at 168.91 114.3 0)
      (effects (font (size 1.27 1.27)) hide)
    )
    (pin "1" (uuid 3df1b8e9-2504-4c50-8dab-4f57c2e5c2ec))
    (pin "2" (uuid ca5b801f-b3c8-4d10-90fc-6059d13ef2d9))
    (pin "3" (uuid 287745fb-0c6d-4ed7-9e49-20a5a97fbfca))
    (instances
      (project "jlh_like_2005_dp"
        (path "/cefae286-dde6-44ae-8b1c-fe027df923e4"
          (reference "Q8") (unit 1)
        )
      )
    )
  )

  (symbol (lib_id "Device:R") (at 163.83 49.53 90) (unit 1)
    (in_bom yes) (on_board yes) (dnp no) (fields_autoplaced)
    (uuid 28ece03a-3ca1-456f-b5f3-f0fe16dafcc3)
    (property "Reference" "R13" (at 163.83 43.18 90)
      (effects (font (size 1.27 1.27)))
    )
    (property "Value" "0" (at 163.83 45.72 90)
      (effects (font (size 1.27 1.27)))
    )
    (property "Footprint" "Resistor_SMD:R_1210_3225Metric" (at 163.83 51.308 90)
      (effects (font (size 1.27 1.27)) hide)
    )
    (property "Datasheet" "~" (at 163.83 49.53 0)
      (effects (font (size 1.27 1.27)) hide)
    )
    (pin "1" (uuid 2500c397-3d0c-4d6a-b2e0-f842a699b000))
    (pin "2" (uuid 21314036-14e3-4cd0-b5ca-7967d3839665))
    (instances
      (project "jlh_like_2005_dp"
        (path "/cefae286-dde6-44ae-8b1c-fe027df923e4"
          (reference "R13") (unit 1)
        )
      )
    )
  )

  (symbol (lib_id "Transistor_BJT:MMBTA92") (at 148.59 57.15 180) (unit 1)
    (in_bom yes) (on_board yes) (dnp no)
    (uuid 2b05c7af-0aa8-419b-9c08-0112b0e3a18a)
    (property "Reference" "Q3" (at 143.7386 58.3184 0)
      (effects (font (size 1.27 1.27)) (justify left))
    )
    (property "Value" "MMBT5401" (at 139.7 58.42 0)
      (effects (font (size 1.27 1.27)) (justify left))
    )
    (property "Footprint" "Package_TO_SOT_SMD:SOT-23" (at 143.51 55.245 0)
      (effects (font (size 1.27 1.27) italic) (justify left) hide)
    )
    (property "Datasheet" "" (at 148.59 57.15 0)
      (effects (font (size 1.27 1.27)) (justify left) hide)
    )
    (property "Sim.Device" "PNP" (at 148.59 57.15 0)
      (effects (font (size 1.27 1.27)) hide)
    )
    (property "Sim.Type" "VBIC" (at 148.59 57.15 0)
      (effects (font (size 1.27 1.27)) hide)
    )
    (property "Sim.Pins" "1=B 2=E 3=C" (at 148.59 57.15 0)
      (effects (font (size 1.27 1.27)) hide)
    )
    (pin "1" (uuid d0c5540c-47e9-489e-a4b2-d9a51188ae40))
    (pin "2" (uuid d4ef66d0-4293-4d9b-9fbc-42a5be62f2da))
    (pin "3" (uuid a63c462f-e532-4959-91f8-6f08ecbe9173))
    (instances
      (project "ampl"
        (path "/71a792c6-90d4-4c4c-8e32-8a422ae13029"
          (reference "Q3") (unit 1)
        )
      )
      (project "jlh_like_2005_dp"
        (path "/cefae286-dde6-44ae-8b1c-fe027df923e4"
          (reference "Q4") (unit 1)
        )
      )
    )
  )

  (symbol (lib_id "Connector_Generic_MountingPin:Conn_01x01_MountingPin") (at 199.39 93.98 0) (unit 1)
    (in_bom yes) (on_board yes) (dnp no) (fields_autoplaced)
    (uuid 349fb348-5439-46ad-ae2a-69493e2b9ebe)
    (property "Reference" "J5" (at 201.93 93.7006 0)
      (effects (font (size 1.27 1.27)) (justify left))
    )
    (property "Value" "R_LOAD1" (at 201.93 96.2406 0)
      (effects (font (size 1.27 1.27)) (justify left))
    )
    (property "Footprint" "Connector_Pin:Pin_D1.4mm_L8.5mm_W2.8mm_FlatFork" (at 199.39 93.98 0)
      (effects (font (size 1.27 1.27)) hide)
    )
    (property "Datasheet" "~" (at 199.39 93.98 0)
      (effects (font (size 1.27 1.27)) hide)
    )
    (property "Sim.Enable" "0" (at 199.39 93.98 0)
      (effects (font (size 1.27 1.27)) hide)
    )
    (pin "1" (uuid 5a847dd9-5a9c-4983-965a-0edbbba2e5c1))
    (pin "MP" (uuid 246c8daf-64e5-4dfa-a1bc-2a2b83e761a2))
    (instances
      (project "jlh_like_2005_dp"
        (path "/cefae286-dde6-44ae-8b1c-fe027df923e4"
          (reference "J5") (unit 1)
        )
      )
    )
  )

  (symbol (lib_id "power:GND") (at 146.05 80.01 0) (unit 1)
    (in_bom yes) (on_board yes) (dnp no)
    (uuid 3637bd1c-4d9a-4f6f-b376-081a26c3579a)
    (property "Reference" "#PWR02" (at 146.05 86.36 0)
      (effects (font (size 1.27 1.27)) hide)
    )
    (property "Value" "GND" (at 138.43 81.28 0)
      (effects (font (size 1.27 1.27)) (justify left))
    )
    (property "Footprint" "" (at 146.05 80.01 0)
      (effects (font (size 1.27 1.27)) hide)
    )
    (property "Datasheet" "" (at 146.05 80.01 0)
      (effects (font (size 1.27 1.27)) hide)
    )
    (pin "1" (uuid ab5831af-f75f-4b8c-bf39-c899f93baf59))
    (instances
      (project "jlh_like_2005_dp"
        (path "/cefae286-dde6-44ae-8b1c-fe027df923e4"
          (reference "#PWR02") (unit 1)
        )
      )
    )
  )

  (symbol (lib_id "Device:C") (at 107.95 113.03 0) (unit 1)
    (in_bom yes) (on_board yes) (dnp no)
    (uuid 58fd0bd9-4612-4ffb-828b-23da1e3bfc7b)
    (property "Reference" "C3" (at 101.6 113.03 0)
      (effects (font (size 1.27 1.27)) (justify left))
    )
    (property "Value" "330p" (at 101.6 110.49 0)
      (effects (font (size 1.27 1.27)) (justify left))
    )
    (property "Footprint" "Capacitor_THT:C_Disc_D7.5mm_W2.5mm_P5.00mm" (at 108.9152 116.84 0)
      (effects (font (size 1.27 1.27)) hide)
    )
    (property "Datasheet" "~" (at 107.95 113.03 0)
      (effects (font (size 1.27 1.27)) hide)
    )
    (pin "2" (uuid fd275f47-d254-4935-8408-21f00bbf3ee9))
    (pin "1" (uuid 3b18d48d-d502-45d4-8874-9405751db80d))
    (instances
      (project "jlh_like_2005_dp"
        (path "/cefae286-dde6-44ae-8b1c-fe027df923e4"
          (reference "C3") (unit 1)
        )
      )
    )
  )

  (symbol (lib_id "Device:R") (at 146.05 74.93 0) (unit 1)
    (in_bom yes) (on_board yes) (dnp no)
    (uuid 62401b02-03c8-4587-ab46-aabf423055fc)
    (property "Reference" "R9" (at 139.7 73.66 0)
      (effects (font (size 1.27 1.27)) (justify left))
    )
    (property "Value" "4k7" (at 139.7 76.2 0)
      (effects (font (size 1.27 1.27)) (justify left))
    )
    (property "Footprint" "Resistor_THT:R_Axial_DIN0309_L9.0mm_D3.2mm_P5.08mm_Vertical" (at 144.272 74.93 90)
      (effects (font (size 1.27 1.27)) hide)
    )
    (property "Datasheet" "~" (at 146.05 74.93 0)
      (effects (font (size 1.27 1.27)) hide)
    )
    (pin "1" (uuid 2d437e04-9d97-48e4-99d2-3eca5c12dfd1))
    (pin "2" (uuid a335e43d-f86a-4841-a388-529ca22ac57e))
    (instances
      (project "jlh_like_2005_dp"
        (path "/cefae286-dde6-44ae-8b1c-fe027df923e4"
          (reference "R9") (unit 1)
        )
      )
    )
  )

  (symbol (lib_id "power:GND") (at 81.28 128.27 0) (unit 1)
    (in_bom yes) (on_board yes) (dnp no) (fields_autoplaced)
    (uuid 6bd56c9c-9676-4af0-b851-8940616d127d)
    (property "Reference" "#PWR0102" (at 81.28 134.62 0)
      (effects (font (size 1.27 1.27)) hide)
    )
    (property "Value" "GND" (at 83.82 129.5399 0)
      (effects (font (size 1.27 1.27)) (justify left))
    )
    (property "Footprint" "" (at 81.28 128.27 0)
      (effects (font (size 1.27 1.27)) hide)
    )
    (property "Datasheet" "" (at 81.28 128.27 0)
      (effects (font (size 1.27 1.27)) hide)
    )
    (pin "1" (uuid 33238144-1d4e-48ef-9ba9-2d15bfa469f9))
    (instances
      (project "jlh_like_2005_dp"
        (path "/cefae286-dde6-44ae-8b1c-fe027df923e4"
          (reference "#PWR0102") (unit 1)
        )
      )
    )
  )

  (symbol (lib_id "Device:R") (at 134.62 130.81 90) (unit 1)
    (in_bom yes) (on_board yes) (dnp no)
    (uuid 6d88ec95-1465-4f51-ba82-6f2352b6c0f0)
    (property "Reference" "R6" (at 135.89 125.73 90)
      (effects (font (size 1.27 1.27)) (justify left))
    )
    (property "Value" "20k" (at 137.16 128.27 90)
      (effects (font (size 1.27 1.27)) (justify left))
    )
    (property "Footprint" "Resistor_THT:R_Axial_DIN0309_L9.0mm_D3.2mm_P2.54mm_Vertical" (at 134.62 132.588 90)
      (effects (font (size 1.27 1.27)) hide)
    )
    (property "Datasheet" "~" (at 134.62 130.81 0)
      (effects (font (size 1.27 1.27)) hide)
    )
    (property "Sim.Device" "R" (at 246.38 246.38 0)
      (effects (font (size 1.27 1.27)) hide)
    )
    (property "Sim.Pins" "1=+ 2=-" (at 246.38 246.38 0)
      (effects (font (size 1.27 1.27)) hide)
    )
    (pin "1" (uuid 8ceb8630-b768-4065-bc5b-c32fd7a70a3e))
    (pin "2" (uuid 3495707d-c1cb-4612-b308-3077f48b56f7))
    (instances
      (project "jlh_like_2005_dp"
        (path "/cefae286-dde6-44ae-8b1c-fe027df923e4"
          (reference "R6") (unit 1)
        )
      )
    )
  )

  (symbol (lib_id "Transistor_BJT:MMBTA92") (at 110.49 57.15 180) (unit 1)
    (in_bom yes) (on_board yes) (dnp no)
    (uuid 723dedfe-6232-4e66-8e88-195db757630a)
    (property "Reference" "Q3" (at 105.6386 58.3184 0)
      (effects (font (size 1.27 1.27)) (justify left))
    )
    (property "Value" "MMBT5401" (at 101.6 58.42 0)
      (effects (font (size 1.27 1.27)) (justify left))
    )
    (property "Footprint" "Package_TO_SOT_SMD:SOT-23" (at 105.41 55.245 0)
      (effects (font (size 1.27 1.27) italic) (justify left) hide)
    )
    (property "Datasheet" "" (at 110.49 57.15 0)
      (effects (font (size 1.27 1.27)) (justify left) hide)
    )
    (property "Sim.Device" "PNP" (at 110.49 57.15 0)
      (effects (font (size 1.27 1.27)) hide)
    )
    (property "Sim.Type" "VBIC" (at 110.49 57.15 0)
      (effects (font (size 1.27 1.27)) hide)
    )
    (property "Sim.Pins" "1=B 2=E 3=C" (at 110.49 57.15 0)
      (effects (font (size 1.27 1.27)) hide)
    )
    (pin "1" (uuid 9ea4aaf2-1827-4a84-978f-65d42df38cfc))
    (pin "2" (uuid a06fea44-224a-4e3a-94fc-f887f0599796))
    (pin "3" (uuid d77d24f5-9401-4672-b930-676da76370ad))
    (instances
      (project "ampl"
        (path "/71a792c6-90d4-4c4c-8e32-8a422ae13029"
          (reference "Q3") (unit 1)
        )
      )
      (project "jlh_like_2005_dp"
        (path "/cefae286-dde6-44ae-8b1c-fe027df923e4"
          (reference "Q1") (unit 1)
        )
      )
    )
  )

  (symbol (lib_id "Simulation_SPICE:VDC") (at 232.41 69.85 0) (unit 1)
    (in_bom yes) (on_board no) (dnp no) (fields_autoplaced)
    (uuid 7a2cf7e6-3b3a-4201-a490-1a6864bbf096)
    (property "Reference" "V1" (at 236.22 68.4502 0)
      (effects (font (size 1.27 1.27)) (justify left))
    )
    (property "Value" "12" (at 236.22 70.9902 0)
      (effects (font (size 1.27 1.27)) (justify left))
    )
    (property "Footprint" "" (at 232.41 69.85 0)
      (effects (font (size 1.27 1.27)) hide)
    )
    (property "Datasheet" "~" (at 232.41 69.85 0)
      (effects (font (size 1.27 1.27)) hide)
    )
    (property "Sim.Device" "V" (at 232.41 69.85 0)
      (effects (font (size 1.27 1.27)) (justify left) hide)
    )
    (property "Sim.Type" "DC" (at 433.07 162.56 0)
      (effects (font (size 1.27 1.27)) hide)
    )
    (property "Sim.Pins" "1=+ 2=-" (at 433.07 162.56 0)
      (effects (font (size 1.27 1.27)) hide)
    )
    (pin "1" (uuid a029b2ad-9f31-4b82-88f8-61b663ad6996))
    (pin "2" (uuid 8b111cb2-fd03-43f7-b70d-5e6084ad9004))
    (instances
      (project "jlh_like_2005_dp"
        (path "/cefae286-dde6-44ae-8b1c-fe027df923e4"
          (reference "V1") (unit 1)
        )
      )
    )
  )

  (symbol (lib_id "power:GND") (at 242.57 97.79 0) (unit 1)
    (in_bom yes) (on_board yes) (dnp no)
    (uuid 7c63ae0c-00b6-41b4-8cb6-bc43016b4adf)
    (property "Reference" "#PWR04" (at 242.57 104.14 0)
      (effects (font (size 1.27 1.27)) hide)
    )
    (property "Value" "GND" (at 236.22 99.06 0)
      (effects (font (size 1.27 1.27)) (justify left))
    )
    (property "Footprint" "" (at 242.57 97.79 0)
      (effects (font (size 1.27 1.27)) hide)
    )
    (property "Datasheet" "" (at 242.57 97.79 0)
      (effects (font (size 1.27 1.27)) hide)
    )
    (pin "1" (uuid ee458d9d-f5bf-47a0-9075-1730fb9d8039))
    (instances
      (project "jlh_like_2005_dp"
        (path "/cefae286-dde6-44ae-8b1c-fe027df923e4"
          (reference "#PWR04") (unit 1)
        )
      )
    )
  )

  (symbol (lib_id "Transistor_BJT:MMBTA92") (at 113.03 99.06 0) (mirror x) (unit 1)
    (in_bom yes) (on_board yes) (dnp no)
    (uuid 83811dad-f887-4ec1-bd81-c5eb673f5875)
    (property "Reference" "Q3" (at 117.8814 100.2284 0)
      (effects (font (size 1.27 1.27)) (justify left))
    )
    (property "Value" "MMBT5401" (at 118.11 91.44 0)
      (effects (font (size 1.27 1.27)) (justify left))
    )
    (property "Footprint" "Package_TO_SOT_SMD:SOT-23" (at 118.11 97.155 0)
      (effects (font (size 1.27 1.27) italic) (justify left) hide)
    )
    (property "Datasheet" "" (at 113.03 99.06 0)
      (effects (font (size 1.27 1.27)) (justify left) hide)
    )
    (property "Sim.Device" "PNP" (at 113.03 99.06 0)
      (effects (font (size 1.27 1.27)) hide)
    )
    (property "Sim.Type" "VBIC" (at 113.03 99.06 0)
      (effects (font (size 1.27 1.27)) hide)
    )
    (property "Sim.Pins" "1=B 2=E 3=C" (at 113.03 99.06 0)
      (effects (font (size 1.27 1.27)) hide)
    )
    (pin "1" (uuid 08d118a5-ada0-4ccd-bf46-e559c67bad13))
    (pin "2" (uuid 7c07ca22-acdd-4ecd-95e5-84288c5e0e9e))
    (pin "3" (uuid a6e48486-8171-452b-ab5c-c9ccea7722c3))
    (instances
      (project "ampl"
        (path "/71a792c6-90d4-4c4c-8e32-8a422ae13029"
          (reference "Q3") (unit 1)
        )
      )
      (project "jlh_like_2005_dp"
        (path "/cefae286-dde6-44ae-8b1c-fe027df923e4"
          (reference "Q3") (unit 1)
        )
      )
    )
  )

  (symbol (lib_id "Device:C") (at 180.34 105.41 0) (unit 1)
    (in_bom yes) (on_board yes) (dnp no)
    (uuid 88d0033e-000a-4126-918d-42f02bfe18b1)
    (property "Reference" "C2" (at 173.99 105.41 0)
      (effects (font (size 1.27 1.27)) (justify left))
    )
    (property "Value" "100n" (at 172.72 107.95 0)
      (effects (font (size 1.27 1.27)) (justify left))
    )
    (property "Footprint" "Capacitor_THT:C_Disc_D7.5mm_W2.5mm_P5.00mm" (at 181.3052 109.22 0)
      (effects (font (size 1.27 1.27)) hide)
    )
    (property "Datasheet" "~" (at 180.34 105.41 0)
      (effects (font (size 1.27 1.27)) hide)
    )
    (pin "2" (uuid 7c28716c-7a1c-4b22-a8a6-8f170f9f77ab))
    (pin "1" (uuid c94558a7-41f3-469c-a356-7b0fd647b192))
    (instances
      (project "jlh_like_2005_dp"
        (path "/cefae286-dde6-44ae-8b1c-fe027df923e4"
          (reference "C2") (unit 1)
        )
      )
    )
  )

  (symbol (lib_id "Device:R") (at 95.25 111.76 180) (unit 1)
    (in_bom yes) (on_board yes) (dnp no)
    (uuid 94ede095-c757-4dac-9128-7165ea1ef823)
    (property "Reference" "R2" (at 100.33 113.03 0)
      (effects (font (size 1.27 1.27)) (justify left))
    )
    (property "Value" "39k" (at 100.33 110.49 0)
      (effects (font (size 1.27 1.27)) (justify left))
    )
    (property "Footprint" "Resistor_THT:R_Axial_DIN0309_L9.0mm_D3.2mm_P2.54mm_Vertical" (at 97.028 111.76 90)
      (effects (font (size 1.27 1.27)) hide)
    )
    (property "Datasheet" "~" (at 95.25 111.76 0)
      (effects (font (size 1.27 1.27)) hide)
    )
    (pin "1" (uuid dd8ff106-514e-4fce-867b-d13863dbefda))
    (pin "2" (uuid 9cb5c4d9-b469-423a-8f9b-e93ab7696757))
    (instances
      (project "jlh_like_2005_dp"
        (path "/cefae286-dde6-44ae-8b1c-fe027df923e4"
          (reference "R2") (unit 1)
        )
      )
    )
  )

  (symbol (lib_id "Device:R") (at 128.27 105.41 180) (unit 1)
    (in_bom yes) (on_board yes) (dnp no)
    (uuid 9572d0e0-9f25-424d-8e73-b254bde6e357)
    (property "Reference" "R7" (at 130.81 104.14 0)
      (effects (font (size 1.27 1.27)) (justify right))
    )
    (property "Value" "200" (at 130.81 107.95 0)
      (effects (font (size 1.27 1.27)) (justify right))
    )
    (property "Footprint" "Resistor_THT:R_Axial_DIN0309_L9.0mm_D3.2mm_P2.54mm_Vertical" (at 130.048 105.41 90)
      (effects (font (size 1.27 1.27)) hide)
    )
    (property "Datasheet" "~" (at 128.27 105.41 0)
      (effects (font (size 1.27 1.27)) hide)
    )
    (pin "1" (uuid 852f549e-31b1-471a-b9df-4b865c79d972))
    (pin "2" (uuid 035168de-d6ac-40e7-93a5-cb01b62b7fa1))
    (instances
      (project "jlh_like_2005_dp"
        (path "/cefae286-dde6-44ae-8b1c-fe027df923e4"
          (reference "R7") (unit 1)
        )
      )
    )
  )

  (symbol (lib_id "Device:R") (at 153.67 120.65 180) (unit 1)
    (in_bom yes) (on_board yes) (dnp no) (fields_autoplaced)
    (uuid 97bec481-b1f6-495c-9e8d-4a8398fccfbc)
    (property "Reference" "R12" (at 156.21 119.38 0)
      (effects (font (size 1.27 1.27)) (justify right))
    )
    (property "Value" "2k2" (at 156.21 121.92 0)
      (effects (font (size 1.27 1.27)) (justify right))
    )
    (property "Footprint" "Resistor_THT:R_Axial_DIN0309_L9.0mm_D3.2mm_P5.08mm_Vertical" (at 155.448 120.65 90)
      (effects (font (size 1.27 1.27)) hide)
    )
    (property "Datasheet" "~" (at 153.67 120.65 0)
      (effects (font (size 1.27 1.27)) hide)
    )
    (pin "1" (uuid b3645721-573d-49a6-bf54-a02bce48f315))
    (pin "2" (uuid 50a4f7ee-5932-4733-bd66-dd3595b630a8))
    (instances
      (project "jlh_like_2005_dp"
        (path "/cefae286-dde6-44ae-8b1c-fe027df923e4"
          (reference "R12") (unit 1)
        )
      )
    )
  )

  (symbol (lib_id "Device:C_Polarized") (at 90.17 99.06 90) (mirror x) (unit 1)
    (in_bom yes) (on_board yes) (dnp no)
    (uuid 98850953-5a5b-44cc-9b50-c038312e0298)
    (property "Reference" "C1" (at 86.36 92.71 90)
      (effects (font (size 1.27 1.27)) (justify left))
    )
    (property "Value" "2u2" (at 91.44 92.71 90)
      (effects (font (size 1.27 1.27)) (justify left))
    )
    (property "Footprint" "Capacitor_THT:CP_Radial_D10.0mm_P5.00mm" (at 93.98 100.0252 0)
      (effects (font (size 1.27 1.27)) hide)
    )
    (property "Datasheet" "~" (at 90.17 99.06 0)
      (effects (font (size 1.27 1.27)) hide)
    )
    (pin "1" (uuid 98aa4f53-eec6-426f-9fde-b8d176532efd))
    (pin "2" (uuid f828d148-c8d8-446e-8194-af14bb47c2ee))
    (instances
      (project "jlh_like_2005_dp"
        (path "/cefae286-dde6-44ae-8b1c-fe027df923e4"
          (reference "C1") (unit 1)
        )
      )
    )
  )

  (symbol (lib_id "Connector_Generic_MountingPin:Conn_01x01_MountingPin") (at 237.49 130.81 0) (unit 1)
    (in_bom yes) (on_board yes) (dnp no) (fields_autoplaced)
    (uuid a67bfe6b-4b28-4bb5-a8bf-446837028732)
    (property "Reference" "J3" (at 240.03 129.8956 0)
      (effects (font (size 1.27 1.27)) (justify left))
    )
    (property "Value" "-PWR" (at 240.03 132.4356 0)
      (effects (font (size 1.27 1.27)) (justify left))
    )
    (property "Footprint" "Connector_Pin:Pin_D1.4mm_L8.5mm_W2.8mm_FlatFork" (at 237.49 130.81 0)
      (effects (font (size 1.27 1.27)) hide)
    )
    (property "Datasheet" "~" (at 237.49 130.81 0)
      (effects (font (size 1.27 1.27)) hide)
    )
    (property "Sim.Enable" "0" (at 237.49 130.81 0)
      (effects (font (size 1.27 1.27)) hide)
    )
    (pin "1" (uuid 52fa8bff-ad6d-432a-a672-8e2009ad6526))
    (pin "MP" (uuid c678ce91-6516-4101-a933-866370a79460))
    (instances
      (project "jlh_like_2005_dp"
        (path "/cefae286-dde6-44ae-8b1c-fe027df923e4"
          (reference "J3") (unit 1)
        )
      )
    )
  )

  (symbol (lib_id "Device:R") (at 152.4 93.98 270) (unit 1)
    (in_bom yes) (on_board yes) (dnp no)
    (uuid a9457748-87c0-4199-bc1b-1f91ff92c24e)
    (property "Reference" "R8" (at 148.59 88.9 90)
      (effects (font (size 1.27 1.27)))
    )
    (property "Value" "7k5" (at 148.59 91.44 90)
      (effects (font (size 1.27 1.27)))
    )
    (property "Footprint" "Resistor_THT:R_Axial_DIN0309_L9.0mm_D3.2mm_P2.54mm_Vertical" (at 152.4 92.202 90)
      (effects (font (size 1.27 1.27)) hide)
    )
    (property "Datasheet" "~" (at 152.4 93.98 0)
      (effects (font (size 1.27 1.27)) hide)
    )
    (pin "1" (uuid bd351165-387c-4b82-a8a9-c66b457a0079))
    (pin "2" (uuid 5f21b0c5-5717-46ee-98ed-eb73cc9d0ea9))
    (instances
      (project "jlh_like_2005_dp"
        (path "/cefae286-dde6-44ae-8b1c-fe027df923e4"
          (reference "R8") (unit 1)
        )
      )
    )
  )

  (symbol (lib_id "Device:R") (at 115.57 83.82 0) (unit 1)
    (in_bom yes) (on_board yes) (dnp no)
    (uuid be0c2c2a-c5f1-44c7-8122-92f2cc6dd6ea)
    (property "Reference" "R5" (at 118.11 82.55 0)
      (effects (font (size 1.27 1.27)) (justify left))
    )
    (property "Value" "0" (at 118.11 85.09 0)
      (effects (font (size 1.27 1.27)) (justify left))
    )
    (property "Footprint" "Resistor_SMD:R_1210_3225Metric" (at 113.792 83.82 90)
      (effects (font (size 1.27 1.27)) hide)
    )
    (property "Datasheet" "~" (at 115.57 83.82 0)
      (effects (font (size 1.27 1.27)) hide)
    )
    (pin "1" (uuid 27dfdd50-1f23-4680-9946-b095a3cc950d))
    (pin "2" (uuid ca6cc1c2-6521-41b3-8df6-d5a2c1dfb6d6))
    (instances
      (project "jlh_like_2005_dp"
        (path "/cefae286-dde6-44ae-8b1c-fe027df923e4"
          (reference "R5") (unit 1)
        )
      )
    )
  )

  (symbol (lib_id "Device:R") (at 193.04 101.6 180) (unit 1)
    (in_bom yes) (on_board no) (dnp no)
    (uuid bfb4cf6a-f4d0-4539-8a1a-2719d3d3ffe9)
    (property "Reference" "Rload1" (at 186.69 101.6 90)
      (effects (font (size 1.27 1.27)))
    )
    (property "Value" "8" (at 189.23 101.6 90)
      (effects (font (size 1.27 1.27)))
    )
    (property "Footprint" "Resistor_THT:R_Axial_DIN0414_L11.9mm_D4.5mm_P5.08mm_Vertical" (at 194.818 101.6 90)
      (effects (font (size 1.27 1.27)) hide)
    )
    (property "Datasheet" "~" (at 193.04 101.6 0)
      (effects (font (size 1.27 1.27)) hide)
    )
    (pin "1" (uuid 491482b8-5e24-4254-8176-3f61746ee338))
    (pin "2" (uuid ff8b2994-a212-46b3-9cd8-48b990c549a2))
    (instances
      (project "jlh_like_2005_dp"
        (path "/cefae286-dde6-44ae-8b1c-fe027df923e4"
          (reference "Rload1") (unit 1)
        )
      )
    )
  )

  (symbol (lib_id "power:GND") (at 193.04 113.03 0) (unit 1)
    (in_bom yes) (on_board yes) (dnp no)
    (uuid c17eb0a4-b753-4219-b191-bbf54b3227c9)
    (property "Reference" "#PWR03" (at 193.04 119.38 0)
      (effects (font (size 1.27 1.27)) hide)
    )
    (property "Value" "GND" (at 185.42 114.3 0)
      (effects (font (size 1.27 1.27)) (justify left))
    )
    (property "Footprint" "" (at 193.04 113.03 0)
      (effects (font (size 1.27 1.27)) hide)
    )
    (property "Datasheet" "" (at 193.04 113.03 0)
      (effects (font (size 1.27 1.27)) hide)
    )
    (pin "1" (uuid 97ae428b-7e3f-481a-b957-10b3f7a492f9))
    (instances
      (project "jlh_like_2005_dp"
        (path "/cefae286-dde6-44ae-8b1c-fe027df923e4"
          (reference "#PWR03") (unit 1)
        )
      )
    )
  )

  (symbol (lib_id "Device:R") (at 107.95 74.93 0) (unit 1)
    (in_bom yes) (on_board yes) (dnp no)
    (uuid c42f6998-cbdd-45ac-be95-5c3027f934f6)
    (property "Reference" "R3" (at 101.6 73.66 0)
      (effects (font (size 1.27 1.27)) (justify left))
    )
    (property "Value" "10k" (at 101.6 76.2 0)
      (effects (font (size 1.27 1.27)) (justify left))
    )
    (property "Footprint" "Resistor_THT:R_Axial_DIN0309_L9.0mm_D3.2mm_P5.08mm_Vertical" (at 106.172 74.93 90)
      (effects (font (size 1.27 1.27)) hide)
    )
    (property "Datasheet" "~" (at 107.95 74.93 0)
      (effects (font (size 1.27 1.27)) hide)
    )
    (pin "1" (uuid aeeca902-e14d-448d-87b3-d408184ed595))
    (pin "2" (uuid 0c65a67d-1d28-4ca6-98b4-448d62426bae))
    (instances
      (project "jlh_like_2005_dp"
        (path "/cefae286-dde6-44ae-8b1c-fe027df923e4"
          (reference "R3") (unit 1)
        )
      )
    )
  )

  (symbol (lib_id "Connector_Generic_MountingPin:Conn_01x01_MountingPin") (at 237.49 87.63 0) (unit 1)
    (in_bom yes) (on_board yes) (dnp no) (fields_autoplaced)
    (uuid c4585caf-35a8-4b16-b0ce-4e2b9ffba087)
    (property "Reference" "J7" (at 240.03 86.7156 0)
      (effects (font (size 1.27 1.27)) (justify left))
    )
    (property "Value" "GND_PWR" (at 240.03 89.2556 0)
      (effects (font (size 1.27 1.27)) (justify left))
    )
    (property "Footprint" "Connector_Pin:Pin_D1.4mm_L8.5mm_W2.8mm_FlatFork" (at 237.49 87.63 0)
      (effects (font (size 1.27 1.27)) hide)
    )
    (property "Datasheet" "~" (at 237.49 87.63 0)
      (effects (font (size 1.27 1.27)) hide)
    )
    (property "Sim.Enable" "0" (at 237.49 87.63 0)
      (effects (font (size 1.27 1.27)) hide)
    )
    (pin "1" (uuid 558a5760-e00d-4ebe-8cad-3437d8e632a0))
    (pin "MP" (uuid c3de9fef-1a68-40a6-987a-c0882a82b81a))
    (instances
      (project "jlh_like_2005_dp"
        (path "/cefae286-dde6-44ae-8b1c-fe027df923e4"
          (reference "J7") (unit 1)
        )
      )
    )
  )

  (symbol (lib_id "Device:R") (at 153.67 83.82 0) (unit 1)
    (in_bom yes) (on_board yes) (dnp no)
    (uuid c607e0af-8cb5-426b-8d71-9b91be97999a)
    (property "Reference" "R11" (at 156.21 82.55 0)
      (effects (font (size 1.27 1.27)) (justify left))
    )
    (property "Value" "0" (at 156.21 85.09 0)
      (effects (font (size 1.27 1.27)) (justify left))
    )
    (property "Footprint" "Resistor_SMD:R_1210_3225Metric" (at 151.892 83.82 90)
      (effects (font (size 1.27 1.27)) hide)
    )
    (property "Datasheet" "~" (at 153.67 83.82 0)
      (effects (font (size 1.27 1.27)) hide)
    )
    (pin "1" (uuid e04f9a0d-9e55-483a-b18f-2084ba715e97))
    (pin "2" (uuid 96b1a6b7-35a3-44a4-959e-2ba88949532a))
    (instances
      (project "jlh_like_2005_dp"
        (path "/cefae286-dde6-44ae-8b1c-fe027df923e4"
          (reference "R11") (unit 1)
        )
      )
    )
  )

  (symbol (lib_id "Device:R") (at 101.6 99.06 90) (unit 1)
    (in_bom yes) (on_board yes) (dnp no) (fields_autoplaced)
    (uuid e2f74189-299d-4f7a-bbef-4be5c5f8845d)
    (property "Reference" "R1" (at 101.6 92.71 90)
      (effects (font (size 1.27 1.27)))
    )
    (property "Value" "3k9" (at 101.6 95.25 90)
      (effects (font (size 1.27 1.27)))
    )
    (property "Footprint" "Resistor_THT:R_Axial_DIN0309_L9.0mm_D3.2mm_P2.54mm_Vertical" (at 101.6 100.838 90)
      (effects (font (size 1.27 1.27)) hide)
    )
    (property "Datasheet" "~" (at 101.6 99.06 0)
      (effects (font (size 1.27 1.27)) hide)
    )
    (pin "1" (uuid d599a38c-a566-4d1a-84ab-ca47be10b661))
    (pin "2" (uuid d9efe8c4-0796-4a97-a0cb-5bfff6c83d73))
    (instances
      (project "jlh_like_2005_dp"
        (path "/cefae286-dde6-44ae-8b1c-fe027df923e4"
          (reference "R1") (unit 1)
        )
      )
    )
  )

  (symbol (lib_id "Device:C_Polarized") (at 128.27 116.84 0) (mirror y) (unit 1)
    (in_bom yes) (on_board yes) (dnp no)
    (uuid e47e5675-9b33-4008-bb96-2f65036a52d0)
    (property "Reference" "C4" (at 133.35 119.38 0)
      (effects (font (size 1.27 1.27)) (justify left))
    )
    (property "Value" "470u" (at 134.62 111.76 0)
      (effects (font (size 1.27 1.27)) (justify left))
    )
    (property "Footprint" "Capacitor_THT:CP_Radial_D10.0mm_P5.00mm" (at 127.3048 120.65 0)
      (effects (font (size 1.27 1.27)) hide)
    )
    (property "Datasheet" "~" (at 128.27 116.84 0)
      (effects (font (size 1.27 1.27)) hide)
    )
    (pin "1" (uuid cac0383d-389c-4b9f-8b8b-16670c26cc16))
    (pin "2" (uuid 3b26080f-647b-4352-a675-c7997ef072f8))
    (instances
      (project "jlh_like_2005_dp"
        (path "/cefae286-dde6-44ae-8b1c-fe027df923e4"
          (reference "C4") (unit 1)
        )
      )
    )
  )

  (symbol (lib_id "Connector_Generic_MountingPin:Conn_01x01_MountingPin") (at 76.2 124.46 180) (unit 1)
    (in_bom yes) (on_board yes) (dnp no) (fields_autoplaced)
    (uuid e7f64f19-1645-41e1-8250-1bc889d03f1b)
    (property "Reference" "J2" (at 73.66 123.4694 0)
      (effects (font (size 1.27 1.27)) (justify left))
    )
    (property "Value" "GND" (at 73.66 126.0094 0)
      (effects (font (size 1.27 1.27)) (justify left))
    )
    (property "Footprint" "Connector_Pin:Pin_D1.4mm_L8.5mm_W2.8mm_FlatFork" (at 76.2 124.46 0)
      (effects (font (size 1.27 1.27)) hide)
    )
    (property "Datasheet" "~" (at 76.2 124.46 0)
      (effects (font (size 1.27 1.27)) hide)
    )
    (property "Sim.Enable" "0" (at 76.2 124.46 0)
      (effects (font (size 1.27 1.27)) hide)
    )
    (pin "1" (uuid 5d07fc31-cde3-4812-a98d-84daf791ba62))
    (pin "MP" (uuid ccae2322-4b82-4aa2-84d4-2380ce01133c))
    (instances
      (project "jlh_like_2005_dp"
        (path "/cefae286-dde6-44ae-8b1c-fe027df923e4"
          (reference "J2") (unit 1)
        )
      )
    )
  )

  (symbol (lib_id "Simulation_SPICE:VSIN") (at 81.28 111.76 0) (unit 1)
    (in_bom yes) (on_board no) (dnp no)
    (uuid e8865b84-ae0a-472b-b05c-a38d89fc9352)
    (property "Reference" "V5" (at 85.09 109.0301 0)
      (effects (font (size 1.27 1.27)) (justify left))
    )
    (property "Value" "VSIN" (at 85.09 111.5701 0)
      (effects (font (size 1.27 1.27)) (justify left))
    )
    (property "Footprint" "" (at 81.28 111.76 0)
      (effects (font (size 1.27 1.27)) hide)
    )
    (property "Datasheet" "~" (at 81.28 111.76 0)
      (effects (font (size 1.27 1.27)) hide)
    )
    (property "Sim.Device" "V" (at 81.28 111.76 0)
      (effects (font (size 1.27 1.27)) (justify left) hide)
    )
    (property "Sim.Type" "SIN" (at 13.97 0 0)
      (effects (font (size 1.27 1.27)) hide)
    )
    (property "Sim.Params" "dc=0 ampl=0.25 f=1051 ac=0.25" (at 41.91 111.76 0)
      (effects (font (size 1.27 1.27)) (justify left))
    )
    (property "Sim.Pins" "1=+ 2=-" (at 13.97 0 0)
      (effects (font (size 1.27 1.27)) hide)
    )
    (pin "1" (uuid bfc9c03d-a681-4471-bc00-c62d9a19e849))
    (pin "2" (uuid 58340bdd-b92c-4b86-b907-c6f6464d0e41))
    (instances
      (project "jlh_like_2005_dp"
        (path "/cefae286-dde6-44ae-8b1c-fe027df923e4"
          (reference "V5") (unit 1)
        )
      )
    )
  )

  (symbol (lib_id "Simulation_SPICE:VDC") (at 232.41 114.3 0) (unit 1)
    (in_bom yes) (on_board no) (dnp no) (fields_autoplaced)
    (uuid e94725ca-8ad7-4cc3-908c-d27ebb0b85c8)
    (property "Reference" "V2" (at 236.22 112.9002 0)
      (effects (font (size 1.27 1.27)) (justify left))
    )
    (property "Value" "12" (at 236.22 115.4402 0)
      (effects (font (size 1.27 1.27)) (justify left))
    )
    (property "Footprint" "" (at 232.41 114.3 0)
      (effects (font (size 1.27 1.27)) hide)
    )
    (property "Datasheet" "~" (at 232.41 114.3 0)
      (effects (font (size 1.27 1.27)) hide)
    )
    (property "Sim.Device" "V" (at 232.41 114.3 0)
      (effects (font (size 1.27 1.27)) (justify left) hide)
    )
    (property "Sim.Type" "DC" (at 433.07 207.01 0)
      (effects (font (size 1.27 1.27)) hide)
    )
    (property "Sim.Pins" "1=+ 2=-" (at 433.07 207.01 0)
      (effects (font (size 1.27 1.27)) hide)
    )
    (pin "1" (uuid ca56dd25-12fc-43fe-a6ba-59b3173a407e))
    (pin "2" (uuid 19d883f3-fece-416b-9a0d-9dd245ec8e17))
    (instances
      (project "jlh_like_2005_dp"
        (path "/cefae286-dde6-44ae-8b1c-fe027df923e4"
          (reference "V2") (unit 1)
        )
      )
    )
  )

  (symbol (lib_id "Transistor_BJT:2SC1815") (at 168.91 88.9 0) (unit 1)
    (in_bom yes) (on_board yes) (dnp no)
    (uuid ec9796d6-5ff9-4a47-a83f-2f8664469877)
    (property "Reference" "Q7" (at 173.99 87.6299 0)
      (effects (font (size 1.27 1.27)) (justify left))
    )
    (property "Value" "2sd882" (at 173.99 90.1699 0)
      (effects (font (size 1.27 1.27)) (justify left) hide)
    )
    (property "Footprint" "Package_TO_SOT_THT:TO-220-3_Vertical" (at 173.99 90.805 0)
      (effects (font (size 1.27 1.27) italic) (justify left) hide)
    )
    (property "Datasheet" "" (at 168.91 88.9 0)
      (effects (font (size 1.27 1.27)) (justify left) hide)
    )
    (property "Sim.Device" "NPN" (at 168.91 88.9 0)
      (effects (font (size 1.27 1.27)) hide)
    )
    (property "Sim.Type" "GUMMELPOON" (at 168.91 88.9 0)
      (effects (font (size 1.27 1.27)) hide)
    )
    (property "Sim.Pins" "1=E 2=C 3=B" (at 168.91 88.9 0)
      (effects (font (size 1.27 1.27)) hide)
    )
    (property "Sim.Params" "bf=320" (at 168.91 88.9 0)
      (effects (font (size 1.27 1.27)) hide)
    )
    (pin "1" (uuid 83be19b6-990b-46b8-86b4-91914efd16de))
    (pin "2" (uuid c9b7a84f-8b73-4a6c-ab99-13c8031c2d7a))
    (pin "3" (uuid 2e006f5d-32c1-4e9e-bc50-30e59141ac3a))
    (instances
      (project "jlh_like_2005_dp"
        (path "/cefae286-dde6-44ae-8b1c-fe027df923e4"
          (reference "Q7") (unit 1)
        )
      )
    )
  )

  (symbol (lib_id "Transistor_BJT:MMBTA92") (at 113.03 71.12 0) (mirror x) (unit 1)
    (in_bom yes) (on_board yes) (dnp no)
    (uuid f289c8bb-fff4-43ff-8a4b-a2bbecfd3fc4)
    (property "Reference" "Q3" (at 117.8814 72.2884 0)
      (effects (font (size 1.27 1.27)) (justify left))
    )
    (property "Value" "MMBT5401" (at 121.92 72.39 0)
      (effects (font (size 1.27 1.27)) (justify left))
    )
    (property "Footprint" "Package_TO_SOT_SMD:SOT-23" (at 118.11 69.215 0)
      (effects (font (size 1.27 1.27) italic) (justify left) hide)
    )
    (property "Datasheet" "" (at 113.03 71.12 0)
      (effects (font (size 1.27 1.27)) (justify left) hide)
    )
    (property "Sim.Device" "PNP" (at 113.03 71.12 0)
      (effects (font (size 1.27 1.27)) hide)
    )
    (property "Sim.Type" "VBIC" (at 113.03 71.12 0)
      (effects (font (size 1.27 1.27)) hide)
    )
    (property "Sim.Pins" "1=B 2=E 3=C" (at 113.03 71.12 0)
      (effects (font (size 1.27 1.27)) hide)
    )
    (pin "1" (uuid bf7feb56-d738-4f07-a077-16d8369df61d))
    (pin "2" (uuid 53d54e3d-9798-4c30-aa63-a2be4c2cb3a0))
    (pin "3" (uuid 8e6b3ad9-4754-4044-b375-fc7a875a2b96))
    (instances
      (project "ampl"
        (path "/71a792c6-90d4-4c4c-8e32-8a422ae13029"
          (reference "Q3") (unit 1)
        )
      )
      (project "jlh_like_2005_dp"
        (path "/cefae286-dde6-44ae-8b1c-fe027df923e4"
          (reference "Q2") (unit 1)
        )
      )
    )
  )

  (symbol (lib_id "Device:R") (at 180.34 97.79 180) (unit 1)
    (in_bom yes) (on_board yes) (dnp no)
    (uuid f86e7594-3a20-4aae-b8dd-1489c2cf2c3a)
    (property "Reference" "R16" (at 176.53 101.6 0)
      (effects (font (size 1.27 1.27)) (justify left))
    )
    (property "Value" "10" (at 175.26 99.06 0)
      (effects (font (size 1.27 1.27)) (justify left))
    )
    (property "Footprint" "Resistor_THT:R_Axial_DIN0309_L9.0mm_D3.2mm_P2.54mm_Vertical" (at 182.118 97.79 90)
      (effects (font (size 1.27 1.27)) hide)
    )
    (property "Datasheet" "~" (at 180.34 97.79 0)
      (effects (font (size 1.27 1.27)) hide)
    )
    (pin "1" (uuid 5383c339-d264-419c-8401-0768216053bd))
    (pin "2" (uuid c7cec6c0-d71e-4d5f-a922-77b035e30422))
    (instances
      (project "jlh_like_2005_dp"
        (path "/cefae286-dde6-44ae-8b1c-fe027df923e4"
          (reference "R16") (unit 1)
        )
      )
    )
  )

  (symbol (lib_id "Device:R") (at 153.67 53.34 180) (unit 1)
    (in_bom yes) (on_board yes) (dnp no) (fields_autoplaced)
    (uuid f9259caf-6b24-4def-8c69-a69b34befe36)
    (property "Reference" "R10" (at 156.21 52.07 0)
      (effects (font (size 1.27 1.27)) (justify right))
    )
    (property "Value" "120" (at 156.21 54.61 0)
      (effects (font (size 1.27 1.27)) (justify right))
    )
    (property "Footprint" "Resistor_THT:R_Axial_DIN0309_L9.0mm_D3.2mm_P2.54mm_Vertical" (at 155.448 53.34 90)
      (effects (font (size 1.27 1.27)) hide)
    )
    (property "Datasheet" "~" (at 153.67 53.34 0)
      (effects (font (size 1.27 1.27)) hide)
    )
    (pin "1" (uuid 7e50094e-67f9-46a3-8358-4885cb02189f))
    (pin "2" (uuid 94b1bf85-ba85-47ba-b65b-0ebcd55c7d40))
    (instances
      (project "jlh_like_2005_dp"
        (path "/cefae286-dde6-44ae-8b1c-fe027df923e4"
          (reference "R10") (unit 1)
        )
      )
    )
  )

  (symbol (lib_id "Connector_Generic_MountingPin:Conn_01x01_MountingPin") (at 237.49 49.53 0) (unit 1)
    (in_bom yes) (on_board yes) (dnp no) (fields_autoplaced)
    (uuid f98179df-c927-4828-8ee1-4f3a09cb4911)
    (property "Reference" "J4" (at 240.03 49.2506 0)
      (effects (font (size 1.27 1.27)) (justify left))
    )
    (property "Value" "+PWR" (at 240.03 51.7906 0)
      (effects (font (size 1.27 1.27)) (justify left))
    )
    (property "Footprint" "Connector_Pin:Pin_D1.4mm_L8.5mm_W2.8mm_FlatFork" (at 237.49 49.53 0)
      (effects (font (size 1.27 1.27)) hide)
    )
    (property "Datasheet" "~" (at 237.49 49.53 0)
      (effects (font (size 1.27 1.27)) hide)
    )
    (property "Sim.Enable" "0" (at 237.49 49.53 0)
      (effects (font (size 1.27 1.27)) hide)
    )
    (pin "1" (uuid 82300d37-8c4e-4389-9c96-f02fd69eeea2))
    (pin "MP" (uuid 7a26a2a4-7375-4e36-9ac1-ec479aefa61c))
    (instances
      (project "jlh_like_2005_dp"
        (path "/cefae286-dde6-44ae-8b1c-fe027df923e4"
          (reference "J4") (unit 1)
        )
      )
    )
  )

  (symbol (lib_id "Connector_Generic_MountingPin:Conn_01x01_MountingPin") (at 199.39 110.49 0) (unit 1)
    (in_bom yes) (on_board yes) (dnp no) (fields_autoplaced)
    (uuid fd81c10c-f03d-4b06-8365-197e11393f63)
    (property "Reference" "J6" (at 201.93 110.2106 0)
      (effects (font (size 1.27 1.27)) (justify left))
    )
    (property "Value" "R_LOAD2" (at 201.93 112.7506 0)
      (effects (font (size 1.27 1.27)) (justify left))
    )
    (property "Footprint" "Connector_Pin:Pin_D1.4mm_L8.5mm_W2.8mm_FlatFork" (at 199.39 110.49 0)
      (effects (font (size 1.27 1.27)) hide)
    )
    (property "Datasheet" "~" (at 199.39 110.49 0)
      (effects (font (size 1.27 1.27)) hide)
    )
    (property "Sim.Enable" "0" (at 199.39 110.49 0)
      (effects (font (size 1.27 1.27)) hide)
    )
    (pin "1" (uuid 8316618e-5bcc-4695-b342-f7d38dc9ee40))
    (pin "MP" (uuid 92ace945-edad-4836-910e-e8af456f609c))
    (instances
      (project "jlh_like_2005_dp"
        (path "/cefae286-dde6-44ae-8b1c-fe027df923e4"
          (reference "J6") (unit 1)
        )
      )
    )
  )

  (symbol (lib_id "power:GND") (at 107.95 80.01 0) (unit 1)
    (in_bom yes) (on_board yes) (dnp no)
    (uuid ffdc2095-7a20-4ac1-8432-1e804351c20a)
    (property "Reference" "#PWR01" (at 107.95 86.36 0)
      (effects (font (size 1.27 1.27)) hide)
    )
    (property "Value" "GND" (at 101.6 81.28 0)
      (effects (font (size 1.27 1.27)) (justify left))
    )
    (property "Footprint" "" (at 107.95 80.01 0)
      (effects (font (size 1.27 1.27)) hide)
    )
    (property "Datasheet" "" (at 107.95 80.01 0)
      (effects (font (size 1.27 1.27)) hide)
    )
    (pin "1" (uuid cd804bd6-240b-4bf5-baa1-8f41b56193b8))
    (instances
      (project "jlh_like_2005_dp"
        (path "/cefae286-dde6-44ae-8b1c-fe027df923e4"
          (reference "#PWR01") (unit 1)
        )
      )
    )
  )

  (sheet_instances
    (path "/" (page "1"))
  )
)
