(export (version "E")
  (design
    (source "/run/user/1002/doc/ce49e38b/from_1973_b-ab_class.kicad_sch")
    (date "Thu Feb  6 16:38:50 2025")
    (tool "Eeschema 7.0.10")
    (sheet (number "1") (name "/") (tstamps "/")
      (title_block
        (title)
        (company)
        (rev)
        (date)
        (source "from_1973_b-ab_class.kicad_sch")
        (comment (number "1") (value ""))
        (comment (number "2") (value ""))
        (comment (number "3") (value ""))
        (comment (number "4") (value ""))
        (comment (number "5") (value ""))
        (comment (number "6") (value ""))
        (comment (number "7") (value ""))
        (comment (number "8") (value ""))
        (comment (number "9") (value "")))))
  (components
    (comp (ref "C1")
      (value "0.1u")
      (footprint "Capacitor_THT:C_Disc_D10.5mm_W5.0mm_P10.00mm")
      (libsource (lib "Device") (part "C") (description "Unpolarized capacitor"))
      (property (name "Sheetname") (value ""))
      (property (name "Sheetfile") (value "from_1973_b-ab_class.kicad_sch"))
      (property (name "ki_description") (value "Unpolarized capacitor"))
      (property (name "ki_keywords") (value "cap capacitor"))
      (sheetpath (names "/") (tstamps "/"))
      (tstamps "fa63a0c5-4fa3-449b-8aaf-557c8fadb509"))
    (comp (ref "C1-1")
      (value "22u")
      (footprint "Capacitor_THT:CP_Radial_D5.0mm_P2.50mm")
      (libsource (lib "Device") (part "C_Polarized") (description "Polarized capacitor"))
      (property (name "Sheetname") (value ""))
      (property (name "Sheetfile") (value "from_1973_b-ab_class.kicad_sch"))
      (property (name "ki_description") (value "Polarized capacitor"))
      (property (name "ki_keywords") (value "cap capacitor"))
      (sheetpath (names "/") (tstamps "/"))
      (tstamps "98850953-5a5b-44cc-9b50-c038312e0298"))
    (comp (ref "C1-2")
      (value "22u")
      (footprint "Capacitor_THT:CP_Radial_D5.0mm_P2.50mm")
      (libsource (lib "Device") (part "C_Polarized") (description "Polarized capacitor"))
      (property (name "Sheetname") (value ""))
      (property (name "Sheetfile") (value "from_1973_b-ab_class.kicad_sch"))
      (property (name "ki_description") (value "Polarized capacitor"))
      (property (name "ki_keywords") (value "cap capacitor"))
      (sheetpath (names "/") (tstamps "/"))
      (tstamps "a0fcd211-5c46-40cb-80a8-788341df72f0"))
    (comp (ref "C2")
      (value "0.1u")
      (footprint "Capacitor_THT:C_Disc_D10.5mm_W5.0mm_P10.00mm")
      (libsource (lib "Device") (part "C") (description "Unpolarized capacitor"))
      (property (name "Sheetname") (value ""))
      (property (name "Sheetfile") (value "from_1973_b-ab_class.kicad_sch"))
      (property (name "ki_description") (value "Unpolarized capacitor"))
      (property (name "ki_keywords") (value "cap capacitor"))
      (sheetpath (names "/") (tstamps "/"))
      (tstamps "b64e836c-1c7e-47b7-89b1-45645c6941d1"))
    (comp (ref "C3")
      (value "10u")
      (footprint "Capacitor_THT:CP_Radial_D5.0mm_P2.50mm")
      (libsource (lib "Device") (part "C_Polarized") (description "Polarized capacitor"))
      (property (name "Sheetname") (value ""))
      (property (name "Sheetfile") (value "from_1973_b-ab_class.kicad_sch"))
      (property (name "ki_description") (value "Polarized capacitor"))
      (property (name "ki_keywords") (value "cap capacitor"))
      (sheetpath (names "/") (tstamps "/"))
      (tstamps "445f73d3-589b-471d-9d0d-944ca67f2374"))
    (comp (ref "C4")
      (value "0.1u")
      (footprint "Capacitor_THT:C_Disc_D10.5mm_W5.0mm_P10.00mm")
      (libsource (lib "Device") (part "C") (description "Unpolarized capacitor"))
      (property (name "Sheetname") (value ""))
      (property (name "Sheetfile") (value "from_1973_b-ab_class.kicad_sch"))
      (property (name "ki_description") (value "Unpolarized capacitor"))
      (property (name "ki_keywords") (value "cap capacitor"))
      (sheetpath (names "/") (tstamps "/"))
      (tstamps "2c547b5c-aa42-4e4f-b7d6-f4e6a716f1c4"))
    (comp (ref "C5")
      (value "0.022u")
      (footprint "Capacitor_THT:C_Disc_D10.5mm_W5.0mm_P10.00mm")
      (libsource (lib "Device") (part "C") (description "Unpolarized capacitor"))
      (property (name "Sheetname") (value ""))
      (property (name "Sheetfile") (value "from_1973_b-ab_class.kicad_sch"))
      (property (name "ki_description") (value "Unpolarized capacitor"))
      (property (name "ki_keywords") (value "cap capacitor"))
      (sheetpath (names "/") (tstamps "/"))
      (tstamps "edc4db8a-57c3-4c12-a3fe-c81ec52fa2c7"))
    (comp (ref "C6")
      (value "0.022u")
      (footprint "Capacitor_THT:C_Disc_D10.5mm_W5.0mm_P10.00mm")
      (libsource (lib "Device") (part "C") (description "Unpolarized capacitor"))
      (property (name "Sheetname") (value ""))
      (property (name "Sheetfile") (value "from_1973_b-ab_class.kicad_sch"))
      (property (name "ki_description") (value "Unpolarized capacitor"))
      (property (name "ki_keywords") (value "cap capacitor"))
      (sheetpath (names "/") (tstamps "/"))
      (tstamps "1b89ce0d-6476-42ee-9298-f6c0518762c8"))
    (comp (ref "C7")
      (value "10u")
      (footprint "Capacitor_THT:CP_Radial_D5.0mm_P2.50mm")
      (libsource (lib "Device") (part "C_Polarized") (description "Polarized capacitor"))
      (property (name "Sheetname") (value ""))
      (property (name "Sheetfile") (value "from_1973_b-ab_class.kicad_sch"))
      (property (name "ki_description") (value "Polarized capacitor"))
      (property (name "ki_keywords") (value "cap capacitor"))
      (sheetpath (names "/") (tstamps "/"))
      (tstamps "87d8f595-e292-4446-ab08-bdbfc9d1fcd3"))
    (comp (ref "C8")
      (value "220u")
      (footprint "Capacitor_THT:CP_Radial_D8.0mm_P3.80mm")
      (libsource (lib "Device") (part "C_Polarized") (description "Polarized capacitor"))
      (property (name "Sheetname") (value ""))
      (property (name "Sheetfile") (value "from_1973_b-ab_class.kicad_sch"))
      (property (name "ki_description") (value "Polarized capacitor"))
      (property (name "ki_keywords") (value "cap capacitor"))
      (sheetpath (names "/") (tstamps "/"))
      (tstamps "f0b17eab-25d0-48e4-b0e0-f6d57fd2633c"))
    (comp (ref "C9")
      (value "220u")
      (footprint "Capacitor_THT:CP_Radial_D8.0mm_P3.80mm")
      (libsource (lib "Device") (part "C_Polarized") (description "Polarized capacitor"))
      (property (name "Sheetname") (value ""))
      (property (name "Sheetfile") (value "from_1973_b-ab_class.kicad_sch"))
      (property (name "ki_description") (value "Polarized capacitor"))
      (property (name "ki_keywords") (value "cap capacitor"))
      (sheetpath (names "/") (tstamps "/"))
      (tstamps "08acf48b-d9f2-46b4-86f1-2879eb929104"))
    (comp (ref "C10")
      (value "220u")
      (footprint "Capacitor_THT:CP_Radial_D8.0mm_P3.80mm")
      (libsource (lib "Device") (part "C_Polarized") (description "Polarized capacitor"))
      (property (name "Sheetname") (value ""))
      (property (name "Sheetfile") (value "from_1973_b-ab_class.kicad_sch"))
      (property (name "ki_description") (value "Polarized capacitor"))
      (property (name "ki_keywords") (value "cap capacitor"))
      (sheetpath (names "/") (tstamps "/"))
      (tstamps "446f02db-9843-42ed-9d98-7a083ede272c"))
    (comp (ref "C11")
      (value "1000u")
      (footprint "Capacitor_THT:CP_Radial_D10.0mm_P5.00mm_P7.50mm")
      (libsource (lib "Device") (part "C_Polarized") (description "Polarized capacitor"))
      (property (name "Sheetname") (value ""))
      (property (name "Sheetfile") (value "from_1973_b-ab_class.kicad_sch"))
      (property (name "ki_description") (value "Polarized capacitor"))
      (property (name "ki_keywords") (value "cap capacitor"))
      (sheetpath (names "/") (tstamps "/"))
      (tstamps "0dff46a5-10a3-4d33-a689-291c549ad33f"))
    (comp (ref "D1")
      (value "BZX384xxxx")
      (footprint "Diode_THT:D_DO-201_P5.08mm_Vertical_KathodeUp")
      (datasheet "https://www.vishay.com/docs/85764/bzx384.pdf")
      (fields
        (field (name "Sim.Device") "D")
        (field (name "Sim.Params") "bv=12")
        (field (name "Sim.Pins") "1=K 2=A"))
      (libsource (lib "Diode") (part "BZX384xxxx") (description "300mW Zener Diode, SOD-323"))
      (property (name "Sim.Device") (value "D"))
      (property (name "Sim.Pins") (value "1=K 2=A"))
      (property (name "Sim.Params") (value "bv=12"))
      (property (name "Sheetname") (value ""))
      (property (name "Sheetfile") (value "from_1973_b-ab_class.kicad_sch"))
      (property (name "ki_description") (value "300mW Zener Diode, SOD-323"))
      (property (name "ki_keywords") (value "zener diode"))
      (sheetpath (names "/") (tstamps "/"))
      (tstamps "80ca4882-3a80-41d8-9d3b-db010ca1b215"))
    (comp (ref "D2")
      (value "1N4001")
      (footprint "Diode_THT:D_DO-41_SOD81_P10.16mm_Horizontal")
      (datasheet "http://www.vishay.com/docs/88503/1n4001.pdf")
      (fields
        (field (name "Sim.Device") "D")
        (field (name "Sim.Pins") "1=K 2=A"))
      (libsource (lib "Diode") (part "1N4001") (description "50V 1A General Purpose Rectifier Diode, DO-41"))
      (property (name "Sim.Device") (value "D"))
      (property (name "Sim.Pins") (value "1=K 2=A"))
      (property (name "Sheetname") (value ""))
      (property (name "Sheetfile") (value "from_1973_b-ab_class.kicad_sch"))
      (property (name "ki_description") (value "50V 1A General Purpose Rectifier Diode, DO-41"))
      (property (name "ki_keywords") (value "diode"))
      (sheetpath (names "/") (tstamps "/"))
      (tstamps "720d1557-9b7e-430b-b751-09e13ac33ee4"))
    (comp (ref "D3")
      (value "1N4001")
      (footprint "Diode_THT:D_DO-41_SOD81_P10.16mm_Horizontal")
      (datasheet "http://www.vishay.com/docs/88503/1n4001.pdf")
      (fields
        (field (name "Sim.Device") "D")
        (field (name "Sim.Pins") "1=K 2=A"))
      (libsource (lib "Diode") (part "1N4001") (description "50V 1A General Purpose Rectifier Diode, DO-41"))
      (property (name "Sim.Device") (value "D"))
      (property (name "Sim.Pins") (value "1=K 2=A"))
      (property (name "Sheetname") (value ""))
      (property (name "Sheetfile") (value "from_1973_b-ab_class.kicad_sch"))
      (property (name "ki_description") (value "50V 1A General Purpose Rectifier Diode, DO-41"))
      (property (name "ki_keywords") (value "diode"))
      (sheetpath (names "/") (tstamps "/"))
      (tstamps "fe63c57a-b046-4c2b-a0be-f665409aa6ba"))
    (comp (ref "J1")
      (value "Conn_01x01_MountingPin")
      (footprint "Connector_Pin:Pin_D1.4mm_L8.5mm_W2.8mm_FlatFork")
      (fields
        (field (name "Sim.Enable") "0"))
      (libsource (lib "Connector_Generic_MountingPin") (part "Conn_01x01_MountingPin") (description "Generic connectable mounting pin connector, single row, 01x01, script generated (kicad-library-utils/schlib/autogen/connector/)"))
      (property (name "Sim.Enable") (value "0"))
      (property (name "Sheetname") (value ""))
      (property (name "Sheetfile") (value "from_1973_b-ab_class.kicad_sch"))
      (property (name "ki_description") (value "Generic connectable mounting pin connector, single row, 01x01, script generated (kicad-library-utils/schlib/autogen/connector/)"))
      (property (name "ki_keywords") (value "connector"))
      (sheetpath (names "/") (tstamps "/"))
      (tstamps "06898ae5-866d-42dc-bee6-a31be2f31cf5"))
    (comp (ref "J2")
      (value "Conn_01x01_MountingPin")
      (footprint "Connector_Pin:Pin_D1.4mm_L8.5mm_W2.8mm_FlatFork")
      (fields
        (field (name "Sim.Enable") "0"))
      (libsource (lib "Connector_Generic_MountingPin") (part "Conn_01x01_MountingPin") (description "Generic connectable mounting pin connector, single row, 01x01, script generated (kicad-library-utils/schlib/autogen/connector/)"))
      (property (name "Sim.Enable") (value "0"))
      (property (name "Sheetname") (value ""))
      (property (name "Sheetfile") (value "from_1973_b-ab_class.kicad_sch"))
      (property (name "ki_description") (value "Generic connectable mounting pin connector, single row, 01x01, script generated (kicad-library-utils/schlib/autogen/connector/)"))
      (property (name "ki_keywords") (value "connector"))
      (sheetpath (names "/") (tstamps "/"))
      (tstamps "e7f64f19-1645-41e1-8250-1bc889d03f1b"))
    (comp (ref "J3")
      (value "Conn_01x01_MountingPin")
      (footprint "Connector_Pin:Pin_D1.4mm_L8.5mm_W2.8mm_FlatFork")
      (fields
        (field (name "Sim.Enable") "0"))
      (libsource (lib "Connector_Generic_MountingPin") (part "Conn_01x01_MountingPin") (description "Generic connectable mounting pin connector, single row, 01x01, script generated (kicad-library-utils/schlib/autogen/connector/)"))
      (property (name "Sim.Enable") (value "0"))
      (property (name "Sheetname") (value ""))
      (property (name "Sheetfile") (value "from_1973_b-ab_class.kicad_sch"))
      (property (name "ki_description") (value "Generic connectable mounting pin connector, single row, 01x01, script generated (kicad-library-utils/schlib/autogen/connector/)"))
      (property (name "ki_keywords") (value "connector"))
      (sheetpath (names "/") (tstamps "/"))
      (tstamps "143d2ee4-5ef5-4ec5-b49d-87e1b8830746"))
    (comp (ref "J4")
      (value "Conn_01x01_MountingPin")
      (footprint "Connector_Pin:Pin_D1.4mm_L8.5mm_W2.8mm_FlatFork")
      (fields
        (field (name "Sim.Enable") "0"))
      (libsource (lib "Connector_Generic_MountingPin") (part "Conn_01x01_MountingPin") (description "Generic connectable mounting pin connector, single row, 01x01, script generated (kicad-library-utils/schlib/autogen/connector/)"))
      (property (name "Sim.Enable") (value "0"))
      (property (name "Sheetname") (value ""))
      (property (name "Sheetfile") (value "from_1973_b-ab_class.kicad_sch"))
      (property (name "ki_description") (value "Generic connectable mounting pin connector, single row, 01x01, script generated (kicad-library-utils/schlib/autogen/connector/)"))
      (property (name "ki_keywords") (value "connector"))
      (sheetpath (names "/") (tstamps "/"))
      (tstamps "c844fac7-dbef-4e3d-a317-a1a1651797d9"))
    (comp (ref "J5")
      (value "Conn_01x01_MountingPin")
      (footprint "Connector_Pin:Pin_D1.4mm_L8.5mm_W2.8mm_FlatFork")
      (fields
        (field (name "Sim.Enable") "0"))
      (libsource (lib "Connector_Generic_MountingPin") (part "Conn_01x01_MountingPin") (description "Generic connectable mounting pin connector, single row, 01x01, script generated (kicad-library-utils/schlib/autogen/connector/)"))
      (property (name "Sim.Enable") (value "0"))
      (property (name "Sheetname") (value ""))
      (property (name "Sheetfile") (value "from_1973_b-ab_class.kicad_sch"))
      (property (name "ki_description") (value "Generic connectable mounting pin connector, single row, 01x01, script generated (kicad-library-utils/schlib/autogen/connector/)"))
      (property (name "ki_keywords") (value "connector"))
      (sheetpath (names "/") (tstamps "/"))
      (tstamps "1df8289f-2435-4b3a-aff7-285177ce660e"))
    (comp (ref "J6")
      (value "Conn_01x01_MountingPin")
      (footprint "Connector_Pin:Pin_D1.4mm_L8.5mm_W2.8mm_FlatFork")
      (fields
        (field (name "Sim.Enable") "0"))
      (libsource (lib "Connector_Generic_MountingPin") (part "Conn_01x01_MountingPin") (description "Generic connectable mounting pin connector, single row, 01x01, script generated (kicad-library-utils/schlib/autogen/connector/)"))
      (property (name "Sim.Enable") (value "0"))
      (property (name "Sheetname") (value ""))
      (property (name "Sheetfile") (value "from_1973_b-ab_class.kicad_sch"))
      (property (name "ki_description") (value "Generic connectable mounting pin connector, single row, 01x01, script generated (kicad-library-utils/schlib/autogen/connector/)"))
      (property (name "ki_keywords") (value "connector"))
      (sheetpath (names "/") (tstamps "/"))
      (tstamps "2638d7cb-3739-44bb-bddd-486e06032830"))
    (comp (ref "J7")
      (value "Conn_01x01_MountingPin")
      (footprint "Connector_Pin:Pin_D1.4mm_L8.5mm_W2.8mm_FlatFork")
      (fields
        (field (name "Sim.Enable") "0"))
      (libsource (lib "Connector_Generic_MountingPin") (part "Conn_01x01_MountingPin") (description "Generic connectable mounting pin connector, single row, 01x01, script generated (kicad-library-utils/schlib/autogen/connector/)"))
      (property (name "Sim.Enable") (value "0"))
      (property (name "Sheetname") (value ""))
      (property (name "Sheetfile") (value "from_1973_b-ab_class.kicad_sch"))
      (property (name "ki_description") (value "Generic connectable mounting pin connector, single row, 01x01, script generated (kicad-library-utils/schlib/autogen/connector/)"))
      (property (name "ki_keywords") (value "connector"))
      (sheetpath (names "/") (tstamps "/"))
      (tstamps "ff2f3570-2949-4b5c-833c-b2065cc63f2f"))
    (comp (ref "J8")
      (value "Conn_01x01_MountingPin")
      (footprint "Connector_Pin:Pin_D1.4mm_L8.5mm_W2.8mm_FlatFork")
      (fields
        (field (name "Sim.Enable") "0"))
      (libsource (lib "Connector_Generic_MountingPin") (part "Conn_01x01_MountingPin") (description "Generic connectable mounting pin connector, single row, 01x01, script generated (kicad-library-utils/schlib/autogen/connector/)"))
      (property (name "Sim.Enable") (value "0"))
      (property (name "Sheetname") (value ""))
      (property (name "Sheetfile") (value "from_1973_b-ab_class.kicad_sch"))
      (property (name "ki_description") (value "Generic connectable mounting pin connector, single row, 01x01, script generated (kicad-library-utils/schlib/autogen/connector/)"))
      (property (name "ki_keywords") (value "connector"))
      (sheetpath (names "/") (tstamps "/"))
      (tstamps "b8ca577c-ef07-4369-8536-f70e9f1d7886"))
    (comp (ref "J9")
      (value "Conn_01x01_MountingPin")
      (footprint "Connector_Pin:Pin_D1.4mm_L8.5mm_W2.8mm_FlatFork")
      (fields
        (field (name "Sim.Enable") "0"))
      (libsource (lib "Connector_Generic_MountingPin") (part "Conn_01x01_MountingPin") (description "Generic connectable mounting pin connector, single row, 01x01, script generated (kicad-library-utils/schlib/autogen/connector/)"))
      (property (name "Sim.Enable") (value "0"))
      (property (name "Sheetname") (value ""))
      (property (name "Sheetfile") (value "from_1973_b-ab_class.kicad_sch"))
      (property (name "ki_description") (value "Generic connectable mounting pin connector, single row, 01x01, script generated (kicad-library-utils/schlib/autogen/connector/)"))
      (property (name "ki_keywords") (value "connector"))
      (sheetpath (names "/") (tstamps "/"))
      (tstamps "ec0fd336-9dcf-4fe4-aec2-ce091da0db83"))
    (comp (ref "J10")
      (value "Conn_01x01_MountingPin")
      (footprint "Connector_Pin:Pin_D1.4mm_L8.5mm_W2.8mm_FlatFork")
      (fields
        (field (name "Sim.Enable") "0"))
      (libsource (lib "Connector_Generic_MountingPin") (part "Conn_01x01_MountingPin") (description "Generic connectable mounting pin connector, single row, 01x01, script generated (kicad-library-utils/schlib/autogen/connector/)"))
      (property (name "Sim.Enable") (value "0"))
      (property (name "Sheetname") (value ""))
      (property (name "Sheetfile") (value "from_1973_b-ab_class.kicad_sch"))
      (property (name "ki_description") (value "Generic connectable mounting pin connector, single row, 01x01, script generated (kicad-library-utils/schlib/autogen/connector/)"))
      (property (name "ki_keywords") (value "connector"))
      (sheetpath (names "/") (tstamps "/"))
      (tstamps "c62399ad-21e0-487d-a374-0365769247d3"))
    (comp (ref "J11")
      (value "Conn_01x01_MountingPin")
      (footprint "Connector_Pin:Pin_D1.4mm_L8.5mm_W2.8mm_FlatFork")
      (fields
        (field (name "Sim.Enable") "0"))
      (libsource (lib "Connector_Generic_MountingPin") (part "Conn_01x01_MountingPin") (description "Generic connectable mounting pin connector, single row, 01x01, script generated (kicad-library-utils/schlib/autogen/connector/)"))
      (property (name "Sim.Enable") (value "0"))
      (property (name "Sheetname") (value ""))
      (property (name "Sheetfile") (value "from_1973_b-ab_class.kicad_sch"))
      (property (name "ki_description") (value "Generic connectable mounting pin connector, single row, 01x01, script generated (kicad-library-utils/schlib/autogen/connector/)"))
      (property (name "ki_keywords") (value "connector"))
      (sheetpath (names "/") (tstamps "/"))
      (tstamps "f98179df-c927-4828-8ee1-4f3a09cb4911"))
    (comp (ref "J12")
      (value "Conn_01x01_MountingPin")
      (footprint "Connector_Pin:Pin_D1.4mm_L8.5mm_W2.8mm_FlatFork")
      (fields
        (field (name "Sim.Enable") "0"))
      (libsource (lib "Connector_Generic_MountingPin") (part "Conn_01x01_MountingPin") (description "Generic connectable mounting pin connector, single row, 01x01, script generated (kicad-library-utils/schlib/autogen/connector/)"))
      (property (name "Sim.Enable") (value "0"))
      (property (name "Sheetname") (value ""))
      (property (name "Sheetfile") (value "from_1973_b-ab_class.kicad_sch"))
      (property (name "ki_description") (value "Generic connectable mounting pin connector, single row, 01x01, script generated (kicad-library-utils/schlib/autogen/connector/)"))
      (property (name "ki_keywords") (value "connector"))
      (sheetpath (names "/") (tstamps "/"))
      (tstamps "a67bfe6b-4b28-4bb5-a8bf-446837028732"))
    (comp (ref "Q1")
      (value "kt315")
      (footprint "Package_TO_SOT_THT:TO-92_Inline_Wide")
      (fields
        (field (name "Sim.Device") "NPN")
        (field (name "Sim.Pins") "1=E 2=C 3=B")
        (field (name "Sim.Type") "GUMMELPOON"))
      (libsource (lib "Transistor_BJT") (part "2SC1815") (description "0.15A Ic, 50V Vce, Low Noise Audio NPN Transistor, TO-92"))
      (property (name "Sim.Device") (value "NPN"))
      (property (name "Sim.Type") (value "GUMMELPOON"))
      (property (name "Sim.Pins") (value "1=E 2=C 3=B"))
      (property (name "Sheetname") (value ""))
      (property (name "Sheetfile") (value "from_1973_b-ab_class.kicad_sch"))
      (property (name "ki_description") (value "0.15A Ic, 50V Vce, Low Noise Audio NPN Transistor, TO-92"))
      (property (name "ki_keywords") (value "Low Noise Audio NPN Transistor"))
      (sheetpath (names "/") (tstamps "/"))
      (tstamps "4d8f240d-3578-49e9-baa5-3250908cc221"))
    (comp (ref "Q2")
      (value "kt315")
      (footprint "Package_TO_SOT_THT:TO-92_Inline_Wide")
      (fields
        (field (name "Sim.Device") "NPN")
        (field (name "Sim.Pins") "1=E 2=C 3=B")
        (field (name "Sim.Type") "GUMMELPOON"))
      (libsource (lib "Transistor_BJT") (part "2SC1815") (description "0.15A Ic, 50V Vce, Low Noise Audio NPN Transistor, TO-92"))
      (property (name "Sim.Device") (value "NPN"))
      (property (name "Sim.Type") (value "GUMMELPOON"))
      (property (name "Sim.Pins") (value "1=E 2=C 3=B"))
      (property (name "Sheetname") (value ""))
      (property (name "Sheetfile") (value "from_1973_b-ab_class.kicad_sch"))
      (property (name "ki_description") (value "0.15A Ic, 50V Vce, Low Noise Audio NPN Transistor, TO-92"))
      (property (name "ki_keywords") (value "Low Noise Audio NPN Transistor"))
      (sheetpath (names "/") (tstamps "/"))
      (tstamps "3a4c8cbb-3052-440a-8fde-0805923350b9"))
    (comp (ref "Q3")
      (value "kt315")
      (footprint "Package_TO_SOT_THT:TO-92_Inline_Wide")
      (fields
        (field (name "Sim.Device") "NPN")
        (field (name "Sim.Pins") "1=E 2=C 3=B")
        (field (name "Sim.Type") "GUMMELPOON"))
      (libsource (lib "Transistor_BJT") (part "2SC1815") (description "0.15A Ic, 50V Vce, Low Noise Audio NPN Transistor, TO-92"))
      (property (name "Sim.Device") (value "NPN"))
      (property (name "Sim.Type") (value "GUMMELPOON"))
      (property (name "Sim.Pins") (value "1=E 2=C 3=B"))
      (property (name "Sheetname") (value ""))
      (property (name "Sheetfile") (value "from_1973_b-ab_class.kicad_sch"))
      (property (name "ki_description") (value "0.15A Ic, 50V Vce, Low Noise Audio NPN Transistor, TO-92"))
      (property (name "ki_keywords") (value "Low Noise Audio NPN Transistor"))
      (sheetpath (names "/") (tstamps "/"))
      (tstamps "7fef4ebc-9ea0-433c-aa62-153a84d7e68f"))
    (comp (ref "Q4")
      (value "kt814")
      (footprint "Package_TO_SOT_THT:TO-126-3_Vertical")
      (fields
        (field (name "Sim.Device") "PNP")
        (field (name "Sim.Pins") "1=E 2=C 3=B")
        (field (name "Sim.Type") "GUMMELPOON"))
      (libsource (lib "Device") (part "Q_PNP_ECB") (description "PNP transistor, emitter/collector/base"))
      (property (name "Sim.Device") (value "PNP"))
      (property (name "Sim.Type") (value "GUMMELPOON"))
      (property (name "Sim.Pins") (value "1=E 2=C 3=B"))
      (property (name "Sheetname") (value ""))
      (property (name "Sheetfile") (value "from_1973_b-ab_class.kicad_sch"))
      (property (name "ki_description") (value "PNP transistor, emitter/collector/base"))
      (property (name "ki_keywords") (value "transistor PNP"))
      (sheetpath (names "/") (tstamps "/"))
      (tstamps "50b8c3d0-556b-4987-85af-44b6516f7a7d"))
    (comp (ref "Q5")
      (value "P213")
      (footprint "Package_TO_SOT_THT:TO-3")
      (fields
        (field (name "Sim.Device") "PNP")
        (field (name "Sim.Params") "bf=40")
        (field (name "Sim.Pins") "1=E 2=C 3=B")
        (field (name "Sim.Type") "GUMMELPOON"))
      (libsource (lib "Device") (part "Q_PNP_ECB") (description "PNP transistor, emitter/collector/base"))
      (property (name "Sim.Device") (value "PNP"))
      (property (name "Sim.Type") (value "GUMMELPOON"))
      (property (name "Sim.Pins") (value "1=E 2=C 3=B"))
      (property (name "Sim.Params") (value "bf=40"))
      (property (name "Sheetname") (value ""))
      (property (name "Sheetfile") (value "from_1973_b-ab_class.kicad_sch"))
      (property (name "ki_description") (value "PNP transistor, emitter/collector/base"))
      (property (name "ki_keywords") (value "transistor PNP"))
      (sheetpath (names "/") (tstamps "/"))
      (tstamps "9b0216cf-dd9c-4836-8693-64f8bc3f4a64"))
    (comp (ref "Q6")
      (value "P213")
      (footprint "Package_TO_SOT_THT:TO-3")
      (fields
        (field (name "Sim.Device") "PNP")
        (field (name "Sim.Params") "bf=40")
        (field (name "Sim.Pins") "1=E 2=C 3=B")
        (field (name "Sim.Type") "GUMMELPOON"))
      (libsource (lib "Device") (part "Q_PNP_ECB") (description "PNP transistor, emitter/collector/base"))
      (property (name "Sim.Device") (value "PNP"))
      (property (name "Sim.Type") (value "GUMMELPOON"))
      (property (name "Sim.Pins") (value "1=E 2=C 3=B"))
      (property (name "Sim.Params") (value "bf=40"))
      (property (name "Sheetname") (value ""))
      (property (name "Sheetfile") (value "from_1973_b-ab_class.kicad_sch"))
      (property (name "ki_description") (value "PNP transistor, emitter/collector/base"))
      (property (name "ki_keywords") (value "transistor PNP"))
      (sheetpath (names "/") (tstamps "/"))
      (tstamps "8df1e41d-0596-4e96-8f0e-6ab57321fbe8"))
    (comp (ref "R1")
      (value "2k")
      (footprint "Resistor_THT:R_Axial_DIN0414_L11.9mm_D4.5mm_P5.08mm_Vertical")
      (libsource (lib "Device") (part "R") (description "Resistor"))
      (property (name "Sheetname") (value ""))
      (property (name "Sheetfile") (value "from_1973_b-ab_class.kicad_sch"))
      (property (name "ki_description") (value "Resistor"))
      (property (name "ki_keywords") (value "R res resistor"))
      (sheetpath (names "/") (tstamps "/"))
      (tstamps "77f5c35f-3965-4427-ace8-2a5407b6a4e6"))
    (comp (ref "R2")
      (value "2k")
      (footprint "Resistor_THT:R_Axial_DIN0414_L11.9mm_D4.5mm_P5.08mm_Vertical")
      (libsource (lib "Device") (part "R") (description "Resistor"))
      (property (name "Sheetname") (value ""))
      (property (name "Sheetfile") (value "from_1973_b-ab_class.kicad_sch"))
      (property (name "ki_description") (value "Resistor"))
      (property (name "ki_keywords") (value "R res resistor"))
      (sheetpath (names "/") (tstamps "/"))
      (tstamps "29625332-1cc2-4f5c-92ba-585637678cbf"))
    (comp (ref "R3")
      (value "2k")
      (footprint "Resistor_THT:R_Axial_DIN0414_L11.9mm_D4.5mm_P5.08mm_Vertical")
      (libsource (lib "Device") (part "R") (description "Resistor"))
      (property (name "Sheetname") (value ""))
      (property (name "Sheetfile") (value "from_1973_b-ab_class.kicad_sch"))
      (property (name "ki_description") (value "Resistor"))
      (property (name "ki_keywords") (value "R res resistor"))
      (sheetpath (names "/") (tstamps "/"))
      (tstamps "fd027751-819d-4fc5-b5a8-b9f564e74cbf"))
    (comp (ref "R4")
      (value "1M")
      (footprint "Resistor_THT:R_Axial_DIN0414_L11.9mm_D4.5mm_P5.08mm_Vertical")
      (libsource (lib "Device") (part "R") (description "Resistor"))
      (property (name "Sheetname") (value ""))
      (property (name "Sheetfile") (value "from_1973_b-ab_class.kicad_sch"))
      (property (name "ki_description") (value "Resistor"))
      (property (name "ki_keywords") (value "R res resistor"))
      (sheetpath (names "/") (tstamps "/"))
      (tstamps "0bf9793d-a3eb-42c4-845a-beadd5880f21"))
    (comp (ref "R5")
      (value "2k")
      (footprint "Resistor_THT:R_Axial_DIN0414_L11.9mm_D4.5mm_P5.08mm_Vertical")
      (libsource (lib "Device") (part "R") (description "Resistor"))
      (property (name "Sheetname") (value ""))
      (property (name "Sheetfile") (value "from_1973_b-ab_class.kicad_sch"))
      (property (name "ki_description") (value "Resistor"))
      (property (name "ki_keywords") (value "R res resistor"))
      (sheetpath (names "/") (tstamps "/"))
      (tstamps "e5384405-7730-4e7a-9acd-98965b428f7f"))
    (comp (ref "R6")
      (value "100k")
      (footprint "Resistor_THT:R_Axial_DIN0414_L11.9mm_D4.5mm_P5.08mm_Vertical")
      (libsource (lib "Device") (part "R") (description "Resistor"))
      (property (name "Sheetname") (value ""))
      (property (name "Sheetfile") (value "from_1973_b-ab_class.kicad_sch"))
      (property (name "ki_description") (value "Resistor"))
      (property (name "ki_keywords") (value "R res resistor"))
      (sheetpath (names "/") (tstamps "/"))
      (tstamps "2b9b9efa-bb8e-4945-8558-bded05119cc9"))
    (comp (ref "R7")
      (value "1k5")
      (footprint "Resistor_THT:R_Axial_DIN0414_L11.9mm_D4.5mm_P5.08mm_Vertical")
      (libsource (lib "Device") (part "R") (description "Resistor"))
      (property (name "Sheetname") (value ""))
      (property (name "Sheetfile") (value "from_1973_b-ab_class.kicad_sch"))
      (property (name "ki_description") (value "Resistor"))
      (property (name "ki_keywords") (value "R res resistor"))
      (sheetpath (names "/") (tstamps "/"))
      (tstamps "101e2a0c-f303-4041-ad0e-6d49994ef5cb"))
    (comp (ref "R8")
      (value "100")
      (footprint "Resistor_THT:R_Axial_DIN0414_L11.9mm_D4.5mm_P5.08mm_Vertical")
      (libsource (lib "Device") (part "R") (description "Resistor"))
      (property (name "Sheetname") (value ""))
      (property (name "Sheetfile") (value "from_1973_b-ab_class.kicad_sch"))
      (property (name "ki_description") (value "Resistor"))
      (property (name "ki_keywords") (value "R res resistor"))
      (sheetpath (names "/") (tstamps "/"))
      (tstamps "d8e75b94-0877-4c6b-9497-05115813f000"))
    (comp (ref "R9")
      (value "1")
      (footprint "Resistor_THT:R_Axial_DIN0414_L11.9mm_D4.5mm_P5.08mm_Vertical")
      (libsource (lib "Device") (part "R") (description "Resistor"))
      (property (name "Sheetname") (value ""))
      (property (name "Sheetfile") (value "from_1973_b-ab_class.kicad_sch"))
      (property (name "ki_description") (value "Resistor"))
      (property (name "ki_keywords") (value "R res resistor"))
      (sheetpath (names "/") (tstamps "/"))
      (tstamps "8e55b46a-f32e-47eb-a901-24e764ae369c"))
    (comp (ref "R10")
      (value "1k")
      (footprint "Resistor_THT:R_Axial_DIN0414_L11.9mm_D4.5mm_P5.08mm_Vertical")
      (libsource (lib "Device") (part "R") (description "Resistor"))
      (property (name "Sheetname") (value ""))
      (property (name "Sheetfile") (value "from_1973_b-ab_class.kicad_sch"))
      (property (name "ki_description") (value "Resistor"))
      (property (name "ki_keywords") (value "R res resistor"))
      (sheetpath (names "/") (tstamps "/"))
      (tstamps "0d5ec88e-c7e2-4d21-817a-61496396a80e"))
    (comp (ref "R11")
      (value "820")
      (footprint "Resistor_THT:R_Axial_DIN0414_L11.9mm_D4.5mm_P5.08mm_Vertical")
      (libsource (lib "Device") (part "R") (description "Resistor"))
      (property (name "Sheetname") (value ""))
      (property (name "Sheetfile") (value "from_1973_b-ab_class.kicad_sch"))
      (property (name "ki_description") (value "Resistor"))
      (property (name "ki_keywords") (value "R res resistor"))
      (sheetpath (names "/") (tstamps "/"))
      (tstamps "ab62aad2-57ca-4c9b-b9e9-d82189b311dc"))
    (comp (ref "R12")
      (value "510")
      (footprint "Resistor_THT:R_Axial_DIN0414_L11.9mm_D4.5mm_P5.08mm_Vertical")
      (libsource (lib "Device") (part "R") (description "Resistor"))
      (property (name "Sheetname") (value ""))
      (property (name "Sheetfile") (value "from_1973_b-ab_class.kicad_sch"))
      (property (name "ki_description") (value "Resistor"))
      (property (name "ki_keywords") (value "R res resistor"))
      (sheetpath (names "/") (tstamps "/"))
      (tstamps "86c1ed0c-1b22-42d8-9f1a-5c0a8cc7b86a"))
    (comp (ref "R13")
      (value "510")
      (footprint "Resistor_THT:R_Axial_DIN0414_L11.9mm_D4.5mm_P5.08mm_Vertical")
      (libsource (lib "Device") (part "R") (description "Resistor"))
      (property (name "Sheetname") (value ""))
      (property (name "Sheetfile") (value "from_1973_b-ab_class.kicad_sch"))
      (property (name "ki_description") (value "Resistor"))
      (property (name "ki_keywords") (value "R res resistor"))
      (sheetpath (names "/") (tstamps "/"))
      (tstamps "db1467bd-277e-4b15-8645-c5bae3e259c9"))
    (comp (ref "R14")
      (value "100")
      (footprint "Resistor_THT:R_Axial_DIN0414_L11.9mm_D4.5mm_P5.08mm_Vertical")
      (libsource (lib "Device") (part "R") (description "Resistor"))
      (property (name "Sheetname") (value ""))
      (property (name "Sheetfile") (value "from_1973_b-ab_class.kicad_sch"))
      (property (name "ki_description") (value "Resistor"))
      (property (name "ki_keywords") (value "R res resistor"))
      (sheetpath (names "/") (tstamps "/"))
      (tstamps "96b089cb-c9fe-4614-82c5-5c4d603472b3"))
    (comp (ref "R15")
      (value "100")
      (footprint "Resistor_THT:R_Axial_DIN0414_L11.9mm_D4.5mm_P5.08mm_Vertical")
      (libsource (lib "Device") (part "R") (description "Resistor"))
      (property (name "Sheetname") (value ""))
      (property (name "Sheetfile") (value "from_1973_b-ab_class.kicad_sch"))
      (property (name "ki_description") (value "Resistor"))
      (property (name "ki_keywords") (value "R res resistor"))
      (sheetpath (names "/") (tstamps "/"))
      (tstamps "3a67a50a-e705-42e7-a8f6-e1caccd161fe"))
    (comp (ref "R16")
      (value "330")
      (footprint "Resistor_THT:R_Axial_DIN0414_L11.9mm_D4.5mm_P5.08mm_Vertical")
      (libsource (lib "Device") (part "R") (description "Resistor"))
      (property (name "Sheetname") (value ""))
      (property (name "Sheetfile") (value "from_1973_b-ab_class.kicad_sch"))
      (property (name "ki_description") (value "Resistor"))
      (property (name "ki_keywords") (value "R res resistor"))
      (sheetpath (names "/") (tstamps "/"))
      (tstamps "cb2adbe4-4320-48ef-ab80-71c3d787a6c4"))
    (comp (ref "R17")
      (value "820")
      (footprint "Resistor_THT:R_Axial_DIN0617_L17.0mm_D6.0mm_P7.62mm_Vertical")
      (libsource (lib "Device") (part "R") (description "Resistor"))
      (property (name "Sheetname") (value ""))
      (property (name "Sheetfile") (value "from_1973_b-ab_class.kicad_sch"))
      (property (name "ki_description") (value "Resistor"))
      (property (name "ki_keywords") (value "R res resistor"))
      (sheetpath (names "/") (tstamps "/"))
      (tstamps "37768755-8e4d-4818-b0de-0bb703d19efd"))
    (comp (ref "R18")
      (value "330")
      (footprint "Resistor_THT:R_Axial_DIN0414_L11.9mm_D4.5mm_P5.08mm_Vertical")
      (libsource (lib "Device") (part "R") (description "Resistor"))
      (property (name "Sheetname") (value ""))
      (property (name "Sheetfile") (value "from_1973_b-ab_class.kicad_sch"))
      (property (name "ki_description") (value "Resistor"))
      (property (name "ki_keywords") (value "R res resistor"))
      (sheetpath (names "/") (tstamps "/"))
      (tstamps "3054eb4e-e471-4475-9399-7ef160c1a579"))
    (comp (ref "R19")
      (value "820")
      (footprint "Resistor_THT:R_Axial_DIN0414_L11.9mm_D4.5mm_P5.08mm_Vertical")
      (libsource (lib "Device") (part "R") (description "Resistor"))
      (property (name "Sheetname") (value ""))
      (property (name "Sheetfile") (value "from_1973_b-ab_class.kicad_sch"))
      (property (name "ki_description") (value "Resistor"))
      (property (name "ki_keywords") (value "R res resistor"))
      (sheetpath (names "/") (tstamps "/"))
      (tstamps "9bb5b536-282f-4b3a-90bc-aee460e922af"))
    (comp (ref "R20")
      (value "0.2")
      (footprint "Resistor_THT:R_Axial_DIN0414_L11.9mm_D4.5mm_P5.08mm_Vertical")
      (libsource (lib "Device") (part "R") (description "Resistor"))
      (property (name "Sheetname") (value ""))
      (property (name "Sheetfile") (value "from_1973_b-ab_class.kicad_sch"))
      (property (name "ki_description") (value "Resistor"))
      (property (name "ki_keywords") (value "R res resistor"))
      (sheetpath (names "/") (tstamps "/"))
      (tstamps "2c7f715c-fccb-4172-b5f6-137a50614937"))
    (comp (ref "R21")
      (value "0.2")
      (footprint "Resistor_THT:R_Axial_DIN0414_L11.9mm_D4.5mm_P5.08mm_Vertical")
      (libsource (lib "Device") (part "R") (description "Resistor"))
      (property (name "Sheetname") (value ""))
      (property (name "Sheetfile") (value "from_1973_b-ab_class.kicad_sch"))
      (property (name "ki_description") (value "Resistor"))
      (property (name "ki_keywords") (value "R res resistor"))
      (sheetpath (names "/") (tstamps "/"))
      (tstamps "c0588ef9-9ce4-4802-a7a8-730a11538a09")))
  (libparts
    (libpart (lib "Connector_Generic_MountingPin") (part "Conn_01x01_MountingPin")
      (description "Generic connectable mounting pin connector, single row, 01x01, script generated (kicad-library-utils/schlib/autogen/connector/)")
      (docs "~")
      (footprints
        (fp "Connector*:*_1x??-1MP*"))
      (fields
        (field (name "Reference") "J")
        (field (name "Value") "Conn_01x01_MountingPin")
        (field (name "Datasheet") "~"))
      (pins
        (pin (num "1") (name "Pin_1") (type "passive"))
        (pin (num "MP") (name "MountPin") (type "passive"))))
    (libpart (lib "Device") (part "C")
      (description "Unpolarized capacitor")
      (docs "~")
      (footprints
        (fp "C_*"))
      (fields
        (field (name "Reference") "C")
        (field (name "Value") "C")
        (field (name "Datasheet") "~"))
      (pins
        (pin (num "1") (name "") (type "passive"))
        (pin (num "2") (name "") (type "passive"))))
    (libpart (lib "Device") (part "C_Polarized")
      (description "Polarized capacitor")
      (docs "~")
      (footprints
        (fp "CP_*"))
      (fields
        (field (name "Reference") "C")
        (field (name "Value") "C_Polarized")
        (field (name "Datasheet") "~"))
      (pins
        (pin (num "1") (name "") (type "passive"))
        (pin (num "2") (name "") (type "passive"))))
    (libpart (lib "Device") (part "Q_PNP_ECB")
      (description "PNP transistor, emitter/collector/base")
      (docs "~")
      (fields
        (field (name "Reference") "Q")
        (field (name "Value") "Q_PNP_ECB")
        (field (name "Datasheet") "~"))
      (pins
        (pin (num "1") (name "E") (type "passive"))
        (pin (num "2") (name "C") (type "passive"))
        (pin (num "3") (name "B") (type "input"))))
    (libpart (lib "Device") (part "R")
      (description "Resistor")
      (docs "~")
      (footprints
        (fp "R_*"))
      (fields
        (field (name "Reference") "R")
        (field (name "Value") "R")
        (field (name "Datasheet") "~"))
      (pins
        (pin (num "1") (name "") (type "passive"))
        (pin (num "2") (name "") (type "passive"))))
    (libpart (lib "Diode") (part "1N4001")
      (description "50V 1A General Purpose Rectifier Diode, DO-41")
      (docs "http://www.vishay.com/docs/88503/1n4001.pdf")
      (footprints
        (fp "D*DO?41*"))
      (fields
        (field (name "Reference") "D")
        (field (name "Value") "1N4001")
        (field (name "Footprint") "Diode_THT:D_DO-41_SOD81_P10.16mm_Horizontal")
        (field (name "Datasheet") "http://www.vishay.com/docs/88503/1n4001.pdf")
        (field (name "Sim.Device") "D")
        (field (name "Sim.Pins") "1=K 2=A"))
      (pins
        (pin (num "1") (name "K") (type "passive"))
        (pin (num "2") (name "A") (type "passive"))))
    (libpart (lib "Diode") (part "BZX384xxxx")
      (description "300mW Zener Diode, SOD-323")
      (docs "https://www.vishay.com/docs/85764/bzx384.pdf")
      (footprints
        (fp "D*SOD*323*"))
      (fields
        (field (name "Reference") "D")
        (field (name "Value") "BZX384xxxx")
        (field (name "Footprint") "Diode_SMD:D_SOD-323")
        (field (name "Datasheet") "https://www.vishay.com/docs/85764/bzx384.pdf"))
      (pins
        (pin (num "1") (name "K") (type "passive"))
        (pin (num "2") (name "A") (type "passive"))))
    (libpart (lib "Simulation_SPICE") (part "VDC")
      (description "Voltage source, DC")
      (docs "~")
      (fields
        (field (name "Reference") "V")
        (field (name "Value") "VDC")
        (field (name "Datasheet") "~")
        (field (name "Spice_Netlist_Enabled") "Y")
        (field (name "Spice_Primitive") "V")
        (field (name "Spice_Model") "dc(1)"))
      (pins
        (pin (num "1") (name "") (type "passive"))
        (pin (num "2") (name "") (type "passive"))))
    (libpart (lib "Simulation_SPICE") (part "VSIN")
      (description "Voltage source, sinusoidal")
      (docs "~")
      (fields
        (field (name "Reference") "V")
        (field (name "Value") "VSIN")
        (field (name "Datasheet") "~")
        (field (name "Spice_Netlist_Enabled") "Y")
        (field (name "Spice_Primitive") "V")
        (field (name "Spice_Model") "sin(0 1 1k)"))
      (pins
        (pin (num "1") (name "") (type "passive"))
        (pin (num "2") (name "") (type "passive"))))
    (libpart (lib "Transistor_BJT") (part "2SC1815")
      (description "0.15A Ic, 50V Vce, Low Noise Audio NPN Transistor, TO-92")
      (docs "https://media.digikey.com/pdf/Data%20Sheets/Toshiba%20PDFs/2SC1815.pdf")
      (footprints
        (fp "TO?92*"))
      (fields
        (field (name "Reference") "Q")
        (field (name "Value") "2SC1815")
        (field (name "Footprint") "Package_TO_SOT_THT:TO-92_Inline")
        (field (name "Datasheet") "https://media.digikey.com/pdf/Data%20Sheets/Toshiba%20PDFs/2SC1815.pdf"))
      (pins
        (pin (num "1") (name "E") (type "passive"))
        (pin (num "2") (name "C") (type "passive"))
        (pin (num "3") (name "B") (type "input")))))
  (libraries
    (library (logical "Connector_Generic_MountingPin")
      (uri "/app/extensions/Library/symbols//Connector_Generic_MountingPin.kicad_sym"))
    (library (logical "Device")
      (uri "/app/extensions/Library/symbols//Device.kicad_sym"))
    (library (logical "Diode")
      (uri "/app/extensions/Library/symbols//Diode.kicad_sym"))
    (library (logical "Simulation_SPICE")
      (uri "/app/extensions/Library/symbols//Simulation_SPICE.kicad_sym"))
    (library (logical "Transistor_BJT")
      (uri "/app/extensions/Library/symbols//Transistor_BJT.kicad_sym")))
  (nets
    (net (code "1") (name "GND")
      (node (ref "C6") (pin "2") (pintype "passive"))
      (node (ref "D1") (pin "2") (pinfunction "A") (pintype "passive"))
      (node (ref "J10") (pin "1") (pinfunction "Pin_1") (pintype "passive"))
      (node (ref "J12") (pin "1") (pinfunction "Pin_1") (pintype "passive"))
      (node (ref "J2") (pin "1") (pinfunction "Pin_1") (pintype "passive"))
      (node (ref "Q6") (pin "2") (pinfunction "C") (pintype "passive"))
      (node (ref "R12") (pin "1") (pintype "passive"))
      (node (ref "R19") (pin "1") (pintype "passive"))
      (node (ref "R2") (pin "1") (pintype "passive"))
      (node (ref "R5") (pin "1") (pintype "passive"))
      (node (ref "R8") (pin "1") (pintype "passive")))
    (net (code "2") (name "Net-(C1-1-Pad2)")
      (node (ref "C1-1") (pin "2") (pintype "passive"))
      (node (ref "C1-2") (pin "2") (pintype "passive")))
    (net (code "3") (name "Net-(C3-Pad2)")
      (node (ref "C3") (pin "2") (pintype "passive"))
      (node (ref "C5") (pin "1") (pintype "passive"))
      (node (ref "R1") (pin "2") (pintype "passive")))
    (net (code "4") (name "Net-(C8-Pad2)")
      (node (ref "C8") (pin "2") (pintype "passive"))
      (node (ref "R11") (pin "1") (pintype "passive"))
      (node (ref "R12") (pin "2") (pintype "passive"))
      (node (ref "R13") (pin "1") (pintype "passive")))
    (net (code "5") (name "Net-(D1-K)")
      (node (ref "D1") (pin "1") (pinfunction "K") (pintype "passive"))
      (node (ref "Q1") (pin "2") (pinfunction "C") (pintype "passive"))
      (node (ref "R4") (pin "2") (pintype "passive"))
      (node (ref "R7") (pin "2") (pintype "passive"))
      (node (ref "R9") (pin "2") (pintype "passive")))
    (net (code "6") (name "Net-(D2-A)")
      (node (ref "C9") (pin "1") (pintype "passive"))
      (node (ref "D2") (pin "2") (pinfunction "A") (pintype "passive"))
      (node (ref "Q5") (pin "3") (pinfunction "B") (pintype "input"))
      (node (ref "R16") (pin "1") (pintype "passive"))
      (node (ref "R17") (pin "2") (pintype "passive")))
    (net (code "7") (name "Net-(D2-K)")
      (node (ref "D2") (pin "1") (pinfunction "K") (pintype "passive"))
      (node (ref "Q5") (pin "1") (pinfunction "E") (pintype "passive"))
      (node (ref "R20") (pin "1") (pintype "passive")))
    (net (code "8") (name "Net-(D3-A)")
      (node (ref "C10") (pin "1") (pintype "passive"))
      (node (ref "D3") (pin "2") (pinfunction "A") (pintype "passive"))
      (node (ref "Q6") (pin "3") (pinfunction "B") (pintype "input"))
      (node (ref "R18") (pin "1") (pintype "passive"))
      (node (ref "R19") (pin "2") (pintype "passive")))
    (net (code "9") (name "Net-(D3-K)")
      (node (ref "D3") (pin "1") (pinfunction "K") (pintype "passive"))
      (node (ref "Q6") (pin "1") (pinfunction "E") (pintype "passive"))
      (node (ref "R21") (pin "1") (pintype "passive")))
    (net (code "10") (name "Net-(J1-Pin_1)")
      (node (ref "C1-1") (pin "1") (pintype "passive"))
      (node (ref "C4") (pin "1") (pintype "passive"))
      (node (ref "J1") (pin "1") (pinfunction "Pin_1") (pintype "passive")))
    (net (code "11") (name "Net-(J3-Pin_1)")
      (node (ref "C1") (pin "1") (pintype "passive"))
      (node (ref "J3") (pin "1") (pinfunction "Pin_1") (pintype "passive"))
      (node (ref "R1") (pin "1") (pintype "passive")))
    (net (code "12") (name "Net-(J4-Pin_1)")
      (node (ref "C1") (pin "2") (pintype "passive"))
      (node (ref "C2") (pin "2") (pintype "passive"))
      (node (ref "J4") (pin "1") (pinfunction "Pin_1") (pintype "passive"))
      (node (ref "R3") (pin "2") (pintype "passive")))
    (net (code "13") (name "Net-(J5-Pin_1)")
      (node (ref "C2") (pin "1") (pintype "passive"))
      (node (ref "J5") (pin "1") (pinfunction "Pin_1") (pintype "passive"))
      (node (ref "R2") (pin "2") (pintype "passive")))
    (net (code "14") (name "Net-(J6-Pin_1)")
      (node (ref "C5") (pin "2") (pintype "passive"))
      (node (ref "J6") (pin "1") (pinfunction "Pin_1") (pintype "passive")))
    (net (code "15") (name "Net-(J7-Pin_1)")
      (node (ref "C6") (pin "1") (pintype "passive"))
      (node (ref "J7") (pin "1") (pinfunction "Pin_1") (pintype "passive")))
    (net (code "16") (name "Net-(J8-Pin_1)")
      (node (ref "C7") (pin "2") (pintype "passive"))
      (node (ref "J8") (pin "1") (pinfunction "Pin_1") (pintype "passive"))
      (node (ref "R3") (pin "1") (pintype "passive")))
    (net (code "17") (name "Net-(J9-Pin_1)")
      (node (ref "C11") (pin "2") (pintype "passive"))
      (node (ref "J9") (pin "1") (pinfunction "Pin_1") (pintype "passive"))
      (node (ref "R13") (pin "2") (pintype "passive"))
      (node (ref "R15") (pin "1") (pintype "passive")))
    (net (code "18") (name "Net-(J11-Pin_1)")
      (node (ref "J11") (pin "1") (pinfunction "Pin_1") (pintype "passive"))
      (node (ref "R10") (pin "2") (pintype "passive"))
      (node (ref "R14") (pin "2") (pintype "passive"))
      (node (ref "R16") (pin "2") (pintype "passive"))
      (node (ref "R20") (pin "2") (pintype "passive"))
      (node (ref "R9") (pin "1") (pintype "passive")))
    (net (code "19") (name "Net-(Q1-B)")
      (node (ref "C1-2") (pin "1") (pintype "passive"))
      (node (ref "C4") (pin "2") (pintype "passive"))
      (node (ref "Q1") (pin "3") (pinfunction "B") (pintype "input"))
      (node (ref "R4") (pin "1") (pintype "passive")))
    (net (code "20") (name "Net-(Q1-E)")
      (node (ref "C3") (pin "1") (pintype "passive"))
      (node (ref "Q1") (pin "1") (pinfunction "E") (pintype "passive"))
      (node (ref "R5") (pin "2") (pintype "passive")))
    (net (code "21") (name "Net-(Q2-B)")
      (node (ref "C7") (pin "1") (pintype "passive"))
      (node (ref "Q2") (pin "3") (pinfunction "B") (pintype "input"))
      (node (ref "R6") (pin "1") (pintype "passive")))
    (net (code "22") (name "Net-(Q2-C)")
      (node (ref "Q2") (pin "2") (pinfunction "C") (pintype "passive"))
      (node (ref "Q3") (pin "3") (pinfunction "B") (pintype "input"))
      (node (ref "R6") (pin "2") (pintype "passive"))
      (node (ref "R7") (pin "1") (pintype "passive")))
    (net (code "23") (name "Net-(Q2-E)")
      (node (ref "Q2") (pin "1") (pinfunction "E") (pintype "passive"))
      (node (ref "R8") (pin "2") (pintype "passive")))
    (net (code "24") (name "Net-(Q3-C)")
      (node (ref "Q3") (pin "2") (pinfunction "C") (pintype "passive"))
      (node (ref "Q4") (pin "3") (pinfunction "B") (pintype "input"))
      (node (ref "R10") (pin "1") (pintype "passive")))
    (net (code "25") (name "Net-(Q3-E)")
      (node (ref "C8") (pin "1") (pintype "passive"))
      (node (ref "Q3") (pin "1") (pinfunction "E") (pintype "passive"))
      (node (ref "R11") (pin "2") (pintype "passive")))
    (net (code "26") (name "Net-(Q4-C)")
      (node (ref "C10") (pin "2") (pintype "passive"))
      (node (ref "Q4") (pin "2") (pinfunction "C") (pintype "passive"))
      (node (ref "R15") (pin "2") (pintype "passive")))
    (net (code "27") (name "Net-(Q4-E)")
      (node (ref "C9") (pin "2") (pintype "passive"))
      (node (ref "Q4") (pin "1") (pinfunction "E") (pintype "passive"))
      (node (ref "R14") (pin "1") (pintype "passive")))
    (net (code "28") (name "Net-(Q5-C)")
      (node (ref "C11") (pin "1") (pintype "passive"))
      (node (ref "Q5") (pin "2") (pinfunction "C") (pintype "passive"))
      (node (ref "R17") (pin "1") (pintype "passive"))
      (node (ref "R18") (pin "2") (pintype "passive"))
      (node (ref "R21") (pin "2") (pintype "passive")))
    (net (code "29") (name "unconnected-(J1-MountPin-PadMP)")
      (node (ref "J1") (pin "MP") (pinfunction "MountPin") (pintype "passive")))
    (net (code "30") (name "unconnected-(J2-MountPin-PadMP)")
      (node (ref "J2") (pin "MP") (pinfunction "MountPin") (pintype "passive")))
    (net (code "31") (name "unconnected-(J3-MountPin-PadMP)")
      (node (ref "J3") (pin "MP") (pinfunction "MountPin") (pintype "passive")))
    (net (code "32") (name "unconnected-(J4-MountPin-PadMP)")
      (node (ref "J4") (pin "MP") (pinfunction "MountPin") (pintype "passive")))
    (net (code "33") (name "unconnected-(J5-MountPin-PadMP)")
      (node (ref "J5") (pin "MP") (pinfunction "MountPin") (pintype "passive")))
    (net (code "34") (name "unconnected-(J6-MountPin-PadMP)")
      (node (ref "J6") (pin "MP") (pinfunction "MountPin") (pintype "passive")))
    (net (code "35") (name "unconnected-(J7-MountPin-PadMP)")
      (node (ref "J7") (pin "MP") (pinfunction "MountPin") (pintype "passive")))
    (net (code "36") (name "unconnected-(J8-MountPin-PadMP)")
      (node (ref "J8") (pin "MP") (pinfunction "MountPin") (pintype "passive")))
    (net (code "37") (name "unconnected-(J9-MountPin-PadMP)")
      (node (ref "J9") (pin "MP") (pinfunction "MountPin") (pintype "passive")))
    (net (code "38") (name "unconnected-(J10-MountPin-PadMP)")
      (node (ref "J10") (pin "MP") (pinfunction "MountPin") (pintype "passive")))
    (net (code "39") (name "unconnected-(J11-MountPin-PadMP)")
      (node (ref "J11") (pin "MP") (pinfunction "MountPin") (pintype "passive")))
    (net (code "40") (name "unconnected-(J12-MountPin-PadMP)")
      (node (ref "J12") (pin "MP") (pinfunction "MountPin") (pintype "passive")))))