(kicad_sch (version 20230121) (generator eeschema)

  (uuid cefae286-dde6-44ae-8b1c-fe027df923e4)

  (paper "A4")

  (lib_symbols
    (symbol "Device:C_Polarized" (pin_numbers hide) (pin_names (offset 0.254)) (in_bom yes) (on_board yes)
      (property "Reference" "C" (at 0.635 2.54 0)
        (effects (font (size 1.27 1.27)) (justify left))
      )
      (property "Value" "C_Polarized" (at 0.635 -2.54 0)
        (effects (font (size 1.27 1.27)) (justify left))
      )
      (property "Footprint" "" (at 0.9652 -3.81 0)
        (effects (font (size 1.27 1.27)) hide)
      )
      (property "Datasheet" "~" (at 0 0 0)
        (effects (font (size 1.27 1.27)) hide)
      )
      (property "ki_keywords" "cap capacitor" (at 0 0 0)
        (effects (font (size 1.27 1.27)) hide)
      )
      (property "ki_description" "Polarized capacitor" (at 0 0 0)
        (effects (font (size 1.27 1.27)) hide)
      )
      (property "ki_fp_filters" "CP_*" (at 0 0 0)
        (effects (font (size 1.27 1.27)) hide)
      )
      (symbol "C_Polarized_0_1"
        (rectangle (start -2.286 0.508) (end 2.286 1.016)
          (stroke (width 0) (type default))
          (fill (type none))
        )
        (polyline
          (pts
            (xy -1.778 2.286)
            (xy -0.762 2.286)
          )
          (stroke (width 0) (type default))
          (fill (type none))
        )
        (polyline
          (pts
            (xy -1.27 2.794)
            (xy -1.27 1.778)
          )
          (stroke (width 0) (type default))
          (fill (type none))
        )
        (rectangle (start 2.286 -0.508) (end -2.286 -1.016)
          (stroke (width 0) (type default))
          (fill (type outline))
        )
      )
      (symbol "C_Polarized_1_1"
        (pin passive line (at 0 3.81 270) (length 2.794)
          (name "~" (effects (font (size 1.27 1.27))))
          (number "1" (effects (font (size 1.27 1.27))))
        )
        (pin passive line (at 0 -3.81 90) (length 2.794)
          (name "~" (effects (font (size 1.27 1.27))))
          (number "2" (effects (font (size 1.27 1.27))))
        )
      )
    )
    (symbol "Device:R" (pin_numbers hide) (pin_names (offset 0)) (in_bom yes) (on_board yes)
      (property "Reference" "R" (at 2.032 0 90)
        (effects (font (size 1.27 1.27)))
      )
      (property "Value" "R" (at 0 0 90)
        (effects (font (size 1.27 1.27)))
      )
      (property "Footprint" "" (at -1.778 0 90)
        (effects (font (size 1.27 1.27)) hide)
      )
      (property "Datasheet" "~" (at 0 0 0)
        (effects (font (size 1.27 1.27)) hide)
      )
      (property "ki_keywords" "R res resistor" (at 0 0 0)
        (effects (font (size 1.27 1.27)) hide)
      )
      (property "ki_description" "Resistor" (at 0 0 0)
        (effects (font (size 1.27 1.27)) hide)
      )
      (property "ki_fp_filters" "R_*" (at 0 0 0)
        (effects (font (size 1.27 1.27)) hide)
      )
      (symbol "R_0_1"
        (rectangle (start -1.016 -2.54) (end 1.016 2.54)
          (stroke (width 0.254) (type default))
          (fill (type none))
        )
      )
      (symbol "R_1_1"
        (pin passive line (at 0 3.81 270) (length 1.27)
          (name "~" (effects (font (size 1.27 1.27))))
          (number "1" (effects (font (size 1.27 1.27))))
        )
        (pin passive line (at 0 -3.81 90) (length 1.27)
          (name "~" (effects (font (size 1.27 1.27))))
          (number "2" (effects (font (size 1.27 1.27))))
        )
      )
    )
    (symbol "Simulation_SPICE:VDC" (pin_numbers hide) (pin_names (offset 0.0254)) (in_bom yes) (on_board yes)
      (property "Reference" "V" (at 2.54 2.54 0)
        (effects (font (size 1.27 1.27)) (justify left))
      )
      (property "Value" "VDC" (at 2.54 0 0)
        (effects (font (size 1.27 1.27)) (justify left))
      )
      (property "Footprint" "" (at 0 0 0)
        (effects (font (size 1.27 1.27)) hide)
      )
      (property "Datasheet" "~" (at 0 0 0)
        (effects (font (size 1.27 1.27)) hide)
      )
      (property "Spice_Netlist_Enabled" "Y" (at 0 0 0)
        (effects (font (size 1.27 1.27)) (justify left) hide)
      )
      (property "Spice_Primitive" "V" (at 0 0 0)
        (effects (font (size 1.27 1.27)) (justify left) hide)
      )
      (property "Spice_Model" "dc(1)" (at 2.54 -2.54 0)
        (effects (font (size 1.27 1.27)) (justify left))
      )
      (property "ki_keywords" "simulation" (at 0 0 0)
        (effects (font (size 1.27 1.27)) hide)
      )
      (property "ki_description" "Voltage source, DC" (at 0 0 0)
        (effects (font (size 1.27 1.27)) hide)
      )
      (symbol "VDC_0_0"
        (polyline
          (pts
            (xy -1.27 0.254)
            (xy 1.27 0.254)
          )
          (stroke (width 0) (type default))
          (fill (type none))
        )
        (polyline
          (pts
            (xy -0.762 -0.254)
            (xy -1.27 -0.254)
          )
          (stroke (width 0) (type default))
          (fill (type none))
        )
        (polyline
          (pts
            (xy 0.254 -0.254)
            (xy -0.254 -0.254)
          )
          (stroke (width 0) (type default))
          (fill (type none))
        )
        (polyline
          (pts
            (xy 1.27 -0.254)
            (xy 0.762 -0.254)
          )
          (stroke (width 0) (type default))
          (fill (type none))
        )
        (text "+" (at 0 1.905 0)
          (effects (font (size 1.27 1.27)))
        )
      )
      (symbol "VDC_0_1"
        (circle (center 0 0) (radius 2.54)
          (stroke (width 0.254) (type default))
          (fill (type background))
        )
      )
      (symbol "VDC_1_1"
        (pin passive line (at 0 5.08 270) (length 2.54)
          (name "~" (effects (font (size 1.27 1.27))))
          (number "1" (effects (font (size 1.27 1.27))))
        )
        (pin passive line (at 0 -5.08 90) (length 2.54)
          (name "~" (effects (font (size 1.27 1.27))))
          (number "2" (effects (font (size 1.27 1.27))))
        )
      )
    )
    (symbol "Simulation_SPICE:VSIN" (pin_numbers hide) (pin_names (offset 0.0254)) (in_bom yes) (on_board yes)
      (property "Reference" "V" (at 2.54 2.54 0)
        (effects (font (size 1.27 1.27)) (justify left))
      )
      (property "Value" "VSIN" (at 2.54 0 0)
        (effects (font (size 1.27 1.27)) (justify left))
      )
      (property "Footprint" "" (at 0 0 0)
        (effects (font (size 1.27 1.27)) hide)
      )
      (property "Datasheet" "~" (at 0 0 0)
        (effects (font (size 1.27 1.27)) hide)
      )
      (property "Spice_Netlist_Enabled" "Y" (at 0 0 0)
        (effects (font (size 1.27 1.27)) (justify left) hide)
      )
      (property "Spice_Primitive" "V" (at 0 0 0)
        (effects (font (size 1.27 1.27)) (justify left) hide)
      )
      (property "Spice_Model" "sin(0 1 1k)" (at 2.54 -2.54 0)
        (effects (font (size 1.27 1.27)) (justify left))
      )
      (property "ki_keywords" "simulation" (at 0 0 0)
        (effects (font (size 1.27 1.27)) hide)
      )
      (property "ki_description" "Voltage source, sinusoidal" (at 0 0 0)
        (effects (font (size 1.27 1.27)) hide)
      )
      (symbol "VSIN_0_0"
        (arc (start 0 0) (mid -0.635 0.6323) (end -1.27 0)
          (stroke (width 0) (type default))
          (fill (type none))
        )
        (arc (start 0 0) (mid 0.635 -0.6323) (end 1.27 0)
          (stroke (width 0) (type default))
          (fill (type none))
        )
        (text "+" (at 0 1.905 0)
          (effects (font (size 1.27 1.27)))
        )
      )
      (symbol "VSIN_0_1"
        (circle (center 0 0) (radius 2.54)
          (stroke (width 0.254) (type default))
          (fill (type background))
        )
      )
      (symbol "VSIN_1_1"
        (pin passive line (at 0 5.08 270) (length 2.54)
          (name "~" (effects (font (size 1.27 1.27))))
          (number "1" (effects (font (size 1.27 1.27))))
        )
        (pin passive line (at 0 -5.08 90) (length 2.54)
          (name "~" (effects (font (size 1.27 1.27))))
          (number "2" (effects (font (size 1.27 1.27))))
        )
      )
    )
    (symbol "Transistor_BJT:2SA1015" (pin_names (offset 0) hide) (in_bom yes) (on_board yes)
      (property "Reference" "Q" (at 5.08 1.905 0)
        (effects (font (size 1.27 1.27)) (justify left))
      )
      (property "Value" "2SA1015" (at 5.08 0 0)
        (effects (font (size 1.27 1.27)) (justify left))
      )
      (property "Footprint" "Package_TO_SOT_THT:TO-92_Inline" (at 5.08 -1.905 0)
        (effects (font (size 1.27 1.27) italic) (justify left) hide)
      )
      (property "Datasheet" "http://www.datasheetcatalog.org/datasheet/toshiba/905.pdf" (at 0 0 0)
        (effects (font (size 1.27 1.27)) (justify left) hide)
      )
      (property "ki_keywords" "Low Noise Audio PNP Transistor" (at 0 0 0)
        (effects (font (size 1.27 1.27)) hide)
      )
      (property "ki_description" "-0.15A Ic, -50V Vce, Low Noise Audio PNP Transistor, TO-92" (at 0 0 0)
        (effects (font (size 1.27 1.27)) hide)
      )
      (property "ki_fp_filters" "TO?92*" (at 0 0 0)
        (effects (font (size 1.27 1.27)) hide)
      )
      (symbol "2SA1015_0_1"
        (polyline
          (pts
            (xy 0 0)
            (xy 0.635 0)
          )
          (stroke (width 0) (type default))
          (fill (type none))
        )
        (polyline
          (pts
            (xy 2.54 -2.54)
            (xy 0.635 -0.635)
          )
          (stroke (width 0) (type default))
          (fill (type none))
        )
        (polyline
          (pts
            (xy 2.54 2.54)
            (xy 0.635 0.635)
          )
          (stroke (width 0) (type default))
          (fill (type none))
        )
        (polyline
          (pts
            (xy 0.635 1.905)
            (xy 0.635 -1.905)
            (xy 0.635 -1.905)
          )
          (stroke (width 0.508) (type default))
          (fill (type outline))
        )
        (polyline
          (pts
            (xy 1.778 -2.286)
            (xy 2.286 -1.778)
            (xy 1.27 -1.27)
            (xy 1.778 -2.286)
            (xy 1.778 -2.286)
          )
          (stroke (width 0) (type default))
          (fill (type outline))
        )
        (circle (center 1.27 0) (radius 2.8194)
          (stroke (width 0.254) (type default))
          (fill (type none))
        )
      )
      (symbol "2SA1015_1_1"
        (pin passive line (at 2.54 -5.08 90) (length 2.54)
          (name "E" (effects (font (size 1.27 1.27))))
          (number "1" (effects (font (size 1.27 1.27))))
        )
        (pin passive line (at 2.54 5.08 270) (length 2.54)
          (name "C" (effects (font (size 1.27 1.27))))
          (number "2" (effects (font (size 1.27 1.27))))
        )
        (pin input line (at -5.08 0 0) (length 5.08)
          (name "B" (effects (font (size 1.27 1.27))))
          (number "3" (effects (font (size 1.27 1.27))))
        )
      )
    )
    (symbol "Transistor_BJT:2SC1815" (pin_names (offset 0) hide) (in_bom yes) (on_board yes)
      (property "Reference" "Q" (at 5.08 1.905 0)
        (effects (font (size 1.27 1.27)) (justify left))
      )
      (property "Value" "2SC1815" (at 5.08 0 0)
        (effects (font (size 1.27 1.27)) (justify left))
      )
      (property "Footprint" "Package_TO_SOT_THT:TO-92_Inline" (at 5.08 -1.905 0)
        (effects (font (size 1.27 1.27) italic) (justify left) hide)
      )
      (property "Datasheet" "https://media.digikey.com/pdf/Data%20Sheets/Toshiba%20PDFs/2SC1815.pdf" (at 0 0 0)
        (effects (font (size 1.27 1.27)) (justify left) hide)
      )
      (property "ki_keywords" "Low Noise Audio NPN Transistor" (at 0 0 0)
        (effects (font (size 1.27 1.27)) hide)
      )
      (property "ki_description" "0.15A Ic, 50V Vce, Low Noise Audio NPN Transistor, TO-92" (at 0 0 0)
        (effects (font (size 1.27 1.27)) hide)
      )
      (property "ki_fp_filters" "TO?92*" (at 0 0 0)
        (effects (font (size 1.27 1.27)) hide)
      )
      (symbol "2SC1815_0_1"
        (polyline
          (pts
            (xy 0 0)
            (xy 0.508 0)
          )
          (stroke (width 0) (type default))
          (fill (type none))
        )
        (polyline
          (pts
            (xy 0.635 0.635)
            (xy 2.54 2.54)
          )
          (stroke (width 0) (type default))
          (fill (type none))
        )
        (polyline
          (pts
            (xy 0.635 -0.635)
            (xy 2.54 -2.54)
            (xy 2.54 -2.54)
          )
          (stroke (width 0) (type default))
          (fill (type none))
        )
        (polyline
          (pts
            (xy 0.635 1.905)
            (xy 0.635 -1.905)
            (xy 0.635 -1.905)
          )
          (stroke (width 0.508) (type default))
          (fill (type none))
        )
        (polyline
          (pts
            (xy 1.27 -1.778)
            (xy 1.778 -1.27)
            (xy 2.286 -2.286)
            (xy 1.27 -1.778)
            (xy 1.27 -1.778)
          )
          (stroke (width 0) (type default))
          (fill (type outline))
        )
        (circle (center 1.27 0) (radius 2.8194)
          (stroke (width 0.254) (type default))
          (fill (type none))
        )
      )
      (symbol "2SC1815_1_1"
        (pin passive line (at 2.54 -5.08 90) (length 2.54)
          (name "E" (effects (font (size 1.27 1.27))))
          (number "1" (effects (font (size 1.27 1.27))))
        )
        (pin passive line (at 2.54 5.08 270) (length 2.54)
          (name "C" (effects (font (size 1.27 1.27))))
          (number "2" (effects (font (size 1.27 1.27))))
        )
        (pin input line (at -5.08 0 0) (length 5.08)
          (name "B" (effects (font (size 1.27 1.27))))
          (number "3" (effects (font (size 1.27 1.27))))
        )
      )
    )
    (symbol "power:GND" (power) (pin_names (offset 0)) (in_bom yes) (on_board yes)
      (property "Reference" "#PWR" (at 0 -6.35 0)
        (effects (font (size 1.27 1.27)) hide)
      )
      (property "Value" "GND" (at 0 -3.81 0)
        (effects (font (size 1.27 1.27)))
      )
      (property "Footprint" "" (at 0 0 0)
        (effects (font (size 1.27 1.27)) hide)
      )
      (property "Datasheet" "" (at 0 0 0)
        (effects (font (size 1.27 1.27)) hide)
      )
      (property "ki_keywords" "power-flag" (at 0 0 0)
        (effects (font (size 1.27 1.27)) hide)
      )
      (property "ki_description" "Power symbol creates a global label with name \"GND\" , ground" (at 0 0 0)
        (effects (font (size 1.27 1.27)) hide)
      )
      (symbol "GND_0_1"
        (polyline
          (pts
            (xy 0 0)
            (xy 0 -1.27)
            (xy 1.27 -1.27)
            (xy 0 -2.54)
            (xy -1.27 -1.27)
            (xy 0 -1.27)
          )
          (stroke (width 0) (type default))
          (fill (type none))
        )
      )
      (symbol "GND_1_1"
        (pin power_in line (at 0 0 270) (length 0) hide
          (name "GND" (effects (font (size 1.27 1.27))))
          (number "1" (effects (font (size 1.27 1.27))))
        )
      )
    )
  )

  (junction (at 129.54 124.46) (diameter 0) (color 0 0 0 0)
    (uuid 00eb4f2f-b225-4866-8eb4-526cd0e1b692)
  )
  (junction (at 179.07 124.46) (diameter 0) (color 0 0 0 0)
    (uuid 02b53096-058f-4891-a52a-fe7cd7dc4024)
  )
  (junction (at 152.4 124.46) (diameter 0) (color 0 0 0 0)
    (uuid 05699de4-b7ac-499b-af3e-659937ee14c3)
  )
  (junction (at 129.54 91.44) (diameter 0) (color 0 0 0 0)
    (uuid 170d22bc-df1d-4573-9c83-e74bb8670c74)
  )
  (junction (at 140.97 111.76) (diameter 0) (color 0 0 0 0)
    (uuid 222a0083-07a1-4094-b24f-011c4d4da624)
  )
  (junction (at 81.28 137.16) (diameter 0) (color 0 0 0 0)
    (uuid 23d9a163-eec5-4de2-ab44-9fbcbfddde45)
  )
  (junction (at 88.9 111.76) (diameter 0) (color 0 0 0 0)
    (uuid 2bed204b-79de-4b37-ab8b-527ccca9cac2)
  )
  (junction (at 104.14 106.68) (diameter 0) (color 0 0 0 0)
    (uuid 329700e8-adcd-4d82-872d-44078051081a)
  )
  (junction (at 167.64 95.25) (diameter 0) (color 0 0 0 0)
    (uuid 33afb479-1fba-445a-ad0e-045bcae4dca1)
  )
  (junction (at 140.97 101.6) (diameter 0) (color 0 0 0 0)
    (uuid 341b7325-231c-4fd2-91b0-d163a97f267b)
  )
  (junction (at 81.28 125.73) (diameter 0) (color 0 0 0 0)
    (uuid 394680d1-b477-4628-bbcf-396a268dad23)
  )
  (junction (at 167.64 109.22) (diameter 0) (color 0 0 0 0)
    (uuid 4e22f53b-2e56-4699-a46d-3ec32087cdeb)
  )
  (junction (at 179.07 109.22) (diameter 0) (color 0 0 0 0)
    (uuid 4fa32e2a-3e28-4706-b621-94684b3449de)
  )
  (junction (at 152.4 66.04) (diameter 0) (color 0 0 0 0)
    (uuid 59cd9253-41c3-4420-9b48-d38f2eccee78)
  )
  (junction (at 80.01 104.14) (diameter 0) (color 0 0 0 0)
    (uuid 5ab12114-e026-4fc4-b492-d9debf913bf6)
  )
  (junction (at 129.54 106.68) (diameter 0) (color 0 0 0 0)
    (uuid 5d25b794-7222-4218-bdff-f1105e36625d)
  )
  (junction (at 190.5 66.04) (diameter 0) (color 0 0 0 0)
    (uuid 6007d953-13ba-479a-9d7c-48a236da11bf)
  )
  (junction (at 190.5 124.46) (diameter 0) (color 0 0 0 0)
    (uuid 607d5c57-f2d3-461d-8c5a-456ef1d71c24)
  )
  (junction (at 88.9 125.73) (diameter 0) (color 0 0 0 0)
    (uuid 6b77746c-483c-45e1-ab9c-d199de443ac6)
  )
  (junction (at 129.54 66.04) (diameter 0) (color 0 0 0 0)
    (uuid 846673a3-8d22-4c64-94ce-84cf21de1677)
  )
  (junction (at 140.97 77.47) (diameter 0) (color 0 0 0 0)
    (uuid 8e138161-ba15-4481-9a35-38bd8672aa70)
  )
  (junction (at 111.76 95.25) (diameter 0) (color 0 0 0 0)
    (uuid 90461ce4-d41e-43de-b65d-941a7f267d9f)
  )
  (junction (at 152.4 95.25) (diameter 0) (color 0 0 0 0)
    (uuid 93c97fd6-6374-40d4-aa89-45638aababc1)
  )
  (junction (at 129.54 77.47) (diameter 0) (color 0 0 0 0)
    (uuid 95979390-35f2-45e1-8879-dd074b71938a)
  )
  (junction (at 152.4 83.82) (diameter 0) (color 0 0 0 0)
    (uuid a0c07412-f586-4598-8799-5ced2bef54e9)
  )
  (junction (at 104.14 101.6) (diameter 0) (color 0 0 0 0)
    (uuid a88457f7-fce8-475b-adbe-85c464637306)
  )
  (junction (at 200.66 124.46) (diameter 0) (color 0 0 0 0)
    (uuid ba3933fa-877d-4e63-b048-a22dbc34a0f1)
  )
  (junction (at 88.9 137.16) (diameter 0) (color 0 0 0 0)
    (uuid caf1d17f-452a-4e8d-9e62-ca811af96a31)
  )
  (junction (at 190.5 95.25) (diameter 0) (color 0 0 0 0)
    (uuid d4b0fe7d-8318-4d39-b544-3271848a0f92)
  )
  (junction (at 104.14 137.16) (diameter 0) (color 0 0 0 0)
    (uuid e01511d4-8940-4aa1-8b72-6d3ec6cb1948)
  )
  (junction (at 88.9 95.25) (diameter 0) (color 0 0 0 0)
    (uuid f61ffe6d-5af5-4e03-836f-36209ce3ef05)
  )
  (junction (at 140.97 124.46) (diameter 0) (color 0 0 0 0)
    (uuid f9bc35d0-03ca-485c-81ea-87cdafc4e7c0)
  )
  (junction (at 104.14 66.04) (diameter 0) (color 0 0 0 0)
    (uuid fc817f81-5177-4ffe-a754-4e0f1d849221)
  )

  (wire (pts (xy 148.59 91.44) (xy 129.54 91.44))
    (stroke (width 0) (type default))
    (uuid 00de2f3b-1d70-40f5-9b1e-1b7946259821)
  )
  (wire (pts (xy 95.25 95.25) (xy 88.9 95.25))
    (stroke (width 0) (type default))
    (uuid 010fa48c-3c44-4c0f-a00c-ca755d738c04)
  )
  (wire (pts (xy 200.66 124.46) (xy 190.5 124.46))
    (stroke (width 0) (type default))
    (uuid 0bdc6ab8-15ea-4671-ba49-40e8a60c6706)
  )
  (wire (pts (xy 111.76 106.68) (xy 129.54 106.68))
    (stroke (width 0) (type default))
    (uuid 1055f94a-1bb5-4d2b-9d5d-11188fc2dfdc)
  )
  (wire (pts (xy 60.96 121.92) (xy 60.96 137.16))
    (stroke (width 0) (type default))
    (uuid 1480656d-8300-46cc-98bb-bb26e58700b5)
  )
  (wire (pts (xy 104.14 121.92) (xy 104.14 137.16))
    (stroke (width 0) (type default))
    (uuid 1704c551-1de3-458f-a772-393763f560bb)
  )
  (wire (pts (xy 152.4 120.65) (xy 152.4 124.46))
    (stroke (width 0) (type default))
    (uuid 191cf116-82e4-47d0-b70f-3edb431adf1d)
  )
  (wire (pts (xy 152.4 95.25) (xy 148.59 95.25))
    (stroke (width 0) (type default))
    (uuid 1bab0a9b-1b22-49c8-9380-2140819be347)
  )
  (wire (pts (xy 111.76 91.44) (xy 111.76 95.25))
    (stroke (width 0) (type default))
    (uuid 1f2d4476-d1b2-4de1-b52f-c49a6541bc58)
  )
  (wire (pts (xy 140.97 120.65) (xy 140.97 124.46))
    (stroke (width 0) (type default))
    (uuid 1fbaf936-faea-4dea-916b-0e454c006e28)
  )
  (wire (pts (xy 120.65 139.7) (xy 163.83 139.7))
    (stroke (width 0) (type default))
    (uuid 20930b8e-d755-447a-8cb1-b7944f010e93)
  )
  (wire (pts (xy 104.14 137.16) (xy 104.14 138.43))
    (stroke (width 0) (type default))
    (uuid 22997c85-f75f-4ddb-be14-917cfddad9a5)
  )
  (wire (pts (xy 154.94 110.49) (xy 154.94 105.41))
    (stroke (width 0) (type default))
    (uuid 22cda4ff-c36c-47c3-9b9c-82f1e30ba015)
  )
  (wire (pts (xy 179.07 109.22) (xy 179.07 101.6))
    (stroke (width 0) (type default))
    (uuid 24dba03b-85bc-47a2-8c34-2000b9768f3c)
  )
  (wire (pts (xy 95.25 106.68) (xy 96.52 106.68))
    (stroke (width 0) (type default))
    (uuid 24f31ee4-66ee-458b-9e96-aa2a3876db19)
  )
  (wire (pts (xy 120.65 110.49) (xy 120.65 139.7))
    (stroke (width 0) (type default))
    (uuid 2593e9ed-59c7-4ed0-a4af-2f5698aebed1)
  )
  (wire (pts (xy 148.59 111.76) (xy 140.97 111.76))
    (stroke (width 0) (type default))
    (uuid 25cfde14-8cee-4358-a771-607560512753)
  )
  (wire (pts (xy 129.54 88.9) (xy 129.54 91.44))
    (stroke (width 0) (type default))
    (uuid 296681b6-f2bf-4e90-8190-888e7d4de388)
  )
  (wire (pts (xy 95.25 106.68) (xy 95.25 95.25))
    (stroke (width 0) (type default))
    (uuid 29e3dfd9-1c68-4a53-821c-9deefdd23dfe)
  )
  (wire (pts (xy 104.14 137.16) (xy 88.9 137.16))
    (stroke (width 0) (type default))
    (uuid 2aed4f5e-60ce-42d6-a9c0-6c4cdd5aabf3)
  )
  (wire (pts (xy 167.64 105.41) (xy 167.64 109.22))
    (stroke (width 0) (type default))
    (uuid 2c128e10-9030-48ec-b6cd-4d9c3a1d9b2b)
  )
  (wire (pts (xy 129.54 77.47) (xy 133.35 77.47))
    (stroke (width 0) (type default))
    (uuid 2d0b270e-fda4-494c-a4dc-4c65c8beff5e)
  )
  (wire (pts (xy 148.59 95.25) (xy 148.59 91.44))
    (stroke (width 0) (type default))
    (uuid 2e3468bd-436a-4dca-9602-ee1e27e94679)
  )
  (wire (pts (xy 104.14 106.68) (xy 104.14 114.3))
    (stroke (width 0) (type default))
    (uuid 2f0b5216-0c06-41db-bcab-ac4717a758fb)
  )
  (wire (pts (xy 129.54 74.93) (xy 129.54 77.47))
    (stroke (width 0) (type default))
    (uuid 31959367-9c5f-41ef-884d-88d214cc6a69)
  )
  (wire (pts (xy 163.83 113.03) (xy 152.4 113.03))
    (stroke (width 0) (type default))
    (uuid 3c19876a-e73e-4991-80c3-d44f4c76d64a)
  )
  (wire (pts (xy 214.63 99.06) (xy 214.63 124.46))
    (stroke (width 0) (type default))
    (uuid 3cf0553c-71ad-4bd9-b157-711fdfd205ca)
  )
  (wire (pts (xy 179.07 77.47) (xy 179.07 83.82))
    (stroke (width 0) (type default))
    (uuid 3f86df4c-820b-4e56-8fcb-cedc2c5e3a62)
  )
  (wire (pts (xy 129.54 77.47) (xy 129.54 81.28))
    (stroke (width 0) (type default))
    (uuid 44bd17dc-2928-47a7-bf9b-8ea79fdccc21)
  )
  (wire (pts (xy 190.5 118.11) (xy 190.5 124.46))
    (stroke (width 0) (type default))
    (uuid 48d03c50-f71c-4c56-bde3-a347a95f97d8)
  )
  (wire (pts (xy 190.5 124.46) (xy 179.07 124.46))
    (stroke (width 0) (type default))
    (uuid 4a394eee-395d-400f-9002-0eb9fd0435c1)
  )
  (wire (pts (xy 88.9 125.73) (xy 88.9 129.54))
    (stroke (width 0) (type default))
    (uuid 4b8c5111-2e27-4fdc-b90d-008963d31bd8)
  )
  (wire (pts (xy 157.48 100.33) (xy 157.48 105.41))
    (stroke (width 0) (type default))
    (uuid 4c90304d-ee25-4362-9050-b086f3d6e5e1)
  )
  (wire (pts (xy 190.5 92.71) (xy 190.5 95.25))
    (stroke (width 0) (type default))
    (uuid 4d71fa8d-b56b-4037-a858-79c91f98ef24)
  )
  (wire (pts (xy 140.97 77.47) (xy 144.78 77.47))
    (stroke (width 0) (type default))
    (uuid 4e110d37-cc3d-4624-b9ed-15ca520e68e4)
  )
  (wire (pts (xy 140.97 77.47) (xy 140.97 81.28))
    (stroke (width 0) (type default))
    (uuid 4f84d396-fabf-4a6c-b565-099109490882)
  )
  (wire (pts (xy 179.07 109.22) (xy 167.64 109.22))
    (stroke (width 0) (type default))
    (uuid 569aac74-6bf9-46de-a1a6-30df0c4f5fb5)
  )
  (wire (pts (xy 190.5 82.55) (xy 190.5 85.09))
    (stroke (width 0) (type default))
    (uuid 57b944b5-f305-42e6-b775-0a0a47f31ed1)
  )
  (wire (pts (xy 81.28 121.92) (xy 81.28 125.73))
    (stroke (width 0) (type default))
    (uuid 58786a0b-4c75-4051-9b87-35250b15a65f)
  )
  (wire (pts (xy 60.96 104.14) (xy 60.96 111.76))
    (stroke (width 0) (type default))
    (uuid 5c8a58aa-c13b-438d-a6d1-beff4b0dd289)
  )
  (wire (pts (xy 111.76 95.25) (xy 111.76 96.52))
    (stroke (width 0) (type default))
    (uuid 5f5df03a-7b82-4c40-b99b-20ce8bb4984d)
  )
  (wire (pts (xy 88.9 95.25) (xy 88.9 99.06))
    (stroke (width 0) (type default))
    (uuid 61c2ce3c-3183-404b-97f5-3653fcd53c5c)
  )
  (wire (pts (xy 152.4 82.55) (xy 152.4 83.82))
    (stroke (width 0) (type default))
    (uuid 64277eb1-9d28-44f1-a5d9-f153f07c8ccb)
  )
  (wire (pts (xy 104.14 101.6) (xy 104.14 106.68))
    (stroke (width 0) (type default))
    (uuid 646b1b92-3f78-47ce-b845-522c822131c2)
  )
  (wire (pts (xy 152.4 66.04) (xy 129.54 66.04))
    (stroke (width 0) (type default))
    (uuid 677e2a48-10e2-41e4-afa1-f30876a42e3f)
  )
  (wire (pts (xy 95.25 66.04) (xy 88.9 66.04))
    (stroke (width 0) (type default))
    (uuid 6a1181e4-df10-49bf-9295-e63083467e6d)
  )
  (wire (pts (xy 190.5 95.25) (xy 200.66 95.25))
    (stroke (width 0) (type default))
    (uuid 6ae51ef2-4d04-444b-b9a3-1d1a830250ef)
  )
  (wire (pts (xy 104.14 66.04) (xy 104.14 80.01))
    (stroke (width 0) (type default))
    (uuid 6bc71317-6f4c-4558-ba5b-76f9c8890b41)
  )
  (wire (pts (xy 88.9 109.22) (xy 88.9 111.76))
    (stroke (width 0) (type default))
    (uuid 7107d70f-e910-4926-acab-7218ba5b6f53)
  )
  (wire (pts (xy 88.9 111.76) (xy 88.9 114.3))
    (stroke (width 0) (type default))
    (uuid 73628c44-0603-404c-9505-c27e1ce6a724)
  )
  (wire (pts (xy 102.87 66.04) (xy 104.14 66.04))
    (stroke (width 0) (type default))
    (uuid 764e88a7-0d01-4f07-aa87-4cf0db2d6e4c)
  )
  (wire (pts (xy 160.02 109.22) (xy 167.64 109.22))
    (stroke (width 0) (type default))
    (uuid 76864a9b-7808-416e-8233-94c705923f00)
  )
  (wire (pts (xy 190.5 66.04) (xy 214.63 66.04))
    (stroke (width 0) (type default))
    (uuid 7b9f8622-d0c8-4c76-89ae-d25886fb0aa8)
  )
  (wire (pts (xy 200.66 106.68) (xy 200.66 109.22))
    (stroke (width 0) (type default))
    (uuid 80e3014c-1f50-42a5-ad0d-1653559bfd54)
  )
  (wire (pts (xy 60.96 104.14) (xy 64.77 104.14))
    (stroke (width 0) (type default))
    (uuid 83e71d36-387b-4d56-945b-b1cb5ece1a5e)
  )
  (wire (pts (xy 190.5 95.25) (xy 167.64 95.25))
    (stroke (width 0) (type default))
    (uuid 8431a62d-74fc-4d4d-8238-84dc222b3bc2)
  )
  (wire (pts (xy 60.96 137.16) (xy 81.28 137.16))
    (stroke (width 0) (type default))
    (uuid 8683a582-7a66-4194-a8b7-46723034de0f)
  )
  (wire (pts (xy 190.5 66.04) (xy 152.4 66.04))
    (stroke (width 0) (type default))
    (uuid 8b87aa19-3701-4863-b8ae-1533927ffd33)
  )
  (wire (pts (xy 129.54 91.44) (xy 129.54 92.71))
    (stroke (width 0) (type default))
    (uuid 8dbcb3cc-3727-4a0c-b31f-76d0ee8996ad)
  )
  (wire (pts (xy 121.92 91.44) (xy 129.54 91.44))
    (stroke (width 0) (type default))
    (uuid 8fa0cfee-e1ca-4d3c-a68b-3083542274d7)
  )
  (wire (pts (xy 88.9 121.92) (xy 88.9 125.73))
    (stroke (width 0) (type default))
    (uuid 91dada3d-bc44-44eb-a61f-617f92f5bbcb)
  )
  (wire (pts (xy 152.4 83.82) (xy 152.4 85.09))
    (stroke (width 0) (type default))
    (uuid 9637d543-ea02-41ee-8ff8-c41446723552)
  )
  (wire (pts (xy 81.28 125.73) (xy 88.9 125.73))
    (stroke (width 0) (type default))
    (uuid 9767a53b-0b60-4771-818c-6ec95da31a96)
  )
  (wire (pts (xy 120.65 102.87) (xy 120.65 95.25))
    (stroke (width 0) (type default))
    (uuid 980dc8a5-3f61-45cf-9d47-6e28ba5f8843)
  )
  (wire (pts (xy 120.65 95.25) (xy 111.76 95.25))
    (stroke (width 0) (type default))
    (uuid 99c246fa-801b-43e9-b1a4-1824782e2ae9)
  )
  (wire (pts (xy 140.97 101.6) (xy 142.24 101.6))
    (stroke (width 0) (type default))
    (uuid 9a38f0fa-36b6-4ad4-99b3-79cbd0a6662e)
  )
  (wire (pts (xy 152.4 92.71) (xy 152.4 95.25))
    (stroke (width 0) (type default))
    (uuid 9a47e8eb-3d33-41d0-8e29-d53b97d28352)
  )
  (wire (pts (xy 152.4 124.46) (xy 140.97 124.46))
    (stroke (width 0) (type default))
    (uuid 9c1e9ad0-d6b2-414c-b250-b3fb711aea46)
  )
  (wire (pts (xy 214.63 124.46) (xy 200.66 124.46))
    (stroke (width 0) (type default))
    (uuid 9cd32c6a-f973-4ff1-8613-9e3994a9a575)
  )
  (wire (pts (xy 104.14 66.04) (xy 129.54 66.04))
    (stroke (width 0) (type default))
    (uuid 9dbf178f-e850-470d-a73a-6eecb9b4a360)
  )
  (wire (pts (xy 80.01 104.14) (xy 81.28 104.14))
    (stroke (width 0) (type default))
    (uuid 9f4df8c5-4cf5-40be-8181-a7e196bf243a)
  )
  (wire (pts (xy 129.54 124.46) (xy 129.54 129.54))
    (stroke (width 0) (type default))
    (uuid a18cbec6-f443-46fd-9b44-5e60af323627)
  )
  (wire (pts (xy 200.66 99.06) (xy 200.66 95.25))
    (stroke (width 0) (type default))
    (uuid a52b0878-578c-4d3b-b957-aebcfb09d548)
  )
  (wire (pts (xy 72.39 104.14) (xy 80.01 104.14))
    (stroke (width 0) (type default))
    (uuid a62d2821-2bb0-443e-b359-4e8435a5f6e2)
  )
  (wire (pts (xy 140.97 111.76) (xy 140.97 113.03))
    (stroke (width 0) (type default))
    (uuid a82eddbe-054a-4aeb-b482-3a6dbd5ec8f1)
  )
  (wire (pts (xy 154.94 105.41) (xy 157.48 105.41))
    (stroke (width 0) (type default))
    (uuid a9d99cae-2a01-408c-b2b4-43180ababc1a)
  )
  (wire (pts (xy 179.07 83.82) (xy 152.4 83.82))
    (stroke (width 0) (type default))
    (uuid ab80b980-fde3-494f-b4e1-f3dccf10417b)
  )
  (wire (pts (xy 87.63 95.25) (xy 88.9 95.25))
    (stroke (width 0) (type default))
    (uuid afe35307-b89a-444a-8bfa-fa641b7ac10a)
  )
  (wire (pts (xy 129.54 106.68) (xy 133.35 106.68))
    (stroke (width 0) (type default))
    (uuid b42d40ce-706e-429f-a275-f39c8a168613)
  )
  (wire (pts (xy 88.9 87.63) (xy 88.9 95.25))
    (stroke (width 0) (type default))
    (uuid b95e828d-ec87-49ac-b722-8341c8307b1d)
  )
  (wire (pts (xy 200.66 116.84) (xy 200.66 124.46))
    (stroke (width 0) (type default))
    (uuid bc6b6152-f6ad-4877-bf5a-1a5fb6c7d43c)
  )
  (wire (pts (xy 163.83 139.7) (xy 163.83 113.03))
    (stroke (width 0) (type default))
    (uuid be4a3d6b-66ca-4dc7-88e7-f709dffd1545)
  )
  (wire (pts (xy 190.5 95.25) (xy 190.5 96.52))
    (stroke (width 0) (type default))
    (uuid beea0d26-4889-4b1d-88f1-46197e3b3526)
  )
  (wire (pts (xy 81.28 111.76) (xy 88.9 111.76))
    (stroke (width 0) (type default))
    (uuid c0493dcd-3333-4326-ae47-a63b7f901bba)
  )
  (wire (pts (xy 140.97 88.9) (xy 140.97 101.6))
    (stroke (width 0) (type default))
    (uuid c07752fb-9d6c-42c8-8cc6-7893cb4f99e2)
  )
  (wire (pts (xy 129.54 67.31) (xy 129.54 66.04))
    (stroke (width 0) (type default))
    (uuid c17f5b83-2241-442e-8688-baf09320bc7a)
  )
  (wire (pts (xy 152.4 72.39) (xy 152.4 66.04))
    (stroke (width 0) (type default))
    (uuid c1d9bc0d-f6f6-4df9-9609-d9e8a98d0a56)
  )
  (wire (pts (xy 104.14 87.63) (xy 104.14 101.6))
    (stroke (width 0) (type default))
    (uuid c566b518-f0e6-4e41-aebd-f177049c9c38)
  )
  (wire (pts (xy 167.64 95.25) (xy 152.4 95.25))
    (stroke (width 0) (type default))
    (uuid c6ae6013-70a0-49c7-8bdd-bb6771ed39c7)
  )
  (wire (pts (xy 81.28 137.16) (xy 88.9 137.16))
    (stroke (width 0) (type default))
    (uuid c8511185-4f88-415a-8b02-01f082dc1bfb)
  )
  (wire (pts (xy 81.28 125.73) (xy 81.28 129.54))
    (stroke (width 0) (type default))
    (uuid caf7d8c2-11b0-4c8c-8df3-e4c7e58e2d46)
  )
  (wire (pts (xy 190.5 106.68) (xy 190.5 110.49))
    (stroke (width 0) (type default))
    (uuid cb839c70-cc4f-4dad-a511-e9cca4403ff7)
  )
  (wire (pts (xy 179.07 123.19) (xy 179.07 124.46))
    (stroke (width 0) (type default))
    (uuid cebf068f-e7b0-452b-804f-85ae754d41be)
  )
  (wire (pts (xy 88.9 66.04) (xy 88.9 80.01))
    (stroke (width 0) (type default))
    (uuid cf479d42-6938-4779-8472-e0fe92f8e321)
  )
  (wire (pts (xy 179.07 115.57) (xy 179.07 109.22))
    (stroke (width 0) (type default))
    (uuid d148903e-301e-4cf0-ab2a-179f925d3b1f)
  )
  (wire (pts (xy 152.4 124.46) (xy 179.07 124.46))
    (stroke (width 0) (type default))
    (uuid d3778a18-a80a-4416-b12f-d5a6c99a9c41)
  )
  (wire (pts (xy 179.07 101.6) (xy 182.88 101.6))
    (stroke (width 0) (type default))
    (uuid d422fd5d-23c4-49cf-9ee7-841d0d9e0413)
  )
  (wire (pts (xy 80.01 95.25) (xy 80.01 104.14))
    (stroke (width 0) (type default))
    (uuid d875572d-c8ab-469f-afb2-e3a34851ddac)
  )
  (wire (pts (xy 148.59 110.49) (xy 148.59 111.76))
    (stroke (width 0) (type default))
    (uuid d96b0965-0cdd-4ccc-a40e-116cef74f81e)
  )
  (wire (pts (xy 111.76 91.44) (xy 114.3 91.44))
    (stroke (width 0) (type default))
    (uuid dfb999e9-7fb6-447b-83ee-20ed5a953150)
  )
  (wire (pts (xy 214.63 88.9) (xy 214.63 66.04))
    (stroke (width 0) (type default))
    (uuid e49a5459-86f2-4d30-aac2-09a75d7a3e7f)
  )
  (wire (pts (xy 160.02 100.33) (xy 157.48 100.33))
    (stroke (width 0) (type default))
    (uuid eb7ea88a-e81d-446d-b27a-c8c295d894c6)
  )
  (wire (pts (xy 129.54 106.68) (xy 129.54 113.03))
    (stroke (width 0) (type default))
    (uuid ee866517-8d5c-481e-b8bc-0c513685e31f)
  )
  (wire (pts (xy 182.88 77.47) (xy 179.07 77.47))
    (stroke (width 0) (type default))
    (uuid ef9933b1-0811-4b39-a7a8-190a65c7b83a)
  )
  (wire (pts (xy 154.94 110.49) (xy 148.59 110.49))
    (stroke (width 0) (type default))
    (uuid f563459c-0d33-46c5-8d05-2d847dcccec7)
  )
  (wire (pts (xy 81.28 111.76) (xy 81.28 114.3))
    (stroke (width 0) (type default))
    (uuid f62f4945-6852-49ed-81d0-d14cf7ff4572)
  )
  (wire (pts (xy 190.5 72.39) (xy 190.5 66.04))
    (stroke (width 0) (type default))
    (uuid f9f717d5-a454-4b09-881b-23726d05d9d4)
  )
  (wire (pts (xy 129.54 120.65) (xy 129.54 124.46))
    (stroke (width 0) (type default))
    (uuid fa2dea98-b657-46ba-8c26-bbbf9fe95a2f)
  )
  (wire (pts (xy 129.54 124.46) (xy 140.97 124.46))
    (stroke (width 0) (type default))
    (uuid fb32c5f1-0684-458f-8c70-8f5578342e50)
  )

  (arc (start 143.51 97.79) (mid 147.5187 102.0802) (end 147.32 107.95)
    (stroke (width 0) (type default))
    (fill (type none))
    (uuid 1f65cb68-8970-4be4-a549-8d3634e1f857)
  )
  (arc (start 153.67 102.87) (mid 149.1799 101.0101) (end 147.32 96.52)
    (stroke (width 0) (type default))
    (fill (type none))
    (uuid 68fbab28-a3eb-4228-8c2f-d4aa1bac3884)
  )
  (arc (start 142.24 100.33) (mid 147.2199 102.1011) (end 149.86 106.68)
    (stroke (width 0) (type default))
    (fill (type none))
    (uuid 84c032f9-02f5-4bc5-8b54-4cdfc797a467)
  )
  (arc (start 146.05 107.95) (mid 148.5449 103.1968) (end 153.67 101.6)
    (stroke (width 0) (type default))
    (fill (type none))
    (uuid c33f5a67-9a14-4d47-adca-83f85aeeeca8)
  )

  (text "C18 50u -> 100u" (at 143.51 128.27 0)
    (effects (font (size 1.27 1.27)) (justify left bottom))
    (uuid 06c8ceaa-3b3a-4ee0-bbdf-d2905a8eaf79)
  )
  (text "МП25а" (at 171.45 102.87 0)
    (effects (font (size 1.27 1.27)) (justify left bottom))
    (uuid 45f34f2a-315f-46e0-94b3-82a072b128f3)
  )
  (text ".tran 1m 2" (at 59.69 62.23 0)
    (effects (font (size 1.27 1.27)) (justify left bottom))
    (uuid 4ae0d448-0648-47d0-8aa8-d1f9f80c73c0)
  )
  (text "USSR Vinyl player Akkord 201 \nClass B amplifier. -->> Class A (JLH)"
    (at 177.8 134.62 0)
    (effects (font (size 1.27 1.27)) (justify left bottom))
    (uuid 521bd0ac-7c9d-4c9f-81d1-39b1a58e74ef)
  )
  (text "C17 50u -> 100u" (at 123.19 63.5 0)
    (effects (font (size 1.27 1.27)) (justify left bottom))
    (uuid 5726ea47-5be8-4c35-b92a-c2166dd612f4)
  )
  (text "МП25а" (at 143.51 72.39 0)
    (effects (font (size 1.27 1.27)) (justify left bottom))
    (uuid c812ac72-e62b-45f4-9ed0-e6496312fb42)
  )
  (text "<-МП37" (at 138.43 96.52 0)
    (effects (font (size 1.27 1.27)) (justify left bottom))
    (uuid cbbbc356-b06f-4cce-9e60-2e1f63d8cd6f)
  )
  (text "МП37" (at 114.3 99.06 0)
    (effects (font (size 1.27 1.27)) (justify left bottom))
    (uuid cd9f4774-c4de-49ac-9b36-80edaec7b06f)
  )

  (symbol (lib_id "Device:R") (at 190.5 88.9 0) (unit 1)
    (in_bom yes) (on_board yes) (dnp no) (fields_autoplaced)
    (uuid 0c9f3409-0109-4d9b-8565-b5d2f5348c63)
    (property "Reference" "R34" (at 193.04 88.265 0)
      (effects (font (size 1.27 1.27)) (justify left))
    )
    (property "Value" "1" (at 193.04 90.805 0)
      (effects (font (size 1.27 1.27)) (justify left))
    )
    (property "Footprint" "Resistor_THT:R_Axial_DIN0207_L6.3mm_D2.5mm_P7.62mm_Horizontal" (at 188.722 88.9 90)
      (effects (font (size 1.27 1.27)) hide)
    )
    (property "Datasheet" "~" (at 190.5 88.9 0)
      (effects (font (size 1.27 1.27)) hide)
    )
    (pin "1" (uuid a4578d34-a150-48b6-8d28-eeb083c9c5ef))
    (pin "2" (uuid a382757d-58d3-4883-882f-243bc7ff440a))
    (instances
      (project "sim_akkord201-jlh_concept"
        (path "/cefae286-dde6-44ae-8b1c-fe027df923e4"
          (reference "R34") (unit 1)
        )
      )
    )
  )

  (symbol (lib_id "Transistor_BJT:2SA1015") (at 138.43 106.68 0) (unit 1)
    (in_bom yes) (on_board yes) (dnp no) (fields_autoplaced)
    (uuid 345fdaef-8a56-48ef-b076-d99860b5b034)
    (property "Reference" "Q5" (at 143.51 107.315 0)
      (effects (font (size 1.27 1.27)) (justify left))
    )
    (property "Value" "MP25a" (at 143.51 107.9499 0)
      (effects (font (size 1.27 1.27)) (justify left) hide)
    )
    (property "Footprint" "Package_TO_SOT_THT:TO-126-3_Vertical" (at 143.51 108.585 0)
      (effects (font (size 1.27 1.27) italic) (justify left) hide)
    )
    (property "Datasheet" "" (at 138.43 106.68 0)
      (effects (font (size 1.27 1.27)) (justify left) hide)
    )
    (property "Sim.Library" "glib.lib" (at 138.43 106.68 0)
      (effects (font (size 1.27 1.27)) hide)
    )
    (property "Sim.Name" "mp25a" (at 138.43 106.68 0)
      (effects (font (size 1.27 1.27)) hide)
    )
    (property "Sim.Pins" "1=E 2=C 3=B" (at 138.43 106.68 0)
      (effects (font (size 1.27 1.27)) hide)
    )
    (property "Sim.Device" "PNP" (at 138.43 106.68 0)
      (effects (font (size 1.27 1.27)) hide)
    )
    (property "Sim.Type" "GUMMELPOON" (at 138.43 106.68 0)
      (effects (font (size 1.27 1.27)) hide)
    )
    (property "Sim.Params" "is=3u bf=40 vaf=30 ikf=40m ise=0.3u ne=1.28 br=3 isc=0.6u nc=1.28 rb=120 irb=0.1m rbm=40 cje=30p mje=0.5 tf=0.4u cjc=90p mjc=0.5 tr=4u eg=0.72" (at 138.43 106.68 0)
      (effects (font (size 1.27 1.27)) hide)
    )
    (pin "1" (uuid 5ed17663-6a45-451d-9eba-ff6d10ec3463))
    (pin "2" (uuid a7ddea8e-84bb-4d7f-b64c-49f4ee331872))
    (pin "3" (uuid 8c7fd3a4-18c7-45d2-9395-0517d95e760d))
    (instances
      (project "sim_akkord201-jlh_concept"
        (path "/cefae286-dde6-44ae-8b1c-fe027df923e4"
          (reference "Q5") (unit 1)
        )
      )
    )
  )

  (symbol (lib_id "Device:R") (at 179.07 119.38 0) (unit 1)
    (in_bom yes) (on_board yes) (dnp no) (fields_autoplaced)
    (uuid 3712c732-3b93-44d4-9c56-a7d54b8364b6)
    (property "Reference" "R33" (at 181.61 118.745 0)
      (effects (font (size 1.27 1.27)) (justify left))
    )
    (property "Value" "100" (at 181.61 121.285 0)
      (effects (font (size 1.27 1.27)) (justify left))
    )
    (property "Footprint" "Resistor_THT:R_Axial_DIN0207_L6.3mm_D2.5mm_P7.62mm_Horizontal" (at 177.292 119.38 90)
      (effects (font (size 1.27 1.27)) hide)
    )
    (property "Datasheet" "~" (at 179.07 119.38 0)
      (effects (font (size 1.27 1.27)) hide)
    )
    (pin "1" (uuid b8848d2d-8907-45bf-9d91-be8aebd22e7f))
    (pin "2" (uuid 632f843f-f52d-4111-993e-fa73c4d50c24))
    (instances
      (project "sim_akkord201-jlh_concept"
        (path "/cefae286-dde6-44ae-8b1c-fe027df923e4"
          (reference "R33") (unit 1)
        )
      )
    )
  )

  (symbol (lib_id "Device:R") (at 88.9 83.82 0) (unit 1)
    (in_bom yes) (on_board yes) (dnp no) (fields_autoplaced)
    (uuid 3eabd16e-b856-494a-b23c-8fdf97b45d0e)
    (property "Reference" "R22" (at 91.44 83.185 0)
      (effects (font (size 1.27 1.27)) (justify left))
    )
    (property "Value" "3k3" (at 91.44 85.725 0)
      (effects (font (size 1.27 1.27)) (justify left))
    )
    (property "Footprint" "Resistor_THT:R_Axial_DIN0207_L6.3mm_D2.5mm_P7.62mm_Horizontal" (at 87.122 83.82 90)
      (effects (font (size 1.27 1.27)) hide)
    )
    (property "Datasheet" "~" (at 88.9 83.82 0)
      (effects (font (size 1.27 1.27)) hide)
    )
    (pin "1" (uuid 22290d87-1480-499f-a444-f4f1462a6d7e))
    (pin "2" (uuid e54d9b44-64a1-46ef-8030-f3afb3a303ee))
    (instances
      (project "sim_akkord201-jlh_concept"
        (path "/cefae286-dde6-44ae-8b1c-fe027df923e4"
          (reference "R22") (unit 1)
        )
      )
    )
  )

  (symbol (lib_id "Device:R") (at 140.97 85.09 0) (unit 1)
    (in_bom yes) (on_board yes) (dnp no) (fields_autoplaced)
    (uuid 4cf87de5-1a33-454d-bf4c-900449e5737a)
    (property "Reference" "R31" (at 143.51 84.455 0)
      (effects (font (size 1.27 1.27)) (justify left))
    )
    (property "Value" "68" (at 143.51 86.995 0)
      (effects (font (size 1.27 1.27)) (justify left))
    )
    (property "Footprint" "Resistor_THT:R_Axial_DIN0207_L6.3mm_D2.5mm_P7.62mm_Horizontal" (at 139.192 85.09 90)
      (effects (font (size 1.27 1.27)) hide)
    )
    (property "Datasheet" "~" (at 140.97 85.09 0)
      (effects (font (size 1.27 1.27)) hide)
    )
    (pin "1" (uuid 278aa330-c468-4066-861b-bade441cee74))
    (pin "2" (uuid 709570a2-0ba2-4574-8730-2b9bc5873481))
    (instances
      (project "sim_akkord201-jlh_concept"
        (path "/cefae286-dde6-44ae-8b1c-fe027df923e4"
          (reference "R31") (unit 1)
        )
      )
    )
  )

  (symbol (lib_id "Device:C_Polarized") (at 200.66 102.87 0) (mirror x) (unit 1)
    (in_bom yes) (on_board yes) (dnp no)
    (uuid 53a8bf55-4c70-44af-92d6-042c2d2ed66f)
    (property "Reference" "C19" (at 209.55 100.33 0)
      (effects (font (size 1.27 1.27)) (justify left))
    )
    (property "Value" "1000u" (at 204.47 102.87 0)
      (effects (font (size 1.27 1.27)) (justify left))
    )
    (property "Footprint" "Capacitor_THT:CP_Radial_D10.0mm_P5.00mm" (at 201.6252 99.06 0)
      (effects (font (size 1.27 1.27)) hide)
    )
    (property "Datasheet" "~" (at 200.66 102.87 0)
      (effects (font (size 1.27 1.27)) hide)
    )
    (pin "1" (uuid 7bd50740-c908-400b-a776-344c29550a73))
    (pin "2" (uuid 782805b3-ff79-406b-bcd4-561793fb147f))
    (instances
      (project "sim_akkord201-jlh_concept"
        (path "/cefae286-dde6-44ae-8b1c-fe027df923e4"
          (reference "C19") (unit 1)
        )
      )
    )
  )

  (symbol (lib_id "Device:R") (at 99.06 66.04 90) (unit 1)
    (in_bom yes) (on_board yes) (dnp no) (fields_autoplaced)
    (uuid 5762674d-2632-4c02-a8e0-cd16e46f48e7)
    (property "Reference" "R26" (at 99.06 60.96 90)
      (effects (font (size 1.27 1.27)))
    )
    (property "Value" "680" (at 99.06 63.5 90)
      (effects (font (size 1.27 1.27)))
    )
    (property "Footprint" "Resistor_THT:R_Axial_DIN0207_L6.3mm_D2.5mm_P7.62mm_Horizontal" (at 99.06 67.818 90)
      (effects (font (size 1.27 1.27)) hide)
    )
    (property "Datasheet" "~" (at 99.06 66.04 0)
      (effects (font (size 1.27 1.27)) hide)
    )
    (pin "1" (uuid 28ac3b1b-d3f8-4195-a683-2f4220ad9610))
    (pin "2" (uuid 1f7bec74-1b70-4857-8ebb-988a9d60ff74))
    (instances
      (project "sim_akkord201-jlh_concept"
        (path "/cefae286-dde6-44ae-8b1c-fe027df923e4"
          (reference "R26") (unit 1)
        )
      )
    )
  )

  (symbol (lib_id "Transistor_BJT:2SC1815") (at 109.22 101.6 0) (mirror x) (unit 1)
    (in_bom yes) (on_board yes) (dnp no)
    (uuid 5947e1a0-8a65-43c6-bdf3-1af8a0a9f4ad)
    (property "Reference" "Q7" (at 114.3 101.5999 0)
      (effects (font (size 1.27 1.27)) (justify left))
    )
    (property "Value" "MP37" (at 114.3 102.8699 0)
      (effects (font (size 1.27 1.27)) (justify left) hide)
    )
    (property "Footprint" "Package_TO_SOT_THT:TO-92_Inline_Wide" (at 114.3 99.695 0)
      (effects (font (size 1.27 1.27) italic) (justify left) hide)
    )
    (property "Datasheet" "" (at 109.22 101.6 0)
      (effects (font (size 1.27 1.27)) (justify left) hide)
    )
    (property "Sim.Library" "glib.lib" (at 109.22 101.6 0)
      (effects (font (size 1.27 1.27)) hide)
    )
    (property "Sim.Name" "mp37" (at 109.22 101.6 0)
      (effects (font (size 1.27 1.27)) hide)
    )
    (property "Sim.Pins" "1=E 2=C 3=B" (at 109.22 101.6 0)
      (effects (font (size 1.27 1.27)) hide)
    )
    (property "Sim.Device" "NPN" (at 109.22 101.6 0)
      (effects (font (size 1.27 1.27)) hide)
    )
    (property "Sim.Type" "GUMMELPOON" (at 109.22 101.6 0)
      (effects (font (size 1.27 1.27)) hide)
    )
    (property "Sim.Params" "is=3u bf=40 vaf=15 ikf=50m ise=0.3u ne=1.28 br=4 isc=0.6u nc=1.28 rb=150 irb=0.1m rbm=50 cje=30p mje=0.5 tf=0.1u cjc=90p mjc=0.5 tr=1u eg=0.72" (at 109.22 101.6 0)
      (effects (font (size 1.27 1.27)) hide)
    )
    (pin "1" (uuid 7bea25b6-3bad-418a-a305-bc3031c5864c))
    (pin "2" (uuid f03ec611-2ad3-4228-9a87-6454a221c378))
    (pin "3" (uuid 596966d7-34f7-4865-8838-4935c4e8f62d))
    (instances
      (project "sim_akkord201-jlh_concept"
        (path "/cefae286-dde6-44ae-8b1c-fe027df923e4"
          (reference "Q7") (unit 1)
        )
      )
    )
  )

  (symbol (lib_id "Device:R") (at 118.11 91.44 90) (unit 1)
    (in_bom yes) (on_board yes) (dnp no) (fields_autoplaced)
    (uuid 64e5cab9-9c78-4fdf-a1a6-51da7842bd22)
    (property "Reference" "R1001" (at 118.11 86.36 90)
      (effects (font (size 1.27 1.27)))
    )
    (property "Value" "2k2" (at 118.11 88.9 90)
      (effects (font (size 1.27 1.27)))
    )
    (property "Footprint" "Resistor_THT:R_Axial_DIN0207_L6.3mm_D2.5mm_P7.62mm_Horizontal" (at 118.11 93.218 90)
      (effects (font (size 1.27 1.27)) hide)
    )
    (property "Datasheet" "~" (at 118.11 91.44 0)
      (effects (font (size 1.27 1.27)) hide)
    )
    (pin "1" (uuid e3e6d31a-3e6b-4ced-ac8a-43c569221f60))
    (pin "2" (uuid d5abf60c-fde8-4b37-8b3a-ab12a07fc1a2))
    (instances
      (project "sim_akkord201-jlh_concept"
        (path "/cefae286-dde6-44ae-8b1c-fe027df923e4"
          (reference "R1001") (unit 1)
        )
      )
    )
  )

  (symbol (lib_id "Transistor_BJT:2SA1015") (at 165.1 100.33 0) (unit 1)
    (in_bom yes) (on_board yes) (dnp no)
    (uuid 690de249-d924-4ec6-b528-a1895dcf0e9e)
    (property "Reference" "Q1001" (at 171.45 99.06 0)
      (effects (font (size 1.27 1.27)) (justify left))
    )
    (property "Value" "MP25a" (at 170.18 101.5999 0)
      (effects (font (size 1.27 1.27)) (justify left) hide)
    )
    (property "Footprint" "Package_TO_SOT_THT:TO-126-3_Vertical" (at 170.18 102.235 0)
      (effects (font (size 1.27 1.27) italic) (justify left) hide)
    )
    (property "Datasheet" "" (at 165.1 100.33 0)
      (effects (font (size 1.27 1.27)) (justify left) hide)
    )
    (property "Sim.Library" "glib.lib" (at 165.1 100.33 0)
      (effects (font (size 1.27 1.27)) hide)
    )
    (property "Sim.Name" "mp25a" (at 165.1 100.33 0)
      (effects (font (size 1.27 1.27)) hide)
    )
    (property "Sim.Pins" "1=E 2=C 3=B" (at 165.1 100.33 0)
      (effects (font (size 1.27 1.27)) hide)
    )
    (property "Sim.Device" "PNP" (at 165.1 100.33 0)
      (effects (font (size 1.27 1.27)) hide)
    )
    (property "Sim.Type" "GUMMELPOON" (at 165.1 100.33 0)
      (effects (font (size 1.27 1.27)) hide)
    )
    (property "Sim.Params" "is=3u bf=40 vaf=30 ikf=40m ise=0.3u ne=1.28 br=3 isc=0.6u nc=1.28 rb=120 irb=0.1m rbm=40 cje=30p mje=0.5 tf=0.4u cjc=90p mjc=0.5 tr=4u eg=0.72" (at 165.1 100.33 0)
      (effects (font (size 1.27 1.27)) hide)
    )
    (pin "1" (uuid 84cee460-760b-48c9-9fea-d052cbe37e34))
    (pin "2" (uuid fde16d93-2ea1-48a5-9122-7e788ae855fb))
    (pin "3" (uuid 9ae7229c-6b1b-4365-b2e8-a3892d2c0ab8))
    (instances
      (project "sim_akkord201-jlh_concept"
        (path "/cefae286-dde6-44ae-8b1c-fe027df923e4"
          (reference "Q1001") (unit 1)
        )
      )
    )
  )

  (symbol (lib_id "Device:R") (at 129.54 96.52 0) (unit 1)
    (in_bom yes) (on_board yes) (dnp no) (fields_autoplaced)
    (uuid 6b9d0758-2588-4929-a176-a729616f6f06)
    (property "Reference" "R27" (at 132.08 95.885 0)
      (effects (font (size 1.27 1.27)) (justify left))
    )
    (property "Value" "68k" (at 132.08 98.425 0)
      (effects (font (size 1.27 1.27)) (justify left))
    )
    (property "Footprint" "Resistor_THT:R_Axial_DIN0207_L6.3mm_D2.5mm_P7.62mm_Horizontal" (at 127.762 96.52 90)
      (effects (font (size 1.27 1.27)) hide)
    )
    (property "Datasheet" "~" (at 129.54 96.52 0)
      (effects (font (size 1.27 1.27)) hide)
    )
    (pin "1" (uuid 827c7b8b-86ad-461e-b932-40e5b1039e27))
    (pin "2" (uuid 25580ee9-057b-4855-aecc-f0caabf866ab))
    (instances
      (project "sim_akkord201-jlh_concept"
        (path "/cefae286-dde6-44ae-8b1c-fe027df923e4"
          (reference "R27") (unit 1)
        )
      )
    )
  )

  (symbol (lib_id "power:GND") (at 104.14 138.43 0) (unit 1)
    (in_bom yes) (on_board yes) (dnp no) (fields_autoplaced)
    (uuid 6bd56c9c-9676-4af0-b851-8940616d127d)
    (property "Reference" "#PWR0102" (at 104.14 144.78 0)
      (effects (font (size 1.27 1.27)) hide)
    )
    (property "Value" "GND" (at 106.68 139.6999 0)
      (effects (font (size 1.27 1.27)) (justify left))
    )
    (property "Footprint" "" (at 104.14 138.43 0)
      (effects (font (size 1.27 1.27)) hide)
    )
    (property "Datasheet" "" (at 104.14 138.43 0)
      (effects (font (size 1.27 1.27)) hide)
    )
    (pin "1" (uuid 33238144-1d4e-48ef-9ba9-2d15bfa469f9))
    (instances
      (project "sim_akkord201-jlh_concept"
        (path "/cefae286-dde6-44ae-8b1c-fe027df923e4"
          (reference "#PWR0102") (unit 1)
        )
      )
    )
  )

  (symbol (lib_id "Device:R") (at 104.14 83.82 0) (unit 1)
    (in_bom yes) (on_board yes) (dnp no) (fields_autoplaced)
    (uuid 6cbc8830-1948-4590-81ea-9115da2e92e7)
    (property "Reference" "R1003" (at 106.68 83.185 0)
      (effects (font (size 1.27 1.27)) (justify left))
    )
    (property "Value" "140k" (at 106.68 85.725 0)
      (effects (font (size 1.27 1.27)) (justify left))
    )
    (property "Footprint" "Resistor_THT:R_Axial_DIN0207_L6.3mm_D2.5mm_P7.62mm_Horizontal" (at 102.362 83.82 90)
      (effects (font (size 1.27 1.27)) hide)
    )
    (property "Datasheet" "~" (at 104.14 83.82 0)
      (effects (font (size 1.27 1.27)) hide)
    )
    (pin "1" (uuid 19fe86bc-f244-4e46-8996-26780a082205))
    (pin "2" (uuid 74321f7b-6175-41ae-b2cd-6d29d063b210))
    (instances
      (project "sim_akkord201-jlh_concept"
        (path "/cefae286-dde6-44ae-8b1c-fe027df923e4"
          (reference "R1003") (unit 1)
        )
      )
    )
  )

  (symbol (lib_id "Device:R") (at 88.9 118.11 0) (unit 1)
    (in_bom yes) (on_board yes) (dnp no) (fields_autoplaced)
    (uuid 6d88ec95-1465-4f51-ba82-6f2352b6c0f0)
    (property "Reference" "R23" (at 91.44 117.475 0)
      (effects (font (size 1.27 1.27)) (justify left))
    )
    (property "Value" "390" (at 91.44 120.015 0)
      (effects (font (size 1.27 1.27)) (justify left))
    )
    (property "Footprint" "Resistor_THT:R_Axial_DIN0207_L6.3mm_D2.5mm_P7.62mm_Horizontal" (at 87.122 118.11 90)
      (effects (font (size 1.27 1.27)) hide)
    )
    (property "Datasheet" "~" (at 88.9 118.11 0)
      (effects (font (size 1.27 1.27)) hide)
    )
    (pin "1" (uuid 8ceb8630-b768-4065-bc5b-c32fd7a70a3e))
    (pin "2" (uuid 3495707d-c1cb-4612-b308-3077f48b56f7))
    (instances
      (project "sim_akkord201-jlh_concept"
        (path "/cefae286-dde6-44ae-8b1c-fe027df923e4"
          (reference "R23") (unit 1)
        )
      )
    )
  )

  (symbol (lib_id "Simulation_SPICE:VDC") (at 214.63 93.98 180) (unit 1)
    (in_bom yes) (on_board yes) (dnp no) (fields_autoplaced)
    (uuid 7a2cf7e6-3b3a-4201-a490-1a6864bbf096)
    (property "Reference" "V1" (at 218.44 93.3807 0)
      (effects (font (size 1.27 1.27)) (justify right))
    )
    (property "Value" "22" (at 218.44 95.9207 0)
      (effects (font (size 1.27 1.27)) (justify right))
    )
    (property "Footprint" "" (at 214.63 93.98 0)
      (effects (font (size 1.27 1.27)) hide)
    )
    (property "Datasheet" "~" (at 214.63 93.98 0)
      (effects (font (size 1.27 1.27)) hide)
    )
    (property "Sim.Device" "V" (at 214.63 93.98 0)
      (effects (font (size 1.27 1.27)) (justify left) hide)
    )
    (property "Sim.Type" "DC" (at 13.97 1.27 0)
      (effects (font (size 1.27 1.27)) hide)
    )
    (property "Sim.Pins" "1=+ 2=-" (at 13.97 1.27 0)
      (effects (font (size 1.27 1.27)) hide)
    )
    (pin "1" (uuid a029b2ad-9f31-4b82-88f8-61b663ad6996))
    (pin "2" (uuid 8b111cb2-fd03-43f7-b70d-5e6084ad9004))
    (instances
      (project "sim_akkord201-jlh_concept"
        (path "/cefae286-dde6-44ae-8b1c-fe027df923e4"
          (reference "V1") (unit 1)
        )
      )
    )
  )

  (symbol (lib_id "power:GND") (at 129.54 129.54 0) (unit 1)
    (in_bom yes) (on_board yes) (dnp no) (fields_autoplaced)
    (uuid 821cb95e-74dc-4cd4-95f3-89e607d87013)
    (property "Reference" "#PWR01" (at 129.54 135.89 0)
      (effects (font (size 1.27 1.27)) hide)
    )
    (property "Value" "GND" (at 132.08 130.8099 0)
      (effects (font (size 1.27 1.27)) (justify left))
    )
    (property "Footprint" "" (at 129.54 129.54 0)
      (effects (font (size 1.27 1.27)) hide)
    )
    (property "Datasheet" "" (at 129.54 129.54 0)
      (effects (font (size 1.27 1.27)) hide)
    )
    (pin "1" (uuid a503f494-4926-4db7-8929-167fe8d8b5f3))
    (instances
      (project "sim_akkord201-jlh_concept"
        (path "/cefae286-dde6-44ae-8b1c-fe027df923e4"
          (reference "#PWR01") (unit 1)
        )
      )
    )
  )

  (symbol (lib_id "Device:R") (at 81.28 133.35 0) (unit 1)
    (in_bom yes) (on_board yes) (dnp no) (fields_autoplaced)
    (uuid 8a7a658e-573e-40fe-82d2-4a942ba3b44d)
    (property "Reference" "R21" (at 83.82 132.715 0)
      (effects (font (size 1.27 1.27)) (justify left))
    )
    (property "Value" "68" (at 83.82 135.255 0)
      (effects (font (size 1.27 1.27)) (justify left))
    )
    (property "Footprint" "Resistor_THT:R_Axial_DIN0207_L6.3mm_D2.5mm_P7.62mm_Horizontal" (at 79.502 133.35 90)
      (effects (font (size 1.27 1.27)) hide)
    )
    (property "Datasheet" "~" (at 81.28 133.35 0)
      (effects (font (size 1.27 1.27)) hide)
    )
    (pin "1" (uuid 107d8a42-4772-4801-b407-aedcdf3b925e))
    (pin "2" (uuid f8c84d46-4315-4c6d-bf7e-8ebdbfa7e3d7))
    (instances
      (project "sim_akkord201-jlh_concept"
        (path "/cefae286-dde6-44ae-8b1c-fe027df923e4"
          (reference "R21") (unit 1)
        )
      )
    )
  )

  (symbol (lib_id "Transistor_BJT:2SC1815") (at 147.32 101.6 0) (mirror x) (unit 1)
    (in_bom yes) (on_board yes) (dnp no)
    (uuid 91d9bf3f-d84d-4996-9a80-dafedaeb7d77)
    (property "Reference" "Q7_prev1" (at 140.97 97.79 0)
      (effects (font (size 1.27 1.27)) (justify left))
    )
    (property "Value" "MP37" (at 152.4 102.8699 0)
      (effects (font (size 1.27 1.27)) (justify left) hide)
    )
    (property "Footprint" "Package_TO_SOT_THT:TO-92_Inline_Wide" (at 152.4 99.695 0)
      (effects (font (size 1.27 1.27) italic) (justify left) hide)
    )
    (property "Datasheet" "" (at 147.32 101.6 0)
      (effects (font (size 1.27 1.27)) (justify left) hide)
    )
    (property "Sim.Library" "glib.lib" (at 147.32 101.6 0)
      (effects (font (size 1.27 1.27)) hide)
    )
    (property "Sim.Name" "mp37" (at 147.32 101.6 0)
      (effects (font (size 1.27 1.27)) hide)
    )
    (property "Sim.Pins" "1=E 2=C 3=B" (at 147.32 101.6 0)
      (effects (font (size 1.27 1.27)) hide)
    )
    (property "Sim.Device" "NPN" (at 147.32 101.6 0)
      (effects (font (size 1.27 1.27)) hide)
    )
    (property "Sim.Type" "GUMMELPOON" (at 147.32 101.6 0)
      (effects (font (size 1.27 1.27)) hide)
    )
    (property "Sim.Params" "is=3u bf=40 vaf=15 ikf=50m ise=0.3u ne=1.28 br=4 isc=0.6u nc=1.28 rb=150 irb=0.1m rbm=50 cje=30p mje=0.5 tf=0.1u cjc=90p mjc=0.5 tr=1u eg=0.72" (at 147.32 101.6 0)
      (effects (font (size 1.27 1.27)) hide)
    )
    (pin "1" (uuid 1b42c692-4ca7-4052-af7e-85ba091848df))
    (pin "2" (uuid 6bed9616-d626-4dbf-90aa-a12ee15bb9d4))
    (pin "3" (uuid 98202044-a164-433b-af9b-2ff9073f76ef))
    (instances
      (project "sim_akkord201-jlh_concept"
        (path "/cefae286-dde6-44ae-8b1c-fe027df923e4"
          (reference "Q7_prev1") (unit 1)
        )
      )
    )
  )

  (symbol (lib_id "Device:C_Polarized") (at 152.4 116.84 0) (mirror x) (unit 1)
    (in_bom yes) (on_board yes) (dnp no)
    (uuid 947becbc-561c-4955-814b-889cd3d0a76d)
    (property "Reference" "C18" (at 157.48 116.84 0)
      (effects (font (size 1.27 1.27)) (justify left))
    )
    (property "Value" "100u" (at 154.94 119.38 0)
      (effects (font (size 1.27 1.27)) (justify left))
    )
    (property "Footprint" "Capacitor_THT:CP_Radial_D10.0mm_P5.00mm" (at 153.3652 113.03 0)
      (effects (font (size 1.27 1.27)) hide)
    )
    (property "Datasheet" "~" (at 152.4 116.84 0)
      (effects (font (size 1.27 1.27)) hide)
    )
    (pin "1" (uuid 7b2bb212-438a-454b-99ea-e80663eb6f23))
    (pin "2" (uuid 7101d978-f8e1-4235-997c-12810a6137cc))
    (instances
      (project "sim_akkord201-jlh_concept"
        (path "/cefae286-dde6-44ae-8b1c-fe027df923e4"
          (reference "C18") (unit 1)
        )
      )
    )
  )

  (symbol (lib_id "Transistor_BJT:2SA1015") (at 187.96 101.6 0) (unit 1)
    (in_bom yes) (on_board yes) (dnp no) (fields_autoplaced)
    (uuid 9f51020d-6625-4341-9934-53dfe81b8119)
    (property "Reference" "Q9" (at 193.04 102.235 0)
      (effects (font (size 1.27 1.27)) (justify left))
    )
    (property "Value" "P213" (at 193.04 102.8699 0)
      (effects (font (size 1.27 1.27)) (justify left) hide)
    )
    (property "Footprint" "Package_TO_SOT_THT:TO-126-3_Vertical" (at 193.04 103.505 0)
      (effects (font (size 1.27 1.27) italic) (justify left) hide)
    )
    (property "Datasheet" "" (at 187.96 101.6 0)
      (effects (font (size 1.27 1.27)) (justify left) hide)
    )
    (property "Sim.Library" "glib.lib" (at 187.96 101.6 0)
      (effects (font (size 1.27 1.27)) hide)
    )
    (property "Sim.Name" "p213" (at 187.96 101.6 0)
      (effects (font (size 1.27 1.27)) hide)
    )
    (property "Sim.Pins" "1=E 2=C 3=B" (at 187.96 101.6 0)
      (effects (font (size 1.27 1.27)) hide)
    )
    (property "Sim.Device" "PNP" (at 187.96 101.6 0)
      (effects (font (size 1.27 1.27)) hide)
    )
    (property "Sim.Type" "GUMMELPOON" (at 187.96 101.6 0)
      (effects (font (size 1.27 1.27)) hide)
    )
    (property "Sim.Params" "is=3u bf=20 vaf=30 ikf=0.5 ise=0.3u ne=1.28 br=3 isc=0.6u nc=1.28 rb=120 irb=0.1m rbm=40 cje=30p mje=0.5 tf=0.4u cjc=90p mjc=0.5 tr=4u eg=0.72" (at 187.96 101.6 0)
      (effects (font (size 1.27 1.27)) hide)
    )
    (pin "1" (uuid abcb3ddf-ad30-4327-ba79-a58b870709cc))
    (pin "2" (uuid eada0f43-a771-416e-a177-ed8b4f5c436e))
    (pin "3" (uuid 3a39719e-8d28-40b5-8d13-2ad57ced99ca))
    (instances
      (project "sim_akkord201-jlh_concept"
        (path "/cefae286-dde6-44ae-8b1c-fe027df923e4"
          (reference "Q9") (unit 1)
        )
      )
    )
  )

  (symbol (lib_id "Transistor_BJT:2SA1015") (at 187.96 77.47 0) (unit 1)
    (in_bom yes) (on_board yes) (dnp no) (fields_autoplaced)
    (uuid a10a8a0d-c22d-4a66-8be0-6790f73f4b57)
    (property "Reference" "Q8" (at 193.04 78.105 0)
      (effects (font (size 1.27 1.27)) (justify left))
    )
    (property "Value" "P213" (at 193.04 78.7399 0)
      (effects (font (size 1.27 1.27)) (justify left) hide)
    )
    (property "Footprint" "Package_TO_SOT_THT:TO-126-3_Vertical" (at 193.04 79.375 0)
      (effects (font (size 1.27 1.27) italic) (justify left) hide)
    )
    (property "Datasheet" "" (at 187.96 77.47 0)
      (effects (font (size 1.27 1.27)) (justify left) hide)
    )
    (property "Sim.Library" "glib.lib" (at 187.96 77.47 0)
      (effects (font (size 1.27 1.27)) hide)
    )
    (property "Sim.Name" "p213" (at 187.96 77.47 0)
      (effects (font (size 1.27 1.27)) hide)
    )
    (property "Sim.Pins" "1=E 2=C 3=B" (at 187.96 77.47 0)
      (effects (font (size 1.27 1.27)) hide)
    )
    (property "Sim.Device" "PNP" (at 187.96 77.47 0)
      (effects (font (size 1.27 1.27)) hide)
    )
    (property "Sim.Type" "GUMMELPOON" (at 187.96 77.47 0)
      (effects (font (size 1.27 1.27)) hide)
    )
    (property "Sim.Params" "is=3u bf=20 vaf=30 ikf=0.5 ise=0.3u ne=1.28 br=3 isc=0.6u nc=1.28 rb=120 irb=0.1m rbm=40 cje=30p mje=0.5 tf=0.4u cjc=90p mjc=0.5 tr=4u eg=0.72" (at 187.96 77.47 0)
      (effects (font (size 1.27 1.27)) hide)
    )
    (pin "1" (uuid 196e2d6e-524f-42ba-bbdc-d5c3478fde63))
    (pin "2" (uuid 953fab06-64fb-4c5a-b2d9-123e18d9969a))
    (pin "3" (uuid 9ea4e180-63e0-4fd1-8a82-1b809e5f4e09))
    (instances
      (project "sim_akkord201-jlh_concept"
        (path "/cefae286-dde6-44ae-8b1c-fe027df923e4"
          (reference "Q8") (unit 1)
        )
      )
    )
  )

  (symbol (lib_id "Device:R") (at 83.82 95.25 90) (unit 1)
    (in_bom yes) (on_board yes) (dnp no) (fields_autoplaced)
    (uuid b64fa30c-f726-4a06-996c-4646f8fe26f2)
    (property "Reference" "R20" (at 83.82 90.17 90)
      (effects (font (size 1.27 1.27)))
    )
    (property "Value" "100k" (at 83.82 92.71 90)
      (effects (font (size 1.27 1.27)))
    )
    (property "Footprint" "Resistor_THT:R_Axial_DIN0207_L6.3mm_D2.5mm_P7.62mm_Horizontal" (at 83.82 97.028 90)
      (effects (font (size 1.27 1.27)) hide)
    )
    (property "Datasheet" "~" (at 83.82 95.25 0)
      (effects (font (size 1.27 1.27)) hide)
    )
    (pin "1" (uuid 33de56a9-82b0-4986-b253-f667347e0cc8))
    (pin "2" (uuid f097e6cb-bcc7-488c-b455-f56cf8e0eb44))
    (instances
      (project "sim_akkord201-jlh_concept"
        (path "/cefae286-dde6-44ae-8b1c-fe027df923e4"
          (reference "R20") (unit 1)
        )
      )
    )
  )

  (symbol (lib_id "Transistor_BJT:2SA1015") (at 149.86 77.47 0) (unit 1)
    (in_bom yes) (on_board yes) (dnp no)
    (uuid bc78d02c-5433-4505-8d8e-5bb216698de0)
    (property "Reference" "Q6" (at 143.51 68.58 0)
      (effects (font (size 1.27 1.27)) (justify left))
    )
    (property "Value" "MP25a" (at 154.94 78.7399 0)
      (effects (font (size 1.27 1.27)) (justify left) hide)
    )
    (property "Footprint" "Package_TO_SOT_THT:TO-126-3_Vertical" (at 154.94 79.375 0)
      (effects (font (size 1.27 1.27) italic) (justify left) hide)
    )
    (property "Datasheet" "" (at 149.86 77.47 0)
      (effects (font (size 1.27 1.27)) (justify left) hide)
    )
    (property "Sim.Library" "glib.lib" (at 149.86 77.47 0)
      (effects (font (size 1.27 1.27)) hide)
    )
    (property "Sim.Name" "mp25a" (at 149.86 77.47 0)
      (effects (font (size 1.27 1.27)) hide)
    )
    (property "Sim.Pins" "1=E 2=C 3=B" (at 149.86 77.47 0)
      (effects (font (size 1.27 1.27)) hide)
    )
    (property "Sim.Device" "PNP" (at 149.86 77.47 0)
      (effects (font (size 1.27 1.27)) hide)
    )
    (property "Sim.Type" "GUMMELPOON" (at 149.86 77.47 0)
      (effects (font (size 1.27 1.27)) hide)
    )
    (property "Sim.Params" "is=3u bf=40 vaf=30 ikf=40m ise=0.3u ne=1.28 br=3 isc=0.6u nc=1.28 rb=120 irb=0.1m rbm=40 cje=30p mje=0.5 tf=0.4u cjc=90p mjc=0.5 tr=4u eg=0.72" (at 149.86 77.47 0)
      (effects (font (size 1.27 1.27)) hide)
    )
    (pin "1" (uuid cf64730a-2206-4d35-9441-93c4ec8bba40))
    (pin "2" (uuid 920a7fb6-802b-407f-a385-70c756ce6a46))
    (pin "3" (uuid 4aef30f5-ac9d-43b1-9901-949ea164bc77))
    (instances
      (project "sim_akkord201-jlh_concept"
        (path "/cefae286-dde6-44ae-8b1c-fe027df923e4"
          (reference "Q6") (unit 1)
        )
      )
    )
  )

  (symbol (lib_id "Device:R") (at 200.66 113.03 180) (unit 1)
    (in_bom yes) (on_board yes) (dnp no)
    (uuid bfb4cf6a-f4d0-4539-8a1a-2719d3d3ffe9)
    (property "Reference" "Rload1" (at 205.74 113.03 0)
      (effects (font (size 1.27 1.27)))
    )
    (property "Value" "4" (at 205.74 115.57 0)
      (effects (font (size 1.27 1.27)))
    )
    (property "Footprint" "Resistor_THT:R_Axial_DIN0414_L11.9mm_D4.5mm_P5.08mm_Vertical" (at 202.438 113.03 90)
      (effects (font (size 1.27 1.27)) hide)
    )
    (property "Datasheet" "~" (at 200.66 113.03 0)
      (effects (font (size 1.27 1.27)) hide)
    )
    (pin "1" (uuid 491482b8-5e24-4254-8176-3f61746ee338))
    (pin "2" (uuid ff8b2994-a212-46b3-9cd8-48b990c549a2))
    (instances
      (project "sim_akkord201-jlh_concept"
        (path "/cefae286-dde6-44ae-8b1c-fe027df923e4"
          (reference "Rload1") (unit 1)
        )
      )
    )
  )

  (symbol (lib_id "Device:R") (at 129.54 116.84 0) (unit 1)
    (in_bom yes) (on_board yes) (dnp no) (fields_autoplaced)
    (uuid bfbee24f-7aee-46f8-8e89-499bf5f39f23)
    (property "Reference" "R25" (at 132.08 116.205 0)
      (effects (font (size 1.27 1.27)) (justify left))
    )
    (property "Value" "4k7" (at 132.08 118.745 0)
      (effects (font (size 1.27 1.27)) (justify left))
    )
    (property "Footprint" "Resistor_THT:R_Axial_DIN0207_L6.3mm_D2.5mm_P7.62mm_Horizontal" (at 127.762 116.84 90)
      (effects (font (size 1.27 1.27)) hide)
    )
    (property "Datasheet" "~" (at 129.54 116.84 0)
      (effects (font (size 1.27 1.27)) hide)
    )
    (pin "1" (uuid 39868c5c-d2fe-4df7-8bd5-64a6ef81b0be))
    (pin "2" (uuid ea55b0fa-a26b-406a-85b1-6c3d2ebd2bbe))
    (instances
      (project "sim_akkord201-jlh_concept"
        (path "/cefae286-dde6-44ae-8b1c-fe027df923e4"
          (reference "R25") (unit 1)
        )
      )
    )
  )

  (symbol (lib_id "Transistor_BJT:2SA1015") (at 86.36 104.14 0) (unit 1)
    (in_bom yes) (on_board yes) (dnp no) (fields_autoplaced)
    (uuid c389fa31-b21e-4390-b9b4-18f59ee945ec)
    (property "Reference" "Q4" (at 91.44 104.775 0)
      (effects (font (size 1.27 1.27)) (justify left))
    )
    (property "Value" "MP25a" (at 91.44 105.4099 0)
      (effects (font (size 1.27 1.27)) (justify left) hide)
    )
    (property "Footprint" "Package_TO_SOT_THT:TO-126-3_Vertical" (at 91.44 106.045 0)
      (effects (font (size 1.27 1.27) italic) (justify left) hide)
    )
    (property "Datasheet" "" (at 86.36 104.14 0)
      (effects (font (size 1.27 1.27)) (justify left) hide)
    )
    (property "Sim.Library" "glib.lib" (at 86.36 104.14 0)
      (effects (font (size 1.27 1.27)) hide)
    )
    (property "Sim.Name" "mp25a" (at 86.36 104.14 0)
      (effects (font (size 1.27 1.27)) hide)
    )
    (property "Sim.Pins" "1=E 2=C 3=B" (at 86.36 104.14 0)
      (effects (font (size 1.27 1.27)) hide)
    )
    (property "Sim.Device" "PNP" (at 86.36 104.14 0)
      (effects (font (size 1.27 1.27)) hide)
    )
    (property "Sim.Type" "GUMMELPOON" (at 86.36 104.14 0)
      (effects (font (size 1.27 1.27)) hide)
    )
    (property "Sim.Params" "is=3u bf=40 vaf=30 ikf=40m ise=0.3u ne=1.28 br=3 isc=0.6u nc=1.28 rb=120 irb=0.1m rbm=40 cje=30p mje=0.5 tf=0.4u cjc=90p mjc=0.5 tr=4u eg=0.72" (at 86.36 104.14 0)
      (effects (font (size 1.27 1.27)) hide)
    )
    (pin "1" (uuid 6821e00b-1806-4e5c-ba3a-590de3f1a4fa))
    (pin "2" (uuid 9799d1b0-ba86-4a71-b551-a68ca9a88da3))
    (pin "3" (uuid 8c5613a8-17c7-41b7-be84-60243dbdce5a))
    (instances
      (project "sim_akkord201-jlh_concept"
        (path "/cefae286-dde6-44ae-8b1c-fe027df923e4"
          (reference "Q4") (unit 1)
        )
      )
    )
  )

  (symbol (lib_id "Device:R") (at 190.5 114.3 0) (unit 1)
    (in_bom yes) (on_board yes) (dnp no) (fields_autoplaced)
    (uuid c49c191d-e627-4b57-8029-2b53b0b8b1ee)
    (property "Reference" "R35" (at 193.04 113.665 0)
      (effects (font (size 1.27 1.27)) (justify left))
    )
    (property "Value" "1" (at 193.04 116.205 0)
      (effects (font (size 1.27 1.27)) (justify left))
    )
    (property "Footprint" "Resistor_THT:R_Axial_DIN0207_L6.3mm_D2.5mm_P7.62mm_Horizontal" (at 188.722 114.3 90)
      (effects (font (size 1.27 1.27)) hide)
    )
    (property "Datasheet" "~" (at 190.5 114.3 0)
      (effects (font (size 1.27 1.27)) hide)
    )
    (pin "1" (uuid dc8484ab-2c1f-4d63-b590-4d858bb20876))
    (pin "2" (uuid f09928e2-3148-44f8-ab08-1f401f26c093))
    (instances
      (project "sim_akkord201-jlh_concept"
        (path "/cefae286-dde6-44ae-8b1c-fe027df923e4"
          (reference "R35") (unit 1)
        )
      )
    )
  )

  (symbol (lib_id "Device:C_Polarized") (at 129.54 85.09 0) (mirror x) (unit 1)
    (in_bom yes) (on_board yes) (dnp no)
    (uuid c92cbb7e-3f1b-4912-a87f-8ac94efdb1c0)
    (property "Reference" "C17" (at 124.46 81.28 0)
      (effects (font (size 1.27 1.27)) (justify left))
    )
    (property "Value" "100u" (at 123.19 87.63 0)
      (effects (font (size 1.27 1.27)) (justify left))
    )
    (property "Footprint" "Capacitor_THT:CP_Radial_D10.0mm_P5.00mm" (at 130.5052 81.28 0)
      (effects (font (size 1.27 1.27)) hide)
    )
    (property "Datasheet" "~" (at 129.54 85.09 0)
      (effects (font (size 1.27 1.27)) hide)
    )
    (pin "1" (uuid 4dae2115-9a89-454f-a62d-51fa2b07347f))
    (pin "2" (uuid 568b141b-f6eb-476c-baff-fbe068f823e7))
    (instances
      (project "sim_akkord201-jlh_concept"
        (path "/cefae286-dde6-44ae-8b1c-fe027df923e4"
          (reference "C17") (unit 1)
        )
      )
    )
  )

  (symbol (lib_id "Device:R") (at 152.4 88.9 0) (unit 1)
    (in_bom yes) (on_board yes) (dnp no)
    (uuid d08d7160-0ddb-4bc2-8aef-77a0c2c3d94f)
    (property "Reference" "R32" (at 154.94 86.36 0)
      (effects (font (size 1.27 1.27)) (justify left))
    )
    (property "Value" "100" (at 154.94 88.9 0)
      (effects (font (size 1.27 1.27)) (justify left))
    )
    (property "Footprint" "Resistor_THT:R_Axial_DIN0207_L6.3mm_D2.5mm_P7.62mm_Horizontal" (at 150.622 88.9 90)
      (effects (font (size 1.27 1.27)) hide)
    )
    (property "Datasheet" "~" (at 152.4 88.9 0)
      (effects (font (size 1.27 1.27)) hide)
    )
    (pin "1" (uuid 2c9552c7-9c35-4ba8-8d5d-89c05afca731))
    (pin "2" (uuid b0f2197f-d0d1-46af-9d53-68a0919f4c70))
    (instances
      (project "sim_akkord201-jlh_concept"
        (path "/cefae286-dde6-44ae-8b1c-fe027df923e4"
          (reference "R32") (unit 1)
        )
      )
    )
  )

  (symbol (lib_id "Device:C_Polarized") (at 100.33 106.68 270) (mirror x) (unit 1)
    (in_bom yes) (on_board yes) (dnp no)
    (uuid d4af28b8-34b2-4f30-a067-a650455081b4)
    (property "Reference" "C16" (at 92.71 111.76 90)
      (effects (font (size 1.27 1.27)) (justify left))
    )
    (property "Value" "10u" (at 97.79 111.76 90)
      (effects (font (size 1.27 1.27)) (justify left))
    )
    (property "Footprint" "Capacitor_THT:CP_Radial_D10.0mm_P5.00mm" (at 96.52 105.7148 0)
      (effects (font (size 1.27 1.27)) hide)
    )
    (property "Datasheet" "~" (at 100.33 106.68 0)
      (effects (font (size 1.27 1.27)) hide)
    )
    (pin "1" (uuid 7d4ce840-5684-4529-b9f4-6a835c07a244))
    (pin "2" (uuid 82bfa612-09e5-42ff-a51b-0a51f61b910c))
    (instances
      (project "sim_akkord201-jlh_concept"
        (path "/cefae286-dde6-44ae-8b1c-fe027df923e4"
          (reference "C16") (unit 1)
        )
      )
    )
  )

  (symbol (lib_id "Device:R") (at 120.65 106.68 180) (unit 1)
    (in_bom yes) (on_board yes) (dnp no)
    (uuid deffa820-3cef-4d9c-9238-4a03de9dee9e)
    (property "Reference" "R1002" (at 111.76 111.76 0)
      (effects (font (size 1.27 1.27)) (justify right))
    )
    (property "Value" "100" (at 114.3 109.22 0)
      (effects (font (size 1.27 1.27)) (justify right))
    )
    (property "Footprint" "Resistor_THT:R_Axial_DIN0207_L6.3mm_D2.5mm_P7.62mm_Horizontal" (at 122.428 106.68 90)
      (effects (font (size 1.27 1.27)) hide)
    )
    (property "Datasheet" "~" (at 120.65 106.68 0)
      (effects (font (size 1.27 1.27)) hide)
    )
    (pin "1" (uuid b37f6e7c-4ece-467b-ac84-bf5bd7c1b8a8))
    (pin "2" (uuid 927747ff-c977-491f-99f1-f161ba6ab03a))
    (instances
      (project "sim_akkord201-jlh_concept"
        (path "/cefae286-dde6-44ae-8b1c-fe027df923e4"
          (reference "R1002") (unit 1)
        )
      )
    )
  )

  (symbol (lib_id "Device:R") (at 129.54 71.12 0) (unit 1)
    (in_bom yes) (on_board yes) (dnp no)
    (uuid dfb89cb0-25ed-4346-afc3-538f66dace75)
    (property "Reference" "R29" (at 123.19 68.58 0)
      (effects (font (size 1.27 1.27)) (justify left))
    )
    (property "Value" "390" (at 123.19 72.39 0)
      (effects (font (size 1.27 1.27)) (justify left))
    )
    (property "Footprint" "Resistor_THT:R_Axial_DIN0207_L6.3mm_D2.5mm_P7.62mm_Horizontal" (at 127.762 71.12 90)
      (effects (font (size 1.27 1.27)) hide)
    )
    (property "Datasheet" "~" (at 129.54 71.12 0)
      (effects (font (size 1.27 1.27)) hide)
    )
    (pin "1" (uuid 49d12a40-9c7c-42fc-a716-f1100b40fbc1))
    (pin "2" (uuid 0cd81c68-eaea-40bd-9ee1-100956019669))
    (instances
      (project "sim_akkord201-jlh_concept"
        (path "/cefae286-dde6-44ae-8b1c-fe027df923e4"
          (reference "R29") (unit 1)
        )
      )
    )
  )

  (symbol (lib_id "Device:R") (at 140.97 116.84 0) (unit 1)
    (in_bom yes) (on_board yes) (dnp no) (fields_autoplaced)
    (uuid e04a1c01-94ef-44f7-bb15-d0b2c8f8a18c)
    (property "Reference" "R28" (at 143.51 116.205 0)
      (effects (font (size 1.27 1.27)) (justify left))
    )
    (property "Value" "10k" (at 143.51 118.745 0)
      (effects (font (size 1.27 1.27)) (justify left))
    )
    (property "Footprint" "Resistor_THT:R_Axial_DIN0207_L6.3mm_D2.5mm_P7.62mm_Horizontal" (at 139.192 116.84 90)
      (effects (font (size 1.27 1.27)) hide)
    )
    (property "Datasheet" "~" (at 140.97 116.84 0)
      (effects (font (size 1.27 1.27)) hide)
    )
    (pin "1" (uuid bb071f34-8afe-41c9-b000-8bd95ba730a4))
    (pin "2" (uuid f2bd8a09-f29b-4309-8066-39b6bc485478))
    (instances
      (project "sim_akkord201-jlh_concept"
        (path "/cefae286-dde6-44ae-8b1c-fe027df923e4"
          (reference "R28") (unit 1)
        )
      )
    )
  )

  (symbol (lib_id "Device:C_Polarized") (at 81.28 118.11 0) (mirror x) (unit 1)
    (in_bom yes) (on_board yes) (dnp no)
    (uuid e47e5675-9b33-4008-bb96-2f65036a52d0)
    (property "Reference" "C14" (at 76.2 114.3 0)
      (effects (font (size 1.27 1.27)) (justify left))
    )
    (property "Value" "50u" (at 74.93 120.65 0)
      (effects (font (size 1.27 1.27)) (justify left))
    )
    (property "Footprint" "Capacitor_THT:CP_Radial_D10.0mm_P5.00mm" (at 82.2452 114.3 0)
      (effects (font (size 1.27 1.27)) hide)
    )
    (property "Datasheet" "~" (at 81.28 118.11 0)
      (effects (font (size 1.27 1.27)) hide)
    )
    (pin "1" (uuid cac0383d-389c-4b9f-8b8b-16670c26cc16))
    (pin "2" (uuid 3b26080f-647b-4352-a675-c7997ef072f8))
    (instances
      (project "sim_akkord201-jlh_concept"
        (path "/cefae286-dde6-44ae-8b1c-fe027df923e4"
          (reference "C14") (unit 1)
        )
      )
    )
  )

  (symbol (lib_id "Simulation_SPICE:VSIN") (at 60.96 116.84 0) (unit 1)
    (in_bom yes) (on_board yes) (dnp no)
    (uuid e8865b84-ae0a-472b-b05c-a38d89fc9352)
    (property "Reference" "V5" (at 64.77 114.1101 0)
      (effects (font (size 1.27 1.27)) (justify left))
    )
    (property "Value" "VSIN" (at 64.77 116.6501 0)
      (effects (font (size 1.27 1.27)) (justify left))
    )
    (property "Footprint" "" (at 60.96 116.84 0)
      (effects (font (size 1.27 1.27)) hide)
    )
    (property "Datasheet" "~" (at 60.96 116.84 0)
      (effects (font (size 1.27 1.27)) hide)
    )
    (property "Sim.Device" "V" (at 60.96 116.84 0)
      (effects (font (size 1.27 1.27)) (justify left) hide)
    )
    (property "Sim.Type" "SIN" (at -6.35 5.08 0)
      (effects (font (size 1.27 1.27)) hide)
    )
    (property "Sim.Params" "dc=0 ampl=0.07 f=10" (at 59.69 67.31 0)
      (effects (font (size 1.27 1.27)) (justify left))
    )
    (property "Sim.Pins" "1=+ 2=-" (at -6.35 5.08 0)
      (effects (font (size 1.27 1.27)) hide)
    )
    (pin "1" (uuid bfc9c03d-a681-4471-bc00-c62d9a19e849))
    (pin "2" (uuid 58340bdd-b92c-4b86-b907-c6f6464d0e41))
    (instances
      (project "sim_akkord201-jlh_concept"
        (path "/cefae286-dde6-44ae-8b1c-fe027df923e4"
          (reference "V5") (unit 1)
        )
      )
    )
  )

  (symbol (lib_id "Device:C_Polarized") (at 68.58 104.14 270) (mirror x) (unit 1)
    (in_bom yes) (on_board yes) (dnp no)
    (uuid eef5a3d0-1cc3-4aef-920f-de1074c7a137)
    (property "Reference" "C13" (at 64.77 109.22 0)
      (effects (font (size 1.27 1.27)) (justify left))
    )
    (property "Value" "10u" (at 71.12 110.49 0)
      (effects (font (size 1.27 1.27)) (justify left))
    )
    (property "Footprint" "Capacitor_THT:CP_Radial_D10.0mm_P5.00mm" (at 64.77 103.1748 0)
      (effects (font (size 1.27 1.27)) hide)
    )
    (property "Datasheet" "~" (at 68.58 104.14 0)
      (effects (font (size 1.27 1.27)) hide)
    )
    (pin "1" (uuid 9fdb33a4-c5b7-4757-81e0-e5567a8e3077))
    (pin "2" (uuid 63f412d7-0ef4-49d7-89ac-beed42e2466d))
    (instances
      (project "sim_akkord201-jlh_concept"
        (path "/cefae286-dde6-44ae-8b1c-fe027df923e4"
          (reference "C13") (unit 1)
        )
      )
    )
  )

  (symbol (lib_id "Device:R") (at 88.9 133.35 0) (unit 1)
    (in_bom yes) (on_board yes) (dnp no) (fields_autoplaced)
    (uuid f2f93a39-e929-468d-a1ea-c70f6631b30a)
    (property "Reference" "R24" (at 91.44 132.715 0)
      (effects (font (size 1.27 1.27)) (justify left))
    )
    (property "Value" "15k" (at 91.44 135.255 0)
      (effects (font (size 1.27 1.27)) (justify left))
    )
    (property "Footprint" "Resistor_THT:R_Axial_DIN0207_L6.3mm_D2.5mm_P7.62mm_Horizontal" (at 87.122 133.35 90)
      (effects (font (size 1.27 1.27)) hide)
    )
    (property "Datasheet" "~" (at 88.9 133.35 0)
      (effects (font (size 1.27 1.27)) hide)
    )
    (pin "1" (uuid f2aeee67-0222-4659-bc8d-19c636f992bf))
    (pin "2" (uuid 34f8f9a9-df7a-4139-8829-8c0b2f70f622))
    (instances
      (project "sim_akkord201-jlh_concept"
        (path "/cefae286-dde6-44ae-8b1c-fe027df923e4"
          (reference "R24") (unit 1)
        )
      )
    )
  )

  (symbol (lib_id "Device:R") (at 104.14 118.11 0) (unit 1)
    (in_bom yes) (on_board yes) (dnp no) (fields_autoplaced)
    (uuid f7e8722f-3d46-45db-947c-ca6b520b42df)
    (property "Reference" "R1004" (at 106.68 117.475 0)
      (effects (font (size 1.27 1.27)) (justify left))
    )
    (property "Value" "100k" (at 106.68 120.015 0)
      (effects (font (size 1.27 1.27)) (justify left))
    )
    (property "Footprint" "Resistor_THT:R_Axial_DIN0207_L6.3mm_D2.5mm_P7.62mm_Horizontal" (at 102.362 118.11 90)
      (effects (font (size 1.27 1.27)) hide)
    )
    (property "Datasheet" "~" (at 104.14 118.11 0)
      (effects (font (size 1.27 1.27)) hide)
    )
    (pin "1" (uuid e4d22571-e33d-4490-95ec-a193e7958e40))
    (pin "2" (uuid 25a9e69b-da98-4d0f-b784-d8eb322c7bdd))
    (instances
      (project "sim_akkord201-jlh_concept"
        (path "/cefae286-dde6-44ae-8b1c-fe027df923e4"
          (reference "R1004") (unit 1)
        )
      )
    )
  )

  (symbol (lib_id "Device:R") (at 137.16 77.47 90) (unit 1)
    (in_bom yes) (on_board yes) (dnp no) (fields_autoplaced)
    (uuid f8653597-620a-48c2-a682-f07466d21a4d)
    (property "Reference" "R30" (at 137.16 72.39 90)
      (effects (font (size 1.27 1.27)))
    )
    (property "Value" "1k8" (at 137.16 74.93 90)
      (effects (font (size 1.27 1.27)))
    )
    (property "Footprint" "Resistor_THT:R_Axial_DIN0207_L6.3mm_D2.5mm_P7.62mm_Horizontal" (at 137.16 79.248 90)
      (effects (font (size 1.27 1.27)) hide)
    )
    (property "Datasheet" "~" (at 137.16 77.47 0)
      (effects (font (size 1.27 1.27)) hide)
    )
    (pin "1" (uuid 7a3dac4a-29b1-4a1f-9007-5245119ea869))
    (pin "2" (uuid 58814e48-09e6-4de7-b861-33d9798311b4))
    (instances
      (project "sim_akkord201-jlh_concept"
        (path "/cefae286-dde6-44ae-8b1c-fe027df923e4"
          (reference "R30") (unit 1)
        )
      )
    )
  )

  (sheet_instances
    (path "/" (page "1"))
  )
)
